Time;TotalMassChange;WaterMassChange;IntEnergyChange;WaterMass
0.000897248;0.000981905;0.000904203;2286.36;25.038
0.00692404;0.000540347;0.000628794;1574.06;25.038
0.0465806;0.000383273;0.00036909;925.121;25.038
0.265283;0.000280122;0.000276384;690.719;25.038
1.98334;0.000259181;0.000257637;635.908;25.0379
14.9255;0.000235299;0.000234804;558.826;25.0371
117.56;0.000192395;0.000192488;412.486;25.0322
952.588;0.000143702;0.00014389;232.325;25.0022
2612.59;0.000123864;0.000124022;140.803;24.9507
4284.59;0.00011943;0.000119577;99.8864;24.9007
5707.05;0.00012003;0.000120175;80.1409;24.858
7293.49;0.000122204;0.00012235;67.5008;24.8095
9021.49;0.000125342;0.00012549;57.676;24.7552
10821.5;0.000128953;0.000129103;50.1664;24.6971
12621.5;0.000132561;0.000132715;44.6062;24.6374
14349.5;0.000135795;0.000135952;40.6355;24.5787
16149.5;0.000138596;0.000138756;37.7556;24.5163
17949.5;0.000140857;0.000141019;35.7334;24.4528
19749.5;0.000142429;0.000142593;34.4631;24.3886
21411;0.000143233;0.000143398;33.8269;24.3291
23187.9;0.000143293;0.000143458;33.6898;24.2653
24987.9;0.000142559;0.000142724;33.9765;24.2011
26787.9;0.000140993;0.000141157;34.65;24.1376
28587.9;0.00013861;0.000138772;35.6492;24.0751
30387.9;0.000135439;0.000135598;36.9053;24.0141
32187.9;0.000131525;0.00013168;38.3867;23.9549
33987.9;0.00012693;0.00012708;40.0256;23.8977
35787.9;0.000121727;0.000121873;41.7793;23.8428
37587.9;0.000116003;0.000116143;43.5958;23.7906
39387.9;0.000109852;0.000109987;45.4272;23.7411
41187.9;0.00010338;0.000103507;47.2171;23.6945
42987.9;9.66936e-05;9.68143e-05;48.9121;23.6509
43200;9.31874e-05;9.33045e-05;49.7452;23.646
44640;8.97854e-05;8.9899e-05;50.491;23.6136
46440;8.36856e-05;8.37928e-05;51.7105;23.5759
48240;7.70213e-05;7.71214e-05;52.8259;23.5412
50040;7.05821e-05;7.06752e-05;53.6361;23.5094
51840;6.44722e-05;6.45585e-05;54.0973;23.4804
53640;5.87891e-05;5.88688e-05;54.1526;23.4539
55440;5.36217e-05;5.36953e-05;53.7663;23.4297
57240;4.90497e-05;4.91177e-05;52.9181;23.4076
59040;4.51421e-05;4.5205e-05;51.5574;23.3873
60840;4.19569e-05;4.20154e-05;49.7035;23.3684
62640;3.95406e-05;3.95953e-05;47.3512;23.3505
64440;3.79277e-05;3.79795e-05;44.5179;23.3334
66240;3.71409e-05;3.71906e-05;41.2416;23.3167
68040;3.7191e-05;3.72394e-05;37.5608;23.2999
69840;3.80763e-05;3.81243e-05;33.5454;23.2828
71640;3.97833e-05;3.98318e-05;29.2616;23.2649
73440;4.2286e-05;4.2336e-05;24.7942;23.2458
75240;4.55463e-05;4.55985e-05;20.2278;23.2253
77040;4.95137e-05;4.95691e-05;15.6511;23.203
78840;5.4126e-05;5.41853e-05;11.152;23.1786
80640;5.93095e-05;5.93734e-05;6.79982;23.1519
82440;6.49792e-05;6.50485e-05;2.70271;23.1226
84240;7.10409e-05;7.1116e-05;-1.09425;23.0906
86040;7.73915e-05;7.7473e-05;-4.52391;23.0558
86400;8.12909e-05;8.13764e-05;-6.40193;23.0484
87660;8.42024e-05;8.42909e-05;-7.66602;23.0219
89373.8;8.96747e-05;8.97689e-05;-9.80339;22.9834
91173.8;9.61004e-05;9.62015e-05;-11.9322;22.9401
92833.8;0.000102226;0.000102334;-13.547;22.8977
94593.8;0.000108104;0.000108218;-14.7094;22.85
96164.2;0.00011344;0.00011356;-15.4198;22.8055
97455.9;0.000117707;0.000117832;-15.7082;22.7674
99255.9;0.000122067;0.000122197;-15.7;22.7124
101016;0.000126395;0.000126531;-15.2965;22.6567
102816;0.000130051;0.000130192;-14.4909;22.5982
104576;0.000132944;0.000133089;-13.3074;22.5396
106376;0.00013504;0.000135188;-11.785;22.4788
108078;0.000136277;0.000136427;-9.99577;22.4207
109838;0.000136681;0.000136833;-7.96064;22.3605
111638;0.000136232;0.000136385;-5.63649;22.2991
113438;0.000134903;0.000135055;-3.07227;22.2384
115198;0.00013275;0.000132901;-0.38958;22.1799
116998;0.000129782;0.000129932;2.43668;22.1214
118798;0.000126025;0.000126172;5.39521;22.0646
120598;0.00012157;0.000121713;8.40892;22.0099
122398;0.000116496;0.000116635;11.4227;21.9574
124198;0.000110893;0.000111028;14.4293;21.9074
125998;0.000104864;0.000104993;17.3843;21.8602
127798;9.8513e-05;9.86361e-05;20.2313;21.8158
129598;9.19539e-05;9.20708e-05;22.8951;21.7744
129600;8.92928e-05;8.94072e-05;23.9676;21.7743
131040;8.59589e-05;8.607e-05;25.1967;21.7433
132840;7.99814e-05;8.00865e-05;27.2454;21.7073
134600;7.35353e-05;7.36338e-05;29.2722;21.6749
136400;6.72823e-05;6.73741e-05;30.9676;21.6446
138200;6.12983e-05;6.13835e-05;32.3246;21.6169
140000;5.57408e-05;5.58196e-05;33.2869;21.5918
141505;5.11446e-05;5.12179e-05;33.7646;21.5726
143305;4.69414e-05;4.70094e-05;33.8693;21.5514
145065;4.30959e-05;4.31586e-05;33.518;21.5324
146865;3.99392e-05;3.99972e-05;32.6758;21.5144
148665;3.75131e-05;3.7567e-05;31.3597;21.4975
150465;3.58882e-05;3.59387e-05;29.5473;21.4813
152265;3.50894e-05;3.51372e-05;27.3092;21.4655
154065;3.51294e-05;3.51754e-05;24.6584;21.4497
155865;3.60086e-05;3.60535e-05;21.6775;21.4335
157665;3.77147e-05;3.77595e-05;18.406;21.4165
159303;4.007e-05;4.01155e-05;15.1032;21.4001
161103;4.31732e-05;4.32202e-05;11.6292;21.3806
162903;4.7102e-05;4.71515e-05;7.96509;21.3594
164703;5.16914e-05;5.17443e-05;4.32132;21.3361
166503;5.68694e-05;5.69265e-05;0.780194;21.3105
168303;6.25527e-05;6.26147e-05;-2.58881;21.2823
169983;6.84072e-05;6.84745e-05;-5.61128;21.2535
171783;7.46186e-05;7.46918e-05;-8.38009;21.2199
172800;7.97306e-05;7.98089e-05;-10.3843;21.1996
173520;8.29811e-05;8.30627e-05;-11.5241;21.1847
175320;8.76707e-05;8.77571e-05;-12.9961;21.1452
177120;9.43408e-05;9.44342e-05;-14.7337;21.1027
178920;0.000100874;0.000100974;-16.087;21.0573
180720;0.000107153;0.000107261;-17.0112;21.009
182520;0.000113066;0.000113181;-17.5181;20.9581
184320;0.000118506;0.000118628;-17.613;20.9047
186120;0.000123375;0.000123503;-17.3099;20.8491
187920;0.000127585;0.000127718;-16.6418;20.7916
189720;0.000131059;0.000131197;-15.6189;20.7326
191520;0.000133734;0.000133877;-14.2779;20.6724
193320;0.000135564;0.000135709;-12.6412;20.6113
195120;0.000136513;0.000136662;-10.7418;20.5498
196920;0.000136567;0.000136717;-8.63392;20.4883
198720;0.000135723;0.000135874;-6.31654;20.4271
200520;0.000133997;0.000134148;-3.84157;20.3668
202320;0.000131421;0.000131571;-1.2303;20.3075
204120;0.00012804;0.000128189;1.47347;20.2499
205920;0.000123917;0.000124063;4.24608;20.194
207720;0.000119125;0.000119267;7.04822;20.1404
209520;0.00011375;0.000113888;9.84909;20.0891
211320;0.000107888;0.000108022;12.6102;20.0405
213120;0.000101645;0.000101773;15.3006;19.9947
214920;9.513e-05;9.52524e-05;17.8752;19.9518
216000;8.98016e-05;8.99191e-05;19.8333;19.9276
216720;8.64445e-05;8.65588e-05;20.9972;19.912
218520;8.17478e-05;8.18576e-05;22.5289;19.8752
220320;7.51132e-05;7.52165e-05;24.5243;19.8413
222120;6.86686e-05;6.87653e-05;26.2453;19.8104
223920;6.25228e-05;6.26129e-05;27.6508;19.7822
225720;5.67779e-05;5.68615e-05;28.7044;19.7566
227520;5.1528e-05;5.16054e-05;29.3727;19.7334
229320;4.68576e-05;4.6929e-05;29.6269;19.7123
231120;4.28408e-05;4.29065e-05;29.451;19.6929
232920;3.95401e-05;3.96008e-05;28.8338;19.6751
234720;3.70066e-05;3.70627e-05;27.7765;19.6584
236520;3.52791e-05;3.53313e-05;26.2891;19.6425
238320;3.43842e-05;3.44332e-05;24.3961;19.6271
240120;3.4336e-05;3.43826e-05;22.1348;19.6116
241920;3.51362e-05;3.51812e-05;19.5532;19.5958
243720;3.6774e-05;3.68182e-05;16.7075;19.5792
245520;3.92259e-05;3.92702e-05;13.6623;19.5615
247320;4.24559e-05;4.25013e-05;10.4861;19.5424
249080;4.63579e-05;4.64052e-05;7.28821;19.522
250880;5.09334e-05;5.09836e-05;4.09649;19.499
252680;5.61446e-05;5.61985e-05;0.961024;19.4737
254480;6.18694e-05;6.19278e-05;-2.0247;19.4459
256280;6.8014e-05;6.80776e-05;-4.79982;19.4152
258080;7.44753e-05;7.45448e-05;-7.31624;19.3817
259200;7.98489e-05;7.99235e-05;-9.13434;19.3593
259560;8.26388e-05;8.27162e-05;-9.98957;19.3519
261360;8.66998e-05;8.67812e-05;-11.0975;19.3128
263160;9.34461e-05;9.35345e-05;-12.682;19.2707
264960;0.000100068;0.000100163;-13.8952;19.2256
266760;0.000106447;0.00010655;-14.7289;19.1777
268560;0.000112469;0.000112579;-15.1949;19.127
270360;0.000118027;0.000118144;-15.2931;19.0739
272160;0.00012302;0.000123143;-15.0376;19.0185
273960;0.000127357;0.000127486;-14.4468;18.9611
275760;0.000130962;0.000131096;-13.5483;18.9021
277560;0.000133769;0.000133908;-12.3677;18.8418
279360;0.000135726;0.000135869;-10.9241;18.7807
281160;0.000136801;0.000136947;-9.24976;18.7191
282960;0.000136972;0.00013712;-7.37331;18.6574
284760;0.000136237;0.000136387;-5.32366;18.596
286560;0.00013461;0.00013476;-3.12958;18.5354
288360;0.00013212;0.00013227;-0.819714;18.4758
290160;0.000128812;0.00012896;1.57733;18.4178
291960;0.000124744;0.00012489;4.03289;18.3616
293760;0.000119991;0.000120134;6.518;18.3075
295560;0.000114637;0.000114776;9.00305;18.2559
297360;0.000108778;0.000108913;11.4576;18.2069
299160;0.000102518;0.000102648;13.8499;18.1607
300960;9.59691e-05;9.60937e-05;16.1469;18.1174
302400;8.99236e-05;9.00429e-05;18.1067;18.085
302760;8.65344e-05;8.66507e-05;19.1442;18.0772
304560;8.2466e-05;8.25785e-05;20.3167;18.0401
306360;7.57472e-05;7.58534e-05;22.1172;18.0059
308160;6.92045e-05;6.93043e-05;23.6807;17.9748
309960;6.29489e-05;6.30421e-05;24.9662;17.9464
311760;5.70845e-05;5.71712e-05;25.9442;17.9207
313560;5.17075e-05;5.17879e-05;26.5834;17.8973
315360;4.69048e-05;4.69791e-05;26.8599;17.8762
317160;4.27526e-05;4.28212e-05;26.7536;17.8569
318960;3.9316e-05;3.93793e-05;26.254;17.8392
320760;3.66482e-05;3.67066e-05;25.3581;17.8227
322560;3.47899e-05;3.48441e-05;24.0723;17.807
324360;3.37699e-05;3.38205e-05;22.4242;17.7918
326160;3.36042e-05;3.36518e-05;20.4426;17.7767
327960;3.42961e-05;3.43416e-05;18.1665;17.7612
329760;3.58363e-05;3.58806e-05;15.6473;17.7451
331560;3.8203e-05;3.82469e-05;12.947;17.7278
333360;4.13614e-05;4.14058e-05;10.1214;17.7092
335160;4.52639e-05;4.53098e-05;7.23827;17.6888
336960;4.98507e-05;4.98989e-05;4.36965;17.6664
338760;5.50495e-05;5.5101e-05;1.5765;17.6416
340560;6.0777e-05;6.08326e-05;-1.08859;17.6142
342360;6.69393e-05;6.69998e-05;-3.56172;17.5841
344160;7.34333e-05;7.34993e-05;-5.79798;17.551
345600;7.94686e-05;7.95401e-05;-7.59516;17.5223
345960;8.28685e-05;8.29432e-05;-8.48513;17.5149
347760;8.69692e-05;8.70479e-05;-9.43999;17.4757
349560;9.3776e-05;9.38616e-05;-10.7787;17.4335
351360;0.000100449;0.000100542;-11.7932;17.3882
353160;0.000106869;0.000106969;-12.4674;17.3401
354960;0.000112921;0.000113029;-12.8076;17.2892
356760;0.000118498;0.000118612;-12.8216;17.2358
358560;0.000123498;0.000123618;-12.5268;17.1802
360360;0.000127831;0.000127957;-11.9395;17.1226
362160;0.00013142;0.000131552;-11.0846;17.0634
363960;0.000134199;0.000134336;-9.98257;17.003
365760;0.00013612;0.000136261;-8.65727;16.9417
367560;0.000137147;0.000137291;-7.14103;16.8799
369360;0.000137263;0.000137409;-5.4542;16.8181
371160;0.000136464;0.000136612;-3.62367;16.7566
372960;0.000134767;0.000134915;-1.67483;16.6959
374760;0.000132201;0.000132349;0.367671;16.6363
376560;0.000128812;0.000128959;2.47955;16.5783
378360;0.000124662;0.000124807;4.63677;16.5221
380160;0.000119825;0.000119967;6.81483;16.4681
381960;0.000114387;0.000114526;8.9909;16.4166
383760;0.000108446;0.000108581;11.1389;16.3677
385560;0.000102108;0.000102238;13.2359;16.3217
387360;9.54851e-05;9.56096e-05;15.2475;16.2787
388800;8.93779e-05;8.94973e-05;16.958;16.2465
389160;8.59566e-05;8.6073e-05;17.8627;16.2387
390960;8.18524e-05;8.19652e-05;18.8898;16.2019
392760;7.50796e-05;7.51862e-05;20.4631;16.168
394560;6.8491e-05;6.85914e-05;21.8269;16.1372
396360;6.21979e-05;6.22919e-05;22.9467;16.1091
398160;5.63048e-05;5.63925e-05;23.7912;16.0837
399960;5.09082e-05;5.09897e-05;24.3321;16.0608
401760;4.60949e-05;4.61704e-05;24.5453;16.04
403560;4.19412e-05;4.2011e-05;24.4136;16.0211
405360;3.8512e-05;3.85764e-05;23.9267;16.0038
407160;3.58603e-05;3.59198e-05;23.0838;15.9876
408960;3.40267e-05;3.40819e-05;21.8939;15.9723
410760;3.30396e-05;3.3091e-05;20.3762;15.9574
412560;3.29145e-05;3.29629e-05;18.5602;15.9425
414360;3.36544e-05;3.37004e-05;16.485;15.9274
416160;3.52494e-05;3.52939e-05;14.1979;15.9115
417960;3.76769e-05;3.77208e-05;11.753;15.8945
419760;4.09013e-05;4.09455e-05;9.20876;15.8761
421560;4.48742e-05;4.49196e-05;6.62617;15.8559
423360;4.95345e-05;4.9582e-05;4.06577;15.8336
425160;5.48091e-05;5.48595e-05;1.58599;15.8089
426960;6.0613e-05;6.06674e-05;-0.759158;15.7816
428760;6.68511e-05;6.69101e-05;-2.92169;15.7515
430560;7.34188e-05;7.34832e-05;-4.8608;15.7184
432000;7.95176e-05;7.95873e-05;-6.39216;15.6897
432360;8.29513e-05;8.30242e-05;-7.15152;15.6823
434160;8.70903e-05;8.71672e-05;-7.94733;15.643
435960;9.38196e-05;9.39028e-05;-9.27159;15.6008
437760;9.96388e-05;9.97263e-05;-11.2093;15.5559
439520;0.000104761;0.000104852;-12.9806;15.5098
441320;0.000109063;0.000109158;-14.7624;15.4607
443080;0.000112282;0.000112377;-16.6638;15.4112
444880;0.000114291;0.000114387;-18.6821;15.3597
446389;0.000115016;0.000115111;-20.5589;15.3163
447814;0.000114487;0.000114579;-22.4155;15.2755
449574;0.000113126;0.000113215;-23.9444;15.2257
451374;0.000111276;0.000111364;-24.5612;15.1756
453174;0.00010903;0.000109117;-24.4706;15.1265
454974;0.000106703;0.00010679;-23.4881;15.0784
456774;0.000104301;0.000104389;-21.7157;15.0314
458574;0.000101734;0.000101825;-19.3792;14.9856
460374;9.90144e-05;9.9107e-05;-16.503;14.941
462174;9.60489e-05;9.61437e-05;-13.2467;14.8977
463974;9.29375e-05;9.30346e-05;-9.62396;14.8559
465774;8.97453e-05;8.98449e-05;-5.68794;14.8154
467502;8.66323e-05;8.67344e-05;-1.53808;14.778
469204;8.35454e-05;8.36499e-05;2.60182;14.7424
470120;8.12469e-05;8.13532e-05;5.813;14.7238
470756;7.99492e-05;8.00563e-05;7.5439;14.711
472386;7.76767e-05;7.77849e-05;10.4375;14.6793
474114;7.45708e-05;7.46803e-05;14.4374;14.6471
475200;7.19756e-05;7.20857e-05;17.5406;14.6275
475560;7.05943e-05;7.07046e-05;19.1235;14.6211
477262;6.88102e-05;6.89208e-05;21.3553;14.5918
478918;6.60175e-05;6.61285e-05;24.7783;14.5644
480502;6.32262e-05;6.33365e-05;27.6104;14.5394
481878;6.03181e-05;6.04261e-05;29.3687;14.5186
482329;5.86016e-05;5.87079e-05;30.1756;14.5119
483387;5.67107e-05;5.68147e-05;30.6968;14.4969
484047;5.4785e-05;5.48865e-05;31.0628;14.4879
485650;5.18244e-05;5.19216e-05;31.3537;14.4671
486228;4.92899e-05;4.93833e-05;31.4309;14.4599
486989;4.77521e-05;4.7843e-05;31.3513;14.4508
488010;4.56384e-05;4.57258e-05;31.1746;14.4391
489648;4.26855e-05;4.27677e-05;30.7361;14.4216
491448;3.93837e-05;3.94596e-05;29.8747;14.4039
493248;3.65654e-05;3.66351e-05;28.6105;14.3874
495048;3.44812e-05;3.45452e-05;27.0433;14.3718
496848;3.32733e-05;3.33324e-05;25.2648;14.3568
498648;3.29476e-05;3.30027e-05;23.2519;14.342
500448;3.35034e-05;3.35553e-05;21.022;14.3269
502248;3.49261e-05;3.49757e-05;18.6018;14.3112
503852;3.67992e-05;3.68467e-05;15.9093;14.2964
505652;3.92622e-05;3.93081e-05;12.9749;14.2787
507193;4.18915e-05;4.19355e-05;9.75311;14.2625
508669;4.43171e-05;4.4359e-05;6.41496;14.2462
509697;4.60288e-05;4.60681e-05;3.26004;14.2343
510551;4.70387e-05;4.70751e-05;0.51266;14.2243
511284;4.76422e-05;4.76757e-05;-2.06957;14.2155
512172;4.77997e-05;4.78291e-05;-5.13391;14.2049
513900;4.829e-05;4.83143e-05;-9.41299;14.184
515700;4.91726e-05;4.91915e-05;-14.505;14.1619
517500;4.97938e-05;4.98072e-05;-19.6491;14.1395
518400;5.00998e-05;5.01092e-05;-23.3068;14.1282
519120;5.02916e-05;5.0299e-05;-25.4413;14.1192
520920;5.08864e-05;5.08918e-05;-28.1223;14.0963
522720;5.18912e-05;5.18946e-05;-31.5485;14.0729
524520;5.24066e-05;5.24074e-05;-35.0162;14.0493
526320;5.28969e-05;5.28964e-05;-37.6604;14.0255
528120;5.36318e-05;5.36316e-05;-39.4092;14.0014
529920;5.42566e-05;5.42573e-05;-40.6283;13.977
531720;5.45048e-05;5.45064e-05;-41.4754;13.9525
533520;5.4707e-05;5.47108e-05;-41.5056;13.9278
535320;5.49027e-05;5.49097e-05;-40.7596;13.9031
537120;5.50116e-05;5.50225e-05;-39.3688;13.8784
538920;5.48783e-05;5.48934e-05;-37.4927;13.8537
540720;5.44625e-05;5.44822e-05;-35.1003;13.8291
542520;5.40201e-05;5.40452e-05;-31.9994;13.8048
544320;5.33418e-05;5.33724e-05;-28.5247;13.7808
546120;5.25633e-05;5.25999e-05;-24.5281;13.7571
547920;5.16473e-05;5.169e-05;-20.1486;13.7339
549622;5.06421e-05;5.06909e-05;-15.5941;13.7123
550727;4.95306e-05;4.95839e-05;-11.8827;13.6986
551391;4.93111e-05;4.93678e-05;-9.43857;13.6904
552716;4.84332e-05;4.84931e-05;-6.51267;13.6743
553174;4.75312e-05;4.75937e-05;-4.04503;13.6689
554584;4.71688e-05;4.72348e-05;-1.18562;13.6522
556011;4.59371e-05;4.60071e-05;2.79643;13.6358
556687;4.46023e-05;4.46745e-05;5.61601;13.6283
557252;4.44131e-05;4.44872e-05;7.19007;13.622
