Time;TotalMassChange;WaterMassChange;IntEnergyChange;WaterMass
0.000897248;0.000981904;0.000904204;2286.36;25.038
0.00692404;0.000540346;0.000628794;1574.06;25.038
0.0465806;0.000383273;0.00036909;925.121;25.038
0.265283;0.000280123;0.000276385;690.721;25.038
1.86352;0.000259639;0.00025806;637.328;25.0379
14.5379;0.00023578;0.000235273;560.459;25.0372
111.109;0.00019379;0.000193874;417.663;25.0325
755.349;0.000148012;0.000148205;251.644;25.0086
2480.82;0.000124954;0.000125116;152.982;24.9546
4280.82;0.000118876;0.000119024;109.169;24.9011
6080.82;0.00011908;0.000119226;88.2003;24.8474
7880.82;0.000121321;0.000121468;75.3808;24.7928
9608.82;0.00012428;0.000124429;66.7363;24.739
11336.8;0.000127417;0.000127569;60.4739;24.6839
12996.8;0.000130414;0.000130568;55.7714;24.6297
14656.8;0.000133098;0.000133254;52.1338;24.5744
16456.8;0.00013548;0.000135639;49.1027;24.5134
18256.8;0.000137356;0.000137516;46.6146;24.4515
20056.8;0.000138529;0.000138691;44.646;24.3891
21856.8;0.000138931;0.000139093;43.0969;24.3265
23656.8;0.000138517;0.000138679;41.8941;24.2641
25456.8;0.000137275;0.000137435;40.972;24.2022
27256.8;0.000135217;0.000135376;40.282;24.1413
29056.8;0.000132383;0.000132538;39.7794;24.0817
30856.8;0.000128831;0.000128983;39.4301;24.0236
32656.8;0.000124644;0.000124791;39.2001;23.9675
34456.8;0.000119915;0.000120057;39.0584;23.9135
36256.8;0.000114752;0.000114889;38.9746;23.8618
38056.8;0.00010927;0.000109401;38.9252;23.8125
39856.8;0.000103587;0.000103711;38.8812;23.7659
41656.8;9.78178e-05;9.7936e-05;38.8154;23.7218
43200;9.25058e-05;9.26182e-05;38.718;23.6861
45000;8.72496e-05;8.73562e-05;38.5663;23.6468
46800;8.18205e-05;8.1921e-05;38.3204;23.6099
48600;7.66807e-05;7.67755e-05;37.9711;23.5753
50400;7.18988e-05;7.19881e-05;37.5136;23.5429
52200;6.75293e-05;6.76135e-05;36.9148;23.5125
54000;6.36136e-05;6.36932e-05;36.1724;23.4839
55800;6.01817e-05;6.02573e-05;35.2927;23.4567
57600;5.72541e-05;5.73261e-05;34.2645;23.4309
59400;5.48434e-05;5.49123e-05;33.0773;23.4062
61200;5.29566e-05;5.3023e-05;31.7462;23.3824
63000;5.15976e-05;5.16619e-05;30.2658;23.3591
64800;5.07682e-05;5.08311e-05;28.6419;23.3362
66600;5.04703e-05;5.05323e-05;26.8889;23.3135
68400;5.07061e-05;5.07678e-05;25.0082;23.2907
70200;5.14783e-05;5.15402e-05;23.0224;23.2675
72000;5.27898e-05;5.28526e-05;20.9465;23.2437
73800;5.46421e-05;5.47064e-05;18.7998;23.2191
75600;5.70339e-05;5.71002e-05;16.6172;23.1934
77400;5.99584e-05;6.00274e-05;14.4105;23.1664
79200;6.34013e-05;6.34736e-05;12.2412;23.1378
80928;6.72403e-05;6.73163e-05;10.1987;23.1087
82728;7.15476e-05;7.1628e-05;8.21498;23.0765
84528;7.63326e-05;7.64179e-05;6.33295;23.0421
86229.8;8.12957e-05;8.13862e-05;4.6637;23.0075
86400;8.38106e-05;8.39038e-05;3.90866;23.0039
87840;8.65221e-05;8.66182e-05;3.18759;22.9727
89640;9.15184e-05;9.16198e-05;1.9566;22.9315
91440;9.71409e-05;9.72485e-05;0.856568;22.8877
92929.7;0.000102188;0.000102301;0.0675657;22.8496
94657.7;0.000107119;0.000107238;-0.539998;22.8033
95668.7;0.000110954;0.000111077;-0.862817;22.7752
97081.6;0.000114425;0.000114552;-1.04527;22.7348
98472;0.000118085;0.000118216;-1.15494;22.6937
100272;0.000121926;0.000122062;-1.07072;22.6387
101787;0.000125302;0.000125441;-0.829311;22.5912
103509;0.000128063;0.000128206;-0.426379;22.5361
105309;0.000130341;0.000130487;0.195202;22.4773
107109;0.000131835;0.000131983;0.978767;22.4179
108909;0.000132455;0.000132605;1.89575;22.3583
110709;0.000132186;0.000132336;2.95068;22.2987
112509;0.000131036;0.000131185;4.07034;22.2397
114309;0.000129036;0.000129184;5.28982;22.1816
116109;0.000126242;0.000126387;6.54378;22.1247
117909;0.000122727;0.000122869;7.82077;22.0694
119709;0.000118581;0.000118719;9.11894;22.016
121509;0.00011391;0.000114044;10.4133;21.9646
123309;0.000108827;0.000108956;11.66;21.9156
125109;0.000103451;0.000103574;12.8704;21.869
126909;9.79031e-05;9.80203e-05;14.0079;21.8249
128709;9.22992e-05;9.24105e-05;15.0629;21.7833
129600;8.81885e-05;8.82955e-05;15.7805;21.7636
130320;8.56748e-05;8.57792e-05;16.1933;21.7482
132120;8.19117e-05;8.20121e-05;16.7684;21.7113
133920;7.67334e-05;7.68281e-05;17.476;21.6767
135720;7.1868e-05;7.19573e-05;18.0511;21.6443
137520;6.73788e-05;6.7463e-05;18.4442;21.614
139320;6.33153e-05;6.33949e-05;18.6875;21.5855
141120;5.97148e-05;5.97901e-05;18.7537;21.5585
142920;5.66036e-05;5.66751e-05;18.6264;21.533
144720;5.3999e-05;5.40671e-05;18.3476;21.5087
146520;5.19115e-05;5.19767e-05;17.8793;21.4853
148320;5.0347e-05;5.04099e-05;17.2513;21.4626
150120;4.93087e-05;4.93698e-05;16.4471;21.4404
151546;4.88234e-05;4.88832e-05;15.5769;21.423
153226;4.87613e-05;4.88205e-05;14.6066;21.4025
155026;4.91684e-05;4.92272e-05;13.443;21.3803
156728;5.00724e-05;5.01314e-05;12.1555;21.359
158528;5.15004e-05;5.15602e-05;10.7709;21.3358
160288;5.34635e-05;5.35245e-05;9.27202;21.3123
162088;5.59644e-05;5.60275e-05;7.74553;21.287
163673;5.87835e-05;5.88489e-05;6.24595;21.2637
164861;6.13797e-05;6.14474e-05;5.07655;21.2455
166401;6.43719e-05;6.44423e-05;3.84803;21.2207
168033;6.81287e-05;6.82027e-05;2.55338;21.1928
169459;7.20191e-05;7.2097e-05;1.34149;21.1671
170936;7.60193e-05;7.61011e-05;0.281452;21.139
172664;8.07175e-05;8.08042e-05;-0.805346;21.1041
172800;8.32061e-05;8.32954e-05;-1.32132;21.1013
174240;8.5954e-05;8.60462e-05;-1.82296;21.0703
175703;9.04073e-05;9.05042e-05;-2.53287;21.0372
177503;9.56384e-05;9.57409e-05;-3.2288;20.9941
179303;0.000101301;0.000101409;-3.76914;20.9485
181103;0.000106822;0.000106937;-4.10158;20.9004
182903;0.000112078;0.000112199;-4.24121;20.8499
184703;0.000116944;0.000117071;-4.16107;20.7972
186503;0.000121303;0.000121436;-3.89784;20.7426
188303;0.000125046;0.000125183;-3.45675;20.6862
190103;0.000128078;0.000128218;-2.85388;20.6285
191903;0.000130319;0.000130463;-2.1026;20.5698
193703;0.000131714;0.00013186;-1.22456;20.5105
195503;0.000132225;0.000132372;-0.228906;20.4509
197303;0.000131841;0.000131989;0.843804;20.3915
199103;0.000130573;0.000130721;1.99177;20.3327
200903;0.000128458;0.000128604;3.19115;20.2748
202703;0.000125552;0.000125696;4.42049;20.2183
204503;0.000121933;0.000122074;5.66769;20.1633
206303;0.000117693;0.00011783;6.91306;20.1103
208103;0.000112939;0.000113072;8.14134;20.0594
209903;0.000107787;0.000107914;9.33483;20.0109
211703;0.000102356;0.000102479;10.4784;19.9647
213503;9.67686e-05;9.68854e-05;11.5572;19.9211
215303;9.11405e-05;9.12516e-05;12.5539;19.8801
216000;8.72831e-05;8.73902e-05;13.1892;19.8649
217080;8.45529e-05;8.46571e-05;13.6176;19.842
218880;8.02615e-05;8.03612e-05;14.2364;19.8058
220680;7.51269e-05;7.52211e-05;14.906;19.772
222480;7.03234e-05;7.04124e-05;15.4387;19.7403
224280;6.59116e-05;6.59956e-05;15.8258;19.7106
226080;6.19386e-05;6.2018e-05;16.0599;19.6827
227880;5.84394e-05;5.85145e-05;16.1348;19.6564
229680;5.54381e-05;5.55095e-05;16.0468;19.6314
231480;5.29505e-05;5.30185e-05;15.7969;19.6075
233280;5.09858e-05;5.1051e-05;15.39;19.5846
235080;4.95491e-05;4.96118e-05;14.8204;19.5622
236880;4.8643e-05;4.87039e-05;14.1049;19.5403
238680;4.82696e-05;4.83291e-05;13.248;19.5186
240480;4.84313e-05;4.84899e-05;12.2604;19.4967
242280;4.91307e-05;4.91891e-05;11.1592;19.4746
244080;5.0371e-05;5.04297e-05;9.95528;19.4519
245880;5.21543e-05;5.22138e-05;8.67659;19.4284
247680;5.448e-05;5.45411e-05;7.34222;19.4039
249480;5.73432e-05;5.74063e-05;5.97723;19.378
251280;6.07314e-05;6.07973e-05;4.6166;19.3507
253080;6.46231e-05;6.46923e-05;3.28056;19.3216
254880;6.89847e-05;6.90579e-05;2.00768;19.2905
256680;7.37692e-05;7.3847e-05;0.824496;19.2573
258480;7.89153e-05;7.89981e-05;-0.242513;19.2217
259200;8.26843e-05;8.27709e-05;-0.916944;19.2068
260280;8.5454e-05;8.55435e-05;-1.3457;19.1837
262080;8.9971e-05;9.00652e-05;-1.94623;19.1432
263880;9.56859e-05;9.57863e-05;-2.55279;19.1001
265680;0.000101377;0.000101483;-2.96846;19.0544
267480;0.000106921;0.000107034;-3.20795;19.0063
269280;0.000112196;0.000112315;-3.26542;18.9557
271080;0.000117076;0.000117201;-3.14694;18.903
272880;0.000121443;0.000121574;-2.86193;18.8483
274680;0.000125189;0.000125324;-2.42312;18.7919
276480;0.000128217;0.000128356;-1.84425;18.7341
278280;0.000130451;0.000130593;-1.14165;18.6753
280080;0.000131832;0.000131977;-0.333627;18.6159
281880;0.000132325;0.000132472;0.563771;18.5563
283680;0.000131919;0.000132066;1.53295;18.4969
285480;0.000130625;0.000130772;2.55692;18.4381
287280;0.00012848;0.000128625;3.61962;18.3802
289080;0.00012554;0.000125683;4.70552;18.3236
290880;0.000121885;0.000122025;5.80037;18.2687
292680;0.000117607;0.000117743;6.88956;18.2157
294480;0.000112814;0.000112946;7.95967;18.1649
296280;0.000107622;0.00010775;8.99736;18.1164
298080;0.000102152;0.000102275;9.98963;18.0704
299880;9.65256e-05;9.66425e-05;10.9229;18.0269
301680;9.08605e-05;9.09718e-05;11.7848;17.986
302400;8.69263e-05;8.70337e-05;12.3417;17.9703
303480;8.4161e-05;8.42655e-05;12.7098;17.9475
305280;7.98463e-05;7.99463e-05;13.2442;17.9116
307080;7.46863e-05;7.47809e-05;13.814;17.8779
308880;6.98618e-05;6.99513e-05;14.268;17.8464
310680;6.54338e-05;6.55183e-05;14.5921;17.817
312480;6.14494e-05;6.15293e-05;14.781;17.7893
314280;5.79436e-05;5.80193e-05;14.8281;17.7632
316080;5.49405e-05;5.50124e-05;14.7325;17.7384
317880;5.24557e-05;5.25242e-05;14.4983;17.7148
319680;5.04982e-05;5.05637e-05;14.1092;17.692
321480;4.90729e-05;4.91359e-05;13.5851;17.6699
323280;4.81824e-05;4.82434e-05;12.9375;17.6482
325080;4.78286e-05;4.78882e-05;12.154;17.6266
326880;4.80136e-05;4.80722e-05;11.2615;17.605
328680;4.87402e-05;4.87984e-05;10.2685;17.5831
330480;5.0011e-05;5.00693e-05;9.19297;17.5605
332280;5.1828e-05;5.1887e-05;8.04693;17.5372
334080;5.41903e-05;5.42506e-05;6.86412;17.5128
335880;5.70922e-05;5.71545e-05;5.66634;17.487
337680;6.05209e-05;6.05858e-05;4.45788;17.4598
339480;6.44541e-05;6.45222e-05;3.29391;17.4307
341280;6.88573e-05;6.89293e-05;2.19688;17.3997
343080;7.36829e-05;7.37592e-05;1.1665;17.3665
344880;7.88681e-05;7.89495e-05;0.264413;17.331
345600;8.26634e-05;8.27485e-05;-0.296194;17.3161
346608;8.53079e-05;8.53956e-05;-0.635149;17.2946
348408;8.97653e-05;8.98577e-05;-1.12095;17.2542
350208;9.5508e-05;9.56064e-05;-1.60672;17.2111
352008;0.000101227;0.000101331;-1.93038;17.1655
353808;0.000106799;0.00010691;-2.09516;17.1174
355608;0.000112101;0.000112218;-2.09202;17.0669
357408;0.000117006;0.000117129;-1.93721;17.0142
359208;0.000121398;0.000121526;-1.64246;16.9595
361008;0.000125165;0.000125298;-1.21337;16.9031
362808;0.000128213;0.00012835;-0.665554;16.8454
364608;0.000130463;0.000130604;-0.0172064;16.7866
366408;0.000131857;0.000132;0.720199;16.7272
368208;0.000132359;0.000132504;1.53261;16.6676
370008;0.000131957;0.000132103;2.38288;16.6081
371808;0.000130663;0.000130808;3.28593;16.5493
373608;0.000128512;0.000128656;4.21441;16.4914
375408;0.000125563;0.000125705;5.15672;16.4348
377208;0.000121893;0.000122032;6.1037;16.3799
379008;0.000117596;0.000117731;7.04335;16.3269
380808;0.000112779;0.000112911;7.96277;16.2761
382608;0.00010756;0.000107687;8.85451;16.2277
384408;0.00010206;0.000102182;9.70552;16.1817
386208;9.64014e-05;9.65179e-05;10.5059;16.1382
388008;9.07021e-05;9.08131e-05;11.246;16.0974
388800;8.66702e-05;8.67773e-05;11.734;16.0802
389520;8.42889e-05;8.43937e-05;12.0039;16.065
391320;8.0475e-05;8.05759e-05;12.4091;16.0287
393120;7.52329e-05;7.53285e-05;12.9144;15.9948
394920;7.03165e-05;7.04069e-05;13.3147;15.9632
396720;6.57893e-05;6.58748e-05;13.6044;15.9335
398520;6.17015e-05;6.17824e-05;13.7749;15.9057
400320;5.809e-05;5.81667e-05;13.8209;15.8795
402120;5.49811e-05;5.50538e-05;13.7382;15.8548
403920;5.23915e-05;5.24608e-05;13.5261;15.8312
405720;5.03315e-05;5.03978e-05;13.1863;15.8085
407520;4.88065e-05;4.88702e-05;12.7205;15.7865
409320;4.78193e-05;4.78808e-05;12.1352;15.7649
411120;4.73717e-05;4.74316e-05;11.4375;15.7436
412920;4.74657e-05;4.75244e-05;10.6366;15.7222
414720;4.81037e-05;4.81618e-05;9.74698;15.7005
416520;4.92885e-05;4.93464e-05;8.78131;15.6783
418320;5.10219e-05;5.10803e-05;7.75776;15.6553
420120;5.33035e-05;5.3363e-05;6.69665;15.6313
421920;5.61285e-05;5.61897e-05;5.61999;15.606
423720;5.94852e-05;5.95487e-05;4.5517;15.5792
425520;6.33525e-05;6.3419e-05;3.51576;15.5507
427320;6.76981e-05;6.77682e-05;2.5371;15.5202
429120;7.2476e-05;7.25503e-05;1.63743;15.4876
430920;7.76256e-05;7.77046e-05;0.834195;15.4526
432000;8.19225e-05;8.20055e-05;0.211933;15.4305
432720;8.42861e-05;8.43704e-05;-0.719957;15.4153
434520;8.77036e-05;8.77904e-05;-1.66424;15.3758
436280;9.22205e-05;9.23103e-05;-3.1685;15.3351
437960;9.60426e-05;9.61343e-05;-4.84013;15.2948
439740;9.90971e-05;9.91896e-05;-6.82014;15.2506
440995;0.000100838;0.000100929;-8.85299;15.219
442283;0.000101475;0.000101565;-10.842;15.1863
443573;0.000101343;0.00010143;-12.948;15.1536
445278;0.000100295;0.000100378;-15.2543;15.1108
447078;9.88987e-05;9.89792e-05;-16.9382;15.0662
448878;9.76641e-05;9.77437e-05;-17.5753;15.0222
450678;9.6255e-05;9.63339e-05;-17.8235;14.9789
452478;9.44438e-05;9.4522e-05;-17.741;14.9364
454278;9.24779e-05;9.25561e-05;-17.0779;14.8947
456078;9.04735e-05;9.05523e-05;-15.9245;14.854
457878;8.83606e-05;8.84402e-05;-14.3903;14.8142
459678;8.61472e-05;8.62279e-05;-12.5257;14.7754
461478;8.39436e-05;8.40258e-05;-10.2521;14.7376
463278;8.16399e-05;8.17235e-05;-7.84065;14.7008
465078;7.93379e-05;7.9423e-05;-5.19011;14.665
466806;7.70932e-05;7.71798e-05;-2.46757;14.6317
468392;7.49508e-05;7.50385e-05;0.0938323;14.6019
469151;7.32564e-05;7.33448e-05;1.9095;14.588
469154;7.70837e-05;7.71872e-05;11.5196;14.588
469158;7.50046e-05;7.51052e-05;6.14738;14.5879
469185;7.3224e-05;7.33129e-05;2.3113;14.5874
469408;7.28617e-05;7.29502e-05;2.43601;14.5833
470664;7.17328e-05;7.18219e-05;3.81709;14.5608
471414;7.03092e-05;7.03989e-05;5.50741;14.5476
471511;7.0184e-05;7.02742e-05;5.97068;14.5459
472155;6.95096e-05;6.95995e-05;6.49926;14.5347
473284;6.8292e-05;6.83823e-05;7.93663;14.5154
473394;6.77001e-05;6.77907e-05;8.69453;14.5135
473855;6.72544e-05;6.7345e-05;9.11435;14.5057
475200;6.60102e-05;6.61009e-05;10.5016;14.4835
476116;6.46492e-05;6.474e-05;11.9722;14.4687
477685;6.30169e-05;6.31074e-05;13.5264;14.4439
479341;6.09882e-05;6.1078e-05;15.3004;14.4186
481069;5.89288e-05;5.90175e-05;16.8816;14.3932
482797;5.69976e-05;5.70851e-05;18.2991;14.3685
483709;5.57241e-05;5.58108e-05;19.2866;14.3558
484149;5.50778e-05;5.51636e-05;19.5109;14.3497
485557;5.39877e-05;5.40722e-05;19.9009;14.3307
485698;5.33227e-05;5.34063e-05;20.1301;14.3288
486149;5.29441e-05;5.30271e-05;20.1431;14.3228
486472;5.25066e-05;5.2589e-05;20.223;14.3185
486860;5.2196e-05;5.22779e-05;20.2964;14.3135
487513;5.15598e-05;5.16407e-05;20.339;14.305
487772;5.12097e-05;5.12899e-05;20.3329;14.3017
488266;5.07897e-05;5.08692e-05;20.3082;14.2954
488520;5.04478e-05;5.05266e-05;20.2594;14.2922
489451;4.97936e-05;4.98711e-05;20.1411;14.2806
489754;4.91306e-05;4.92068e-05;20.009;14.2769
490649;4.86128e-05;4.86877e-05;19.7782;14.266
490860;4.79873e-05;4.8061e-05;19.5812;14.2635
491965;4.75174e-05;4.75897e-05;19.2777;14.2503
492953;4.67468e-05;4.68171e-05;18.8671;14.2388
493116;4.64526e-05;4.65221e-05;18.6587;14.2369
494224;4.60053e-05;4.60734e-05;18.2474;14.2241
496024;4.52822e-05;4.53475e-05;17.3362;14.2037
497824;4.47237e-05;4.47859e-05;16.0472;14.1836
499624;4.44931e-05;4.45524e-05;14.5211;14.1635
501424;4.45673e-05;4.46238e-05;12.7555;14.1434
503224;4.46935e-05;4.47466e-05;10.4931;14.1233
505024;4.48658e-05;4.49151e-05;7.89135;14.1031
506784;4.49025e-05;4.49474e-05;4.93375;14.0833
508584;4.50249e-05;4.50659e-05;1.95825;14.063
510384;4.52575e-05;4.52945e-05;-1.14982;14.0426
512184;4.54943e-05;4.55274e-05;-4.34199;14.0221
513984;4.55894e-05;4.56184e-05;-7.6605;14.0016
515784;4.56505e-05;4.56758e-05;-10.8285;13.9811
517584;4.58934e-05;4.59157e-05;-13.6683;13.9604
518400;4.62045e-05;4.62253e-05;-15.5053;13.951
519120;4.64856e-05;4.65057e-05;-16.4829;13.9426
520920;4.6732e-05;4.67505e-05;-18.2808;13.9216
522720;4.67298e-05;4.67457e-05;-20.7585;13.9005
524520;4.69826e-05;4.69975e-05;-22.5422;13.8794
526320;4.73175e-05;4.73319e-05;-23.9495;13.8581
528120;4.76512e-05;4.76657e-05;-25.0197;13.8366
529920;4.76805e-05;4.7695e-05;-25.8887;13.8152
531720;4.77189e-05;4.77342e-05;-26.2104;13.7937
533520;4.76436e-05;4.766e-05;-26.1599;13.7722
535320;4.76555e-05;4.7674e-05;-25.5598;13.7508
537120;4.75886e-05;4.76095e-05;-24.6083;13.7294
538920;4.74703e-05;4.7494e-05;-23.2634;13.708
540720;4.71531e-05;4.71795e-05;-21.6942;13.6868
542520;4.66318e-05;4.66611e-05;-19.8401;13.6658
544320;4.60951e-05;4.61277e-05;-17.5997;13.645
546120;4.55022e-05;4.55383e-05;-15.0967;13.6245
547920;4.48254e-05;4.48651e-05;-12.3817;13.6043
549720;4.40989e-05;4.41425e-05;-9.48097;13.5845
551234;4.339e-05;4.34363e-05;-6.74249;13.568
553034;4.26125e-05;4.26624e-05;-3.87046;13.5488
554069;4.194e-05;4.19923e-05;-1.56167;13.538
554768;4.15e-05;4.15537e-05;-0.140831;13.5307
