Time;TotalMassChange;WaterMassChange;IntEnergyChange;WaterMass
0.000897248;0.000981905;0.000904203;2286.36;25.038
0.00692404;0.000540347;0.000628794;1574.06;25.038
0.0465806;0.000383273;0.00036909;925.12;25.038
0.265283;0.00028012;0.000276383;690.716;25.038
1.93765;0.000259326;0.00025777;636.381;25.0379
14.2217;0.000235973;0.000235462;561.293;25.0372
107.708;0.000193921;0.000194;419.627;25.0327
666.718;0.000147202;0.000147394;259.241;25.0121
2389.13;0.00011523;0.000115381;156.496;24.9624
4189.13;9.78032e-05;9.79279e-05;111.394;24.9183
5989.13;8.69239e-05;8.70335e-05;90.4474;24.8791
7789.13;7.83697e-05;7.84679e-05;77.5973;24.8438
9589.13;7.10583e-05;7.1147e-05;68.5267;24.8118
11389.1;6.46437e-05;6.47243e-05;61.5894;24.7827
13189.1;5.90273e-05;5.91008e-05;56.0221;24.7561
14989.1;5.4216e-05;5.42835e-05;51.4423;24.7317
16789.1;5.02685e-05;5.03309e-05;47.6588;24.709
18589.1;4.72677e-05;4.73264e-05;44.59;24.6877
20389.1;4.52952e-05;4.53514e-05;42.1992;24.6673
22189.1;4.44037e-05;4.44589e-05;40.4473;24.6473
23989.1;4.45961e-05;4.46514e-05;39.2539;24.6272
25789.1;4.58164e-05;4.58731e-05;38.4882;24.6066
27589.1;4.79599e-05;4.80191e-05;37.9892;24.585
29389.1;5.08944e-05;5.09571e-05;37.6012;24.562
31189.1;5.44833e-05;5.45501e-05;37.2081;24.5375
32989.1;5.85988e-05;5.86703e-05;36.7441;24.5111
34789.1;6.31251e-05;6.32018e-05;36.1862;24.4826
36589.1;6.79576e-05;6.80397e-05;35.537;24.452
38389.1;7.30041e-05;7.30919e-05;34.8165;24.4191
40189.1;7.81819e-05;7.82756e-05;34.0476;24.3839
41989.1;8.34123e-05;8.35119e-05;33.2507;24.3463
43200;8.77417e-05;8.78462e-05;32.5805;24.3197
43560;9.00331e-05;9.01402e-05;32.2201;24.3116
45360;9.30758e-05;9.31863e-05;31.7328;24.2697
47160;9.8017e-05;9.8133e-05;30.9281;24.2255
48960;0.000102705;0.000102826;30.1296;24.1793
50760;0.000107068;0.000107195;29.3406;24.131
52560;0.000111047;0.000111177;28.5554;24.081
54360;0.000114588;0.000114723;27.7798;24.0294
56160;0.000117651;0.000117789;27.0007;23.9764
57960;0.000120201;0.000120341;26.2217;23.9222
59760;0.000122211;0.000122354;25.4448;23.8671
61488;0.000123636;0.000123781;24.6796;23.8137
63288;0.000124513;0.000124659;23.8991;23.7576
65088;0.000124828;0.000124973;23.1009;23.7013
66888;0.000124553;0.000124698;22.2925;23.6452
68688;0.000123691;0.000123835;21.4654;23.5895
70488;0.000122248;0.00012239;20.6243;23.5344
72146.2;0.000120343;0.000120483;19.8009;23.4845
73874.2;0.000117959;0.000118096;18.9811;23.4335
75415.2;0.000115251;0.000115385;18.1874;23.389
77083.4;0.000112137;0.000112267;17.3839;23.3422
78843.4;0.000108401;0.000108527;16.5115;23.2944
80643.4;0.000104115;0.000104236;15.5833;23.2475
82345.2;9.95647e-05;9.96799e-05;14.6613;23.2051
84003.4;9.49093e-05;9.5019e-05;13.7754;23.1657
85731.4;8.99682e-05;9.00721e-05;12.8543;23.1268
86400;8.6471e-05;8.65709e-05;12.2438;23.1123
87103.6;8.42988e-05;8.43961e-05;11.8536;23.0975
88399.3;8.13519e-05;8.14457e-05;11.3253;23.0711
90021.4;7.6806e-05;7.68946e-05;10.5307;23.0399
91657.9;7.18288e-05;7.19115e-05;9.62863;23.0105
93343.4;6.68327e-05;6.69095e-05;8.7487;22.9823
95143.4;6.17478e-05;6.18186e-05;7.82018;22.9545
96799.4;5.7003e-05;5.70683e-05;6.9191;22.9309
98599.4;5.25497e-05;5.26097e-05;6.05675;22.9072
100399;4.84082e-05;4.84634e-05;5.23197;22.8854
102199;4.48645e-05;4.49155e-05;4.51035;22.8652
103999;4.20388e-05;4.20866e-05;3.92828;22.8462
105462;4.01986e-05;4.02443e-05;3.58432;22.8315
107262;3.91075e-05;3.9152e-05;3.41731;22.8139
109022;3.88347e-05;3.88791e-05;3.48225;22.7968
110657;3.94644e-05;3.95098e-05;3.74987;22.7806
112417;4.09634e-05;4.10107e-05;4.19552;22.7626
114217;4.33598e-05;4.34102e-05;4.79846;22.7431
116017;4.65363e-05;4.65906e-05;5.48222;22.7221
117563;5.00268e-05;5.00853e-05;6.11512;22.7027
119181;5.37967e-05;5.38597e-05;6.69274;22.681
120941;5.81976e-05;5.82657e-05;7.25437;22.6553
122741;6.31354e-05;6.32093e-05;7.82254;22.6269
124541;6.83498e-05;6.84297e-05;8.3233;22.5961
126341;7.37094e-05;7.37955e-05;8.79281;22.5629
128094;7.90499e-05;7.91421e-05;9.17582;22.5282
129600;8.39404e-05;8.40382e-05;9.51393;22.4966
131400;8.88463e-05;8.89497e-05;9.81973;22.4565
133076;9.38046e-05;9.39137e-05;10.1416;22.4172
134663;9.82676e-05;9.83819e-05;10.3669;22.3781
135976;0.000101983;0.000102102;10.557;22.3446
137695;0.000105741;0.000105864;10.7417;22.2991
139495;0.000109662;0.00010979;10.9053;22.2497
141154;0.000113059;0.00011319;11.0379;22.2028
142954;0.000116031;0.000116165;11.1392;22.1505
144634;0.000118507;0.000118644;11.19;22.1007
146414;0.000120471;0.00012061;11.1973;22.047
148214;0.000121944;0.000122085;11.1648;21.9921
150014;0.000122843;0.000122985;11.0834;21.9367
151742;0.000123152;0.000123294;10.964;21.8835
153542;0.000122886;0.000123028;10.7946;21.8281
155342;0.00012203;0.000122171;10.5825;21.7731
156817;0.000120774;0.000120913;10.3544;21.7285
158538;0.000119038;0.000119175;10.0873;21.6773
160338;0.000116634;0.000116768;9.76081;21.6247
162138;0.000113657;0.000113787;9.38428;21.5735
163938;0.000110175;0.000110301;8.95878;21.5239
165573;0.000106445;0.000106567;8.51881;21.4803
167373;0.00010227;0.000102387;8.04543;21.4342
169173;9.75641e-05;9.76756e-05;7.51912;21.3903
170973;9.25517e-05;9.26573e-05;6.95248;21.3486
172701;8.74295e-05;8.75292e-05;6.39351;21.3108
172800;8.50414e-05;8.51383e-05;6.12452;21.3087
174240;8.23734e-05;8.24672e-05;5.82259;21.279
176000;7.75312e-05;7.76194e-05;5.26549;21.2448
177728;7.22497e-05;7.23317e-05;4.65282;21.2136
179528;6.69629e-05;6.70387e-05;4.00465;21.1834
181328;6.1749e-05;6.18188e-05;3.35607;21.1556
183128;5.67916e-05;5.68556e-05;2.7176;21.13
184928;5.21941e-05;5.22527e-05;2.10973;21.1065
186728;4.80684e-05;4.81221e-05;1.53459;21.0848
188528;4.45317e-05;4.45813e-05;1.05137;21.0648
190328;4.17033e-05;4.17497e-05;0.699282;21.046
192128;3.96978e-05;3.9742e-05;0.477207;21.0281
193928;3.86094e-05;3.86525e-05;0.47152;21.0107
195728;3.84942e-05;3.85374e-05;0.723893;20.9934
197528;3.93572e-05;3.94018e-05;1.10525;20.9756
199244;4.10886e-05;4.11356e-05;1.66814;20.958
201044;4.36455e-05;4.36958e-05;2.32885;20.9383
202621;4.67205e-05;4.67746e-05;3.00828;20.9199
204279;5.02208e-05;5.02793e-05;3.65556;20.899
206079;5.44343e-05;5.44978e-05;4.33551;20.8745
207714;5.89365e-05;5.90052e-05;4.95383;20.8504
209514;6.37862e-05;6.38606e-05;5.55055;20.8217
211199;6.88519e-05;6.89322e-05;6.10329;20.7926
212999;7.4088e-05;7.41743e-05;6.61998;20.7592
214449;7.89254e-05;7.90173e-05;7.06436;20.7306
215685;8.2913e-05;8.30094e-05;7.39736;20.705
216000;8.51713e-05;8.52703e-05;7.57703;20.6982
216768;8.68398e-05;8.69407e-05;7.71468;20.6815
218528;9.06447e-05;9.07499e-05;8.03012;20.6416
220328;9.56788e-05;9.57898e-05;8.39756;20.5985
222056;0.00010038;0.000100496;8.74778;20.5551
223784;0.000104678;0.000104799;9.03287;20.5098
225584;0.000108693;0.000108818;9.29449;20.4609
227384;0.000112331;0.000112461;9.52702;20.4102
229044;0.000115351;0.000115484;9.69441;20.3623
230844;0.000117914;0.00011805;9.83014;20.3092
232644;0.000120029;0.000120167;9.91773;20.2551
234444;0.000121575;0.000121715;9.95909;20.2003
236244;0.000122539;0.00012268;9.95441;20.1451
238044;0.000122911;0.000123052;9.89602;20.0898
239844;0.000122688;0.000122829;9.79286;20.0345
241644;0.000121873;0.000122012;9.64103;19.9796
243444;0.000120471;0.000120609;9.44208;19.9253
245244;0.000118497;0.000118632;9.19762;19.8719
247044;0.000115968;0.0001161;8.90395;19.8197
248844;0.000112909;0.000113038;8.56869;19.7688
250644;0.000109351;0.000109475;8.19142;19.7196
252444;0.000105332;0.000105452;7.77471;19.6721
254244;0.0001009;0.000101015;7.32004;19.6266
256044;9.61135e-05;9.62226e-05;6.83061;19.5833
257844;9.10393e-05;9.11425e-05;6.31197;19.5423
259200;8.64404e-05;8.65382e-05;5.83835;19.513
259560;8.38544e-05;8.39493e-05;5.57022;19.5055
261360;8.05954e-05;8.06865e-05;5.22954;19.4691
263160;7.51362e-05;7.52209e-05;4.64197;19.4353
264960;6.97107e-05;6.97891e-05;4.04411;19.4039
266760;6.44035e-05;6.44758e-05;3.44118;19.3749
268560;5.93034e-05;5.93697e-05;2.83983;19.3482
270360;5.45064e-05;5.45671e-05;2.25452;19.3236
272160;5.01199e-05;5.01755e-05;1.70267;19.301
273960;4.62584e-05;4.63095e-05;1.21378;19.2802
275760;4.30397e-05;4.3087e-05;0.809249;19.2608
277560;4.05816e-05;4.06262e-05;0.536658;19.2425
279360;3.89906e-05;3.90336e-05;0.436324;19.2249
281160;3.83448e-05;3.83873e-05;0.532997;19.2077
282960;3.86774e-05;3.87207e-05;0.831489;19.1902
284760;3.99687e-05;4.00139e-05;1.30564;19.1722
286560;4.21509e-05;4.2199e-05;1.89852;19.1533
288360;4.51226e-05;4.51746e-05;2.56094;19.1329
290160;4.87681e-05;4.88247e-05;3.2432;19.111
291888;5.2868e-05;5.29295e-05;3.89227;19.0881
293688;5.74224e-05;5.74893e-05;4.52451;19.0622
295488;6.23911e-05;6.24638e-05;5.12667;19.0341
297288;6.76007e-05;6.76794e-05;5.69082;19.0037
299088;7.29621e-05;7.3047e-05;6.22218;18.9708
300888;7.83911e-05;7.84822e-05;6.71689;18.9355
302400;8.33582e-05;8.3455e-05;7.14574;18.9039
304200;8.82852e-05;8.83876e-05;7.54361;18.8641
306000;9.34574e-05;9.35656e-05;7.94949;18.822
307800;9.83855e-05;9.84994e-05;8.31889;18.7777
309600;0.000102995;0.000103114;8.6514;18.7313
311400;0.000107223;0.000107346;8.94397;18.683
313200;0.000111014;0.000111142;9.19531;18.633
315000;0.000114325;0.000114457;9.40263;18.5815
316800;0.000117122;0.000117257;9.56194;18.5287
318600;0.000119376;0.000119513;9.67602;18.4749
320400;0.000121066;0.000121205;9.74297;18.4204
322200;0.000122176;0.000122316;9.76118;18.3654
324000;0.000122696;0.000122837;9.7313;18.3101
325800;0.000122622;0.000122762;9.65205;18.2548
327600;0.000121954;0.000122093;9.52964;18.1999
329400;0.000120697;0.000120835;9.3566;18.1455
331200;0.000118864;0.000119;9.13504;18.092
333000;0.000116472;0.000116604;8.87206;18.0395
334800;0.000113543;0.000113672;8.55993;17.9883
336600;0.000110106;0.000110231;8.21006;17.9387
338400;0.000106199;0.000106319;7.81913;17.8909
340200;0.000101866;0.000101981;7.39218;17.845
342000;9.7164e-05;9.72737e-05;6.93329;17.8012
343800;9.21568e-05;9.22606e-05;6.44028;17.7597
345600;8.69194e-05;8.70172e-05;5.924;17.7206
347400;8.15328e-05;8.16244e-05;5.38512;17.6838
349200;7.60804e-05;7.61657e-05;4.82814;17.6496
351000;7.06456e-05;7.07246e-05;4.25935;17.6177
352800;6.53124e-05;6.53852e-05;3.68379;17.5883
354600;6.01684e-05;6.02353e-05;3.11048;17.5612
356400;5.53077e-05;5.53689e-05;2.54236;17.5363
358200;5.08354e-05;5.08914e-05;2.01981;17.5134
360000;4.68644e-05;4.69157e-05;1.53976;17.4923
361800;4.35115e-05;4.3559e-05;1.13724;17.4727
363600;4.08943e-05;4.09389e-05;0.856046;17.4542
365400;3.91221e-05;3.91648e-05;0.715836;17.4366
367200;3.82793e-05;3.83212e-05;0.770076;17.4194
369000;3.84086e-05;3.84511e-05;1.00623;17.4021
370800;3.95012e-05;3.95454e-05;1.41447;17.3843
372600;4.14987e-05;4.15458e-05;1.9362;17.3656
374400;4.43064e-05;4.43572e-05;2.53423;17.3456
376200;4.78115e-05;4.78666e-05;3.16421;17.3241
378000;5.18974e-05;5.19575e-05;3.78318;17.3007
379800;5.64503e-05;5.65159e-05;4.38287;17.2753
381600;6.13615e-05;6.14328e-05;4.95414;17.2476
383400;6.65304e-05;6.66076e-05;5.494;17.2177
385200;7.18666e-05;7.195e-05;6.00502;17.1853
386960;7.72155e-05;7.73051e-05;6.48314;17.1513
388760;8.25836e-05;8.26792e-05;6.92956;17.1141
388800;8.4916e-05;8.50143e-05;7.12359;17.1132
390240;8.75172e-05;8.76184e-05;7.3252;17.0817
392040;9.21936e-05;9.23001e-05;7.68549;17.0401
393840;9.7175e-05;9.7287e-05;8.0571;16.9963
395640;0.000101852;0.000101969;8.39375;16.9505
397440;0.000106158;0.00010628;8.69271;16.9026
399240;0.00011004;0.000110166;8.95152;16.8531
401040;0.000113449;0.000113579;9.16798;16.8019
402840;0.000116351;0.000116484;9.34153;16.7495
404640;0.000118715;0.00011885;9.46813;16.696
406440;0.000120518;0.000120656;9.55017;16.6418
408240;0.000121745;0.000121884;9.58391;16.5869
410040;0.000122384;0.000122523;9.57103;16.5318
411840;0.000122428;0.000122567;9.51099;16.4766
413640;0.000121879;0.000122017;9.40552;16.4217
415440;0.00012074;0.000120877;9.25456;16.3673
417240;0.000119022;0.000119157;9.05972;16.3137
419040;0.000116742;0.000116874;8.82074;16.2611
420840;0.00011392;0.000114049;8.54122;16.2098
422640;0.000110585;0.00011071;8.2215;16.16
424440;0.000106773;0.000106893;7.86582;16.1119
426240;0.000102526;0.000102641;7.47431;16.0657
428040;9.78974e-05;9.80072e-05;7.0512;16.0216
429840;9.2951e-05;9.30551e-05;6.59961;15.9797
431640;8.77596e-05;8.78578e-05;6.123;15.9402
432000;8.45646e-05;8.46591e-05;5.82733;15.9325
433440;8.18622e-05;8.19537e-05;5.57451;15.903
435240;7.69636e-05;7.70494e-05;5.10951;15.8684
437040;7.15254e-05;7.1605e-05;4.5806;15.8361
438840;6.61721e-05;6.62456e-05;4.04417;15.8063
440640;6.09902e-05;6.10577e-05;3.50798;15.7788
442440;5.60718e-05;5.61336e-05;2.98059;15.7536
444240;5.15197e-05;5.15762e-05;2.47643;15.7304
446040;4.7445e-05;4.74968e-05;2.01491;15.709
447840;4.39636e-05;4.40114e-05;1.6211;15.6892
449640;4.11926e-05;4.12373e-05;1.32527;15.6706
451440;3.92432e-05;3.92858e-05;1.16327;15.653
453240;3.82055e-05;3.82471e-05;1.16322;15.6358
455040;3.8131e-05;3.81729e-05;1.33545;15.6186
456840;3.90218e-05;3.90652e-05;1.66527;15.601
458640;4.08293e-05;4.08752e-05;2.11552;15.5826
460440;4.34657e-05;4.35151e-05;2.63852;15.563
462240;4.68219e-05;4.68755e-05;3.19107;15.5419
464040;5.07823e-05;5.08408e-05;3.74437;15.519
465840;5.5233e-05;5.52967e-05;4.28151;15.4942
467640;6.00641e-05;6.01334e-05;4.79372;15.4671
469440;6.51729e-05;6.52482e-05;5.27761;15.4377
471240;7.0467e-05;7.05482e-05;5.73309;15.406
473040;7.5859e-05;7.59463e-05;6.15616;15.3718
474840;8.08893e-05;8.09814e-05;6.00398;15.3354
475200;8.36614e-05;8.37559e-05;5.72979;15.3278
476640;8.58162e-05;8.59124e-05;5.42281;15.2969
478440;8.93298e-05;8.94286e-05;4.76502;15.2567
480240;9.25118e-05;9.26123e-05;3.78129;15.215
482040;9.46642e-05;9.47649e-05;2.41959;15.1724
483760;9.54991e-05;9.5598e-05;0.660194;15.1312
484751;9.51686e-05;9.52649e-05;-0.951919;15.1076
486472;9.40556e-05;9.41487e-05;-2.51288;15.0671
488272;9.24187e-05;9.25086e-05;-3.84309;15.0255
490072;9.07296e-05;9.0817e-05;-4.71247;14.9846
491800;8.92469e-05;8.93328e-05;-5.12659;14.9461
493600;8.75384e-05;8.76225e-05;-5.51472;14.9066
495400;8.56437e-05;8.57261e-05;-5.71682;14.8681
497200;8.39087e-05;8.39898e-05;-5.61255;14.8303
499000;8.21641e-05;8.2244e-05;-5.45021;14.7932
500800;8.03798e-05;8.04585e-05;-5.20754;14.757
502600;7.86233e-05;7.87009e-05;-4.83549;14.7216
504400;7.68708e-05;7.69474e-05;-4.37208;14.687
506128;7.52242e-05;7.53001e-05;-3.76919;14.6545
507928;7.34746e-05;7.35496e-05;-3.15471;14.6214
509728;7.17751e-05;7.18495e-05;-2.35809;14.589
511528;7.00804e-05;7.01543e-05;-1.47672;14.5575
513328;6.84138e-05;6.84873e-05;-0.474112;14.5266
514261;6.71964e-05;6.72699e-05;0.350157;14.511
514318;6.53497e-05;6.54225e-05;1.04017;14.51
514586;6.66695e-05;6.67428e-05;0.643913;14.5055
515905;6.57874e-05;6.58606e-05;1.20155;14.4838
517221;6.45744e-05;6.46476e-05;2.14018;14.4626
517417;6.39854e-05;6.40587e-05;2.6246;14.4594
518400;6.33117e-05;6.33848e-05;3.03771;14.4438
519678;6.22534e-05;6.23266e-05;3.94172;14.4239
519759;6.17421e-05;6.18154e-05;4.42235;14.4227
519762;2.61442e-05;2.61756e-05;4.26327;14.4227
519768;6.34967e-05;6.3581e-05;8.53451;14.4226
519793;6.18298e-05;6.19037e-05;4.63244;14.4222
519973;6.15227e-05;6.15957e-05;4.42743;14.4194
520978;6.08006e-05;6.08736e-05;4.93693;14.4041
522649;5.93457e-05;5.94184e-05;5.95895;14.3793
524377;5.75865e-05;5.76591e-05;7.31997;14.3544
526105;5.58605e-05;5.59331e-05;8.77279;14.3302
526901;5.44882e-05;5.45603e-05;9.59147;14.3194
526958;5.32951e-05;5.3366e-05;9.69914;14.3186
527319;5.37144e-05;5.37859e-05;9.8443;14.3137
527444;5.34196e-05;5.34909e-05;9.94281;14.3121
527905;5.29911e-05;5.30621e-05;10.1061;14.306
528358;5.23097e-05;5.238e-05;10.252;14.3
528457;5.19668e-05;5.20367e-05;10.2829;14.2987
528938;5.14172e-05;5.14863e-05;10.2371;14.2925
529031;5.09989e-05;5.10675e-05;10.2424;14.2914
529410;5.05465e-05;5.06144e-05;10.2094;14.2866
529485;4.96397e-05;4.97065e-05;10.1744;14.2856
529677;4.99917e-05;5.0059e-05;10.2679;14.2832
530449;4.91444e-05;4.92106e-05;10.2944;14.2737
530785;4.81606e-05;4.82254e-05;10.1811;14.2697
531121;4.76417e-05;4.77058e-05;10.0991;14.2657
532276;4.63209e-05;4.63832e-05;10.0157;14.2523
533608;4.43299e-05;4.43893e-05;9.75423;14.2375
535034;4.22731e-05;4.23291e-05;9.28207;14.2224
536574;4.04347e-05;4.04877e-05;8.81304;14.2068
538230;3.90333e-05;3.90839e-05;8.40988;14.1906
540030;3.81893e-05;3.82379e-05;7.9632;14.1734
541830;3.81365e-05;3.81842e-05;7.55405;14.1563
543630;3.88886e-05;3.89362e-05;7.12498;14.1387
545430;4.03317e-05;4.03798e-05;6.58034;14.1206
547022;4.20085e-05;4.20567e-05;5.63403;14.1038
548151;4.34881e-05;4.35363e-05;4.68671;14.0915
