Time;TotalMassChange;WaterMassChange;IntEnergyChange;WaterMass
0.000897248;0.000981904;0.000904203;2286.36;25.038
0.00692404;0.000540346;0.000628794;1574.06;25.038
0.0465806;0.000383273;0.00036909;925.121;25.038
0.265283;0.000280121;0.000276384;690.718;25.038
1.98334;0.000259176;0.000257632;635.905;25.0379
14.9255;0.000235266;0.000234771;558.825;25.0371
108.486;0.000193895;0.000193978;418.595;25.0326
705.785;0.000147722;0.000147913;254.856;25.0105
2447.54;0.000120466;0.000120622;152.255;24.958
4247.54;0.00010934;0.000109477;106.681;24.9087
5795.54;0.000104791;0.00010492;86.345;24.8681
7152.54;0.000102378;0.000102502;74.9964;24.8334
8952.54;0.00010051;0.000100632;65.9799;24.7881
10752.5;9.89386e-05;9.90572e-05;58.5096;24.7435
12468.5;9.77342e-05;9.78507e-05;53.007;24.7015
14268.5;9.67478e-05;9.68626e-05;48.7001;24.6579
16068.5;9.59246e-05;9.60381e-05;45.2553;24.6147
17868.5;9.52698e-05;9.53823e-05;42.5593;24.5718
19668.5;9.47772e-05;9.4889e-05;40.4698;24.5291
21468.5;9.44421e-05;9.45534e-05;38.8989;24.4865
23268.5;9.42546e-05;9.43658e-05;37.7641;24.4441
25068.5;9.41961e-05;9.43073e-05;37.0111;24.4016
26868.5;9.42377e-05;9.43491e-05;36.5902;24.3592
28668.5;9.43406e-05;9.44523e-05;36.4551;24.3167
30468.5;9.44575e-05;9.45696e-05;36.5607;24.2741
32268.5;9.45364e-05;9.46489e-05;36.8623;24.2315
34068.5;9.45237e-05;9.46366e-05;37.316;24.1889
35868.5;9.43685e-05;9.44816e-05;37.8777;24.1464
37668.5;9.4026e-05;9.41391e-05;38.5039;24.1041
39468.5;9.3461e-05;9.35738e-05;39.1515;24.062
41268.5;9.26505e-05;9.27628e-05;39.7754;24.0202
43068.5;9.15859e-05;9.16972e-05;40.3386;23.9789
43200;9.10226e-05;9.11335e-05;40.5817;23.976
44640;9.0316e-05;9.04263e-05;40.7935;23.9434
46440;8.8941e-05;8.90499e-05;41.0991;23.9033
48240;8.7233e-05;8.73401e-05;41.2891;23.864
50040;8.53758e-05;8.54809e-05;41.2923;23.8256
51840;8.34263e-05;8.35293e-05;41.0776;23.788
53640;8.14494e-05;8.15501e-05;40.6323;23.7513
55440;7.95137e-05;7.96121e-05;39.9447;23.7154
57240;7.76883e-05;7.77844e-05;39.0067;23.6804
59040;7.60387e-05;7.61326e-05;37.8147;23.6462
60840;7.46237e-05;7.47155e-05;36.3846;23.6126
62640;7.34921e-05;7.35822e-05;34.7097;23.5794
64440;7.26807e-05;7.27692e-05;32.8174;23.5467
66240;7.22119e-05;7.22994e-05;30.7347;23.5142
68040;7.20936e-05;7.21802e-05;28.4653;23.4817
69840;7.23181e-05;7.24042e-05;26.0719;23.4491
71640;7.28632e-05;7.29492e-05;23.56;23.4163
73440;7.36935e-05;7.37797e-05;20.9828;23.3831
75240;7.47624e-05;7.48491e-05;18.3693;23.3494
77040;7.60147e-05;7.6102e-05;15.7623;23.3151
78840;7.73896e-05;7.74778e-05;13.196;23.2803
80568;7.87899e-05;7.8879e-05;10.77;23.2462
82368;8.02013e-05;8.02914e-05;8.4177;23.2101
84168;8.15808e-05;8.16719e-05;6.18931;23.1733
85928;8.28403e-05;8.29322e-05;4.12516;23.1368
86400;8.35492e-05;8.36417e-05;2.96782;23.127
87340;8.39803e-05;8.40732e-05;2.24055;23.1072
88974.4;8.46896e-05;8.47829e-05;1.01805;23.0726
90575.2;8.54486e-05;8.55425e-05;-0.349968;23.0383
92205;8.60618e-05;8.61563e-05;-1.56238;23.0032
93305.1;8.64469e-05;8.65417e-05;-2.39086;22.9794
94586.1;8.67326e-05;8.68276e-05;-3.05708;22.9516
96258.7;8.69997e-05;8.7095e-05;-3.68645;22.9152
97643.4;8.71728e-05;8.72683e-05;-4.16369;22.885
99371.4;8.7295e-05;8.73908e-05;-4.48075;22.8472
101131;8.73768e-05;8.74728e-05;-4.60122;22.8087
102833;8.74422e-05;8.75386e-05;-4.48405;22.7715
104633;8.75282e-05;8.76251e-05;-4.14092;22.7321
106433;8.7662e-05;8.77594e-05;-3.57375;22.6926
108233;8.78621e-05;8.79603e-05;-2.76093;22.653
110033;8.81352e-05;8.82343e-05;-1.74769;22.6133
111833;8.84744e-05;8.85745e-05;-0.54692;22.5734
113633;8.88594e-05;8.89606e-05;0.841149;22.5334
115335;8.92469e-05;8.93493e-05;2.32523;22.4954
117135;8.96102e-05;8.97138e-05;3.90887;22.455
118935;8.99117e-05;9.00164e-05;5.67204;22.4145
120663;9.00919e-05;9.01977e-05;7.43251;22.3755
122463;9.01101e-05;9.02167e-05;9.24083;22.3349
124165;8.9937e-05;9.00441e-05;11.0055;22.2966
125965;8.95329e-05;8.96403e-05;12.7619;22.2563
127718;8.88824e-05;8.89897e-05;14.4476;22.2173
129518;8.79704e-05;8.80773e-05;16.0334;22.1777
129600;8.75097e-05;8.76164e-05;16.7293;22.1759
131040;8.68727e-05;8.69788e-05;17.4421;22.1446
132840;8.56259e-05;8.5731e-05;18.6233;22.106
134640;8.40571e-05;8.41608e-05;19.759;22.0681
136155;8.24997e-05;8.26018e-05;20.657;22.0368
137955;8.08132e-05;8.09135e-05;21.326;22.0004
139470;7.91374e-05;7.92358e-05;21.7708;21.9704
141230;7.74627e-05;7.7559e-05;22.0277;21.9363
142745;7.58916e-05;7.5986e-05;22.0573;21.9075
144427;7.44546e-05;7.45469e-05;21.8605;21.8762
146227;7.30761e-05;7.31663e-05;21.4266;21.8432
148027;7.19127e-05;7.2001e-05;20.7282;21.8108
149827;7.10501e-05;7.11367e-05;19.7777;21.7788
151627;7.05188e-05;7.06039e-05;18.6257;21.747
153387;7.03338e-05;7.04178e-05;17.2957;21.7161
154920;7.04594e-05;7.05427e-05;15.8819;21.689
156720;7.08861e-05;7.09689e-05;14.34;21.6571
158520;7.16371e-05;7.17198e-05;12.5552;21.6248
160320;7.26586e-05;7.27414e-05;10.7031;21.5921
162120;7.39007e-05;7.39839e-05;8.79614;21.5588
163920;7.53056e-05;7.53894e-05;6.87638;21.5249
165720;7.68112e-05;7.68958e-05;4.98469;21.4903
167520;7.83541e-05;7.84396e-05;3.13236;21.455
169320;7.98736e-05;7.996e-05;1.36797;21.419
171120;8.13148e-05;8.14022e-05;-0.294749;21.3823
172800;8.25825e-05;8.26707e-05;-1.75686;21.3476
174560;8.37021e-05;8.37912e-05;-3.07405;21.3108
176288;8.46634e-05;8.47532e-05;-4.25502;21.2741
178088;8.54574e-05;8.55479e-05;-5.26854;21.2356
179888;8.60783e-05;8.61694e-05;-6.10353;21.1969
181688;8.65263e-05;8.66179e-05;-6.73674;21.1579
183488;8.68274e-05;8.69195e-05;-7.1576;21.1188
185288;8.70156e-05;8.71081e-05;-7.36609;21.0796
187088;8.71298e-05;8.72228e-05;-7.35326;21.0403
188888;8.72107e-05;8.73043e-05;-7.13451;21.001
190688;8.7296e-05;8.73903e-05;-6.70297;20.9617
192488;8.74171e-05;8.75122e-05;-6.0531;20.9223
194288;8.75959e-05;8.76919e-05;-5.21175;20.8829
196088;8.78418e-05;8.79389e-05;-4.19778;20.8433
197774;8.81391e-05;8.82375e-05;-3.04095;20.8061
199574;8.84833e-05;8.8583e-05;-1.73741;20.7662
201374;8.88552e-05;8.89564e-05;-0.245392;20.7262
202889;8.91819e-05;8.92844e-05;1.19088;20.6924
204689;8.9456e-05;8.95598e-05;2.75147;20.6521
206489;8.96514e-05;8.97565e-05;4.47222;20.6117
208289;8.96948e-05;8.9801e-05;6.23674;20.5713
209804;8.95739e-05;8.96809e-05;7.8345;20.5373
211579;8.92474e-05;8.93549e-05;9.43727;20.4977
213379;8.86645e-05;8.87723e-05;11.1057;20.4577
215179;8.78218e-05;8.79294e-05;12.6927;20.4182
216000;8.70678e-05;8.71752e-05;13.7725;20.4003
216720;8.65401e-05;8.66471e-05;14.388;20.3847
218520;8.55938e-05;8.57001e-05;15.3125;20.3461
220320;8.40799e-05;8.4185e-05;16.495;20.3082
222120;8.23989e-05;8.25025e-05;17.4884;20.2711
223920;8.06055e-05;8.07072e-05;18.2767;20.2348
225720;7.87629e-05;7.88624e-05;18.8407;20.1993
227520;7.69393e-05;7.70366e-05;19.1698;20.1646
229320;7.52047e-05;7.52997e-05;19.2739;20.1307
231120;7.36266e-05;7.37192e-05;19.1265;20.0976
232920;7.22666e-05;7.2357e-05;18.7414;20.065
234720;7.11777e-05;7.1266e-05;18.1372;20.0329
236520;7.04011e-05;7.04876e-05;17.3118;20.0012
238320;6.99644e-05;7.00493e-05;16.2828;19.9697
240120;6.98803e-05;6.99639e-05;15.0843;19.9382
241920;7.01461e-05;7.02287e-05;13.7291;19.9066
243720;7.0744e-05;7.0826e-05;12.2444;19.8747
245520;7.16421e-05;7.17238e-05;10.6608;19.8425
247320;7.27965e-05;7.28782e-05;9.01345;19.8097
249120;7.41534e-05;7.42354e-05;7.3316;19.7763
250920;7.56522e-05;7.57347e-05;5.64146;19.7422
252720;7.72291e-05;7.73123e-05;3.98076;19.7074
254520;7.88204e-05;7.89043e-05;2.37009;19.6719
256320;8.03661e-05;8.04509e-05;0.840833;19.6357
258120;8.18133e-05;8.1899e-05;-0.584686;19.5988
259200;8.28752e-05;8.29615e-05;-1.64056;19.5764
259920;8.3484e-05;8.35707e-05;-2.25886;19.5614
261720;8.42509e-05;8.43382e-05;-3.04929;19.5234
263520;8.51914e-05;8.52794e-05;-4.05423;19.4851
265320;8.59354e-05;8.6024e-05;-4.88922;19.4463
267120;8.64913e-05;8.65805e-05;-5.54554;19.4074
268920;8.68792e-05;8.6969e-05;-6.01445;19.3682
270720;8.71293e-05;8.72196e-05;-6.29331;19.329
272520;8.72785e-05;8.73693e-05;-6.37842;19.2897
274320;8.7367e-05;8.74585e-05;-6.26845;19.2503
276120;8.74349e-05;8.75271e-05;-5.96558;19.2109
277920;8.75176e-05;8.76108e-05;-5.47301;19.1715
279720;8.76427e-05;8.77369e-05;-4.7967;19.132
281520;8.78269e-05;8.79223e-05;-3.94523;19.0925
283320;8.80739e-05;8.81707e-05;-2.92975;19.0528
285120;8.8374e-05;8.84722e-05;-1.76658;19.013
286920;8.87044e-05;8.88042e-05;-0.471222;18.973
288720;8.90313e-05;8.91328e-05;0.935443;18.9329
290520;8.93128e-05;8.94158e-05;2.42984;18.8927
292320;8.95023e-05;8.96069e-05;3.98685;18.8523
294120;8.95531e-05;8.9659e-05;5.57867;18.812
295920;8.9422e-05;8.95289e-05;7.1766;18.7717
297720;8.9073e-05;8.91807e-05;8.75238;18.7316
299520;8.8481e-05;8.85891e-05;10.2773;18.6917
301320;8.76332e-05;8.77414e-05;11.7206;18.6522
302400;8.67782e-05;8.68861e-05;12.8075;18.6288
303120;8.61618e-05;8.62694e-05;13.4467;18.6132
304920;8.51926e-05;8.52996e-05;14.2764;18.5749
306720;8.36471e-05;8.37529e-05;15.3335;18.5372
308520;8.19396e-05;8.20438e-05;16.221;18.5002
310320;8.0125e-05;8.02274e-05;16.9333;18.4641
312120;7.82669e-05;7.83672e-05;17.4188;18.4289
313920;7.64339e-05;7.65319e-05;17.7123;18.3944
315720;7.4696e-05;7.47916e-05;17.7947;18.3608
317520;7.31207e-05;7.32139e-05;17.6528;18.3278
319320;7.17698e-05;7.18606e-05;17.3075;18.2955
321080;7.07071e-05;7.07957e-05;16.7593;18.2643
322840;6.99596e-05;7.00463e-05;16.036;18.2335
324640;6.95392e-05;6.96242e-05;15.1243;18.2022
326440;6.94697e-05;6.95532e-05;14.0502;18.1709
328240;6.97546e-05;6.9837e-05;12.8403;18.1395
330040;7.03762e-05;7.04577e-05;11.5142;18.1078
331840;7.13024e-05;7.13835e-05;10.1017;18.0756
333640;7.2489e-05;7.257e-05;8.64042;18.043
335440;7.38819e-05;7.39629e-05;7.12903;18.0097
337240;7.54199e-05;7.55013e-05;5.62288;17.9757
339040;7.70384e-05;7.71203e-05;4.13127;17.941
340840;7.86728e-05;7.87554e-05;2.69217;17.9056
342640;8.02624e-05;8.03457e-05;1.33209;17.8694
344440;8.17531e-05;8.18372e-05;0.0566943;17.8326
345600;8.28558e-05;8.29404e-05;-0.902906;17.8085
345862;8.33349e-05;8.34198e-05;-1.32653;17.8031
347477;8.3973e-05;8.40584e-05;-1.88706;17.7691
349277;8.49635e-05;8.50495e-05;-2.78524;17.7309
351077;8.58007e-05;8.58874e-05;-3.58242;17.6922
352805;8.64273e-05;8.65146e-05;-4.20811;17.6548
354605;8.68838e-05;8.69716e-05;-4.67863;17.6157
356405;8.71931e-05;8.72815e-05;-4.98842;17.5764
358205;8.7381e-05;8.747e-05;-5.12589;17.5371
360005;8.74869e-05;8.75766e-05;-5.08739;17.4977
361805;8.75517e-05;8.76421e-05;-4.87203;17.4582
363605;8.7613e-05;8.77044e-05;-4.48758;17.4188
365405;8.77022e-05;8.77946e-05;-3.93282;17.3792
367205;8.78408e-05;8.79344e-05;-3.21523;17.3397
369005;8.8038e-05;8.8133e-05;-2.34939;17.3
370805;8.82896e-05;8.83862e-05;-1.34241;17.2602
372605;8.85784e-05;8.86767e-05;-0.210688;17.2203
374405;8.88749e-05;8.89749e-05;1.02564;17.1803
376205;8.91406e-05;8.92423e-05;2.34829;17.1401
378005;8.93308e-05;8.94342e-05;3.73428;17.0999
379805;8.9399e-05;8.95039e-05;5.15639;17.0596
381605;8.93008e-05;8.9407e-05;6.59359;17.0194
383405;8.89978e-05;8.9105e-05;8.01578;16.9793
385205;8.8461e-05;8.85688e-05;9.39946;16.9394
387005;8.76734e-05;8.77814e-05;10.719;16.8999
388800;8.66339e-05;8.67417e-05;11.9486;16.861
390600;8.53514e-05;8.54588e-05;13.0687;16.8226
392400;8.38509e-05;8.39572e-05;14.0594;16.7848
394200;8.21732e-05;8.22781e-05;14.9013;16.7477
396000;8.037e-05;8.04732e-05;15.583;16.7115
397800;7.85023e-05;7.86035e-05;16.0827;16.6762
399600;7.66374e-05;7.67364e-05;16.4004;16.6416
401400;7.48452e-05;7.49418e-05;16.5281;16.6079
403200;7.31947e-05;7.32889e-05;16.4637;16.5749
405000;7.17504e-05;7.18422e-05;16.2085;16.5426
406800;7.05686e-05;7.06581e-05;15.7684;16.5108
408600;6.96952e-05;6.97825e-05;15.1536;16.4794
410400;6.91625e-05;6.92479e-05;14.3727;16.4482
412200;6.89886e-05;6.90724e-05;13.4474;16.4172
414000;6.91759e-05;6.92584e-05;12.394;16.386
415800;6.97115e-05;6.97929e-05;11.2342;16.3546
417600;7.05676e-05;7.06483e-05;9.99167;16.3228
419400;7.17035e-05;7.17838e-05;8.6896;16.2905
421200;7.30675e-05;7.31478e-05;7.35362;16.2576
423000;7.46001e-05;7.46805e-05;6.00797;16.224
424800;7.62368e-05;7.63175e-05;4.67683;16.1896
426600;7.79117e-05;7.7993e-05;3.38333;16.1545
428400;7.95619e-05;7.96437e-05;2.14912;16.1187
430200;8.11295e-05;8.1212e-05;0.991529;16.0821
432000;8.25658e-05;8.2649e-05;-0.0721761;16.045
433800;8.38332e-05;8.39171e-05;-1.02713;16.0072
435600;8.49071e-05;8.49917e-05;-1.8604;15.9689
437400;8.57762e-05;8.58614e-05;-2.5623;15.9303
439200;8.64431e-05;8.6529e-05;-3.12383;15.8914
441000;8.69231e-05;8.70095e-05;-3.5392;15.8522
442800;8.72421e-05;8.73291e-05;-3.80329;15.8129
444600;8.74347e-05;8.75223e-05;-3.91277;15.7735
446400;8.75402e-05;8.76285e-05;-3.86618;15.7341
448200;8.75994e-05;8.76884e-05;-3.66415;15.6946
450000;8.76499e-05;8.77399e-05;-3.30881;15.6552
451800;8.77233e-05;8.78143e-05;-2.80462;15.6156
453600;8.7841e-05;8.79333e-05;-2.15844;15.5761
455400;8.80123e-05;8.8106e-05;-1.37985;15.5364
456645;8.81848e-05;8.82797e-05;-0.663257;15.5089
458281;8.81589e-05;8.82544e-05;-0.20372;15.4729
460081;8.81703e-05;8.82669e-05;0.56821;15.4331
461881;8.81994e-05;8.82973e-05;1.53367;15.3934
463681;8.81363e-05;8.82354e-05;2.52553;15.3537
465481;8.78998e-05;8.79998e-05;3.53233;15.3141
467281;8.75433e-05;8.76443e-05;4.62288;15.2747
469081;8.69313e-05;8.70328e-05;5.67189;15.2355
470881;8.61559e-05;8.62578e-05;6.79608;15.1967
472681;8.51043e-05;8.52063e-05;7.85599;15.1583
474481;8.38742e-05;8.39761e-05;8.94458;15.1205
475200;8.28609e-05;8.29624e-05;9.6418;15.1056
476280;8.20981e-05;8.21993e-05;10.1594;15.0834
478080;8.08044e-05;8.0905e-05;10.9533;15.047
479880;7.90309e-05;7.91304e-05;11.8126;15.0114
481680;7.71918e-05;7.729e-05;12.6037;14.9766
483480;7.53195e-05;7.54161e-05;13.2564;14.9427
485280;7.34571e-05;7.35518e-05;13.7395;14.9096
487080;7.16339e-05;7.17266e-05;14.0157;14.8773
488880;6.99235e-05;7.00139e-05;14.1014;14.8458
490680;6.83646e-05;6.84526e-05;13.9684;14.815
492480;6.69957e-05;6.70812e-05;13.6101;14.7848
494280;6.58414e-05;6.59243e-05;13.0165;14.7552
496080;6.48853e-05;6.49656e-05;12.1702;14.7259
497880;6.41629e-05;6.42405e-05;11.1022;14.697
499680;6.36102e-05;6.3685e-05;9.77865;14.6684
501480;6.31882e-05;6.326e-05;8.20815;14.6399
503280;6.28004e-05;6.2869e-05;6.36006;14.6116
505080;6.23652e-05;6.24303e-05;4.25564;14.5835
506720;6.18787e-05;6.19402e-05;2.10834;14.5581
508520;6.14159e-05;6.1474e-05;-0.0987523;14.5304
510320;6.08632e-05;6.09177e-05;-2.43207;14.503
512120;6.04575e-05;6.05089e-05;-4.65289;14.4758
513920;6.022e-05;6.02689e-05;-6.63405;14.4487
515720;5.99664e-05;6.00129e-05;-8.6385;14.4217
517520;5.96231e-05;5.96671e-05;-10.5689;14.3948
518400;5.92991e-05;5.93415e-05;-11.8953;14.3818
519120;5.91404e-05;5.9182e-05;-12.605;14.3711
520920;5.89232e-05;5.89639e-05;-13.5866;14.3446
522720;5.85183e-05;5.85575e-05;-14.9384;14.3182
524520;5.80591e-05;5.80972e-05;-15.9948;14.2921
526320;5.7631e-05;5.76683e-05;-16.836;14.2661
528120;5.71708e-05;5.72079e-05;-17.3731;14.2404
529920;5.67046e-05;5.67415e-05;-17.7115;14.2149
531720;5.62939e-05;5.63313e-05;-17.723;14.1895
533520;5.58483e-05;5.58862e-05;-17.5823;14.1644
535320;5.53579e-05;5.53964e-05;-17.3015;14.1394
537120;5.49094e-05;5.49488e-05;-16.7533;14.1147
538920;5.43487e-05;5.43888e-05;-16.2102;14.0902
540720;5.37733e-05;5.38143e-05;-15.4621;14.066
542520;5.32064e-05;5.32486e-05;-14.5101;14.0421
544320;5.2603e-05;5.26464e-05;-13.417;14.0184
546120;5.20105e-05;5.20553e-05;-12.1431;13.9949
547920;5.12925e-05;5.13387e-05;-10.797;13.9718
549720;5.05155e-05;5.05632e-05;-9.27038;13.9491
551520;4.97498e-05;4.97993e-05;-7.52103;13.9267
553320;4.89594e-05;4.90107e-05;-5.62193;13.9046
555120;4.81294e-05;4.81826e-05;-3.6081;13.8829
556920;4.72571e-05;4.73123e-05;-1.50978;13.8616
558720;4.6354e-05;4.6411e-05;0.647371;13.8408
560520;4.54545e-05;4.55133e-05;2.8482;13.8203
561500;4.465e-05;4.47101e-05;4.47874;13.8093
561600;4.45401e-05;4.46006e-05;4.9712;13.8082
562504;4.42334e-05;4.42944e-05;5.67513;13.7982
562809;4.35399e-05;4.3601e-05;6.35622;13.7949
564074;4.34733e-05;4.35352e-05;7.21795;13.7811
565874;4.26725e-05;4.27355e-05;8.91991;13.7619
567674;4.17942e-05;4.1858e-05;10.7012;13.743
569376;4.09219e-05;4.0986e-05;12.1481;13.7256
571032;4.00592e-05;4.01231e-05;13.2777;13.709
572832;3.92294e-05;3.92928e-05;14.2347;13.6913
574592;3.84733e-05;3.85359e-05;14.9144;13.6744
576392;3.77348e-05;3.77959e-05;15.2368;13.6573
578152;3.70805e-05;3.71399e-05;15.2422;13.641
579912;3.64866e-05;3.65438e-05;14.8883;13.6249
581712;3.59324e-05;3.5987e-05;14.1882;13.6087
583512;3.54622e-05;3.55139e-05;13.1718;13.5927
585312;3.506e-05;3.51086e-05;11.8416;13.577
587112;3.47207e-05;3.47658e-05;10.2329;13.5613
588912;3.44683e-05;3.45099e-05;8.41711;13.5458
590712;3.42731e-05;3.43112e-05;6.38544;13.5303
592512;3.41147e-05;3.41491e-05;4.18357;13.515
594312;3.40071e-05;3.40379e-05;1.90458;13.4997
596112;3.40122e-05;3.40397e-05;-0.360253;13.4843
597912;3.41234e-05;3.4148e-05;-2.59573;13.469
599355;3.42656e-05;3.42877e-05;-4.55043;13.4566
600611;3.44392e-05;3.44596e-05;-6.12337;13.4458
602411;3.44785e-05;3.44965e-05;-8.071;13.4303
604211;3.45196e-05;3.45353e-05;-10.0467;13.4147
604800;3.46469e-05;3.46616e-05;-11.1112;13.4096
605880;3.46363e-05;3.46501e-05;-12.0036;13.4003
607680;3.47005e-05;3.47133e-05;-13.2094;13.3846
609480;3.48886e-05;3.49006e-05;-14.4178;13.3689
610970;3.50387e-05;3.50504e-05;-15.3359;13.3559
612485;3.51853e-05;3.51969e-05;-15.9907;13.3425
614285;3.52145e-05;3.52261e-05;-16.6499;13.3267
616085;3.51499e-05;3.51616e-05;-17.1041;13.3109
617885;3.5187e-05;3.51996e-05;-17.1556;13.295
619685;3.51794e-05;3.5193e-05;-17.0098;13.2792
621485;3.51796e-05;3.51947e-05;-16.616;13.2634
623285;3.50297e-05;3.50461e-05;-16.1197;13.2476
625085;3.49188e-05;3.49369e-05;-15.3437;13.2319
626885;3.4767e-05;3.4787e-05;-14.3962;13.2162
628685;3.45899e-05;3.4612e-05;-13.2463;13.2006
630485;3.43937e-05;3.4418e-05;-11.9104;13.1851
632285;3.41293e-05;3.41558e-05;-10.4319;13.1698
634085;3.38454e-05;3.38744e-05;-8.7618;13.1545
635885;3.35118e-05;3.35434e-05;-6.93827;13.1394
637685;3.31349e-05;3.31692e-05;-4.97021;13.1245
639485;3.27011e-05;3.2738e-05;-2.88803;13.1098
641145;3.22355e-05;3.2275e-05;-0.81238;13.0964
642005;3.189e-05;3.19312e-05;0.649645;13.0895
642992;3.15942e-05;3.16368e-05;1.83235;13.0817
643152;2.98451e-05;2.98862e-05;2.31038;13.0805
643152;3.1818e-05;3.17362e-05;3.19311;13.0805
643154;3.16976e-05;3.17506e-05;3.20673;13.0805
643162;3.1707e-05;3.1751e-05;3.16809;13.0804
643229;3.16917e-05;3.17363e-05;3.12616;13.0799
643599;3.14282e-05;3.14725e-05;3.02553;13.077
644853;3.10034e-05;3.10484e-05;4.02044;13.0673
646613;3.04654e-05;3.05123e-05;5.96595;13.0538
648000;2.98903e-05;2.9939e-05;7.86248;13.0435
649800;2.93282e-05;2.93786e-05;9.77379;13.0302
651528;2.87656e-05;2.88178e-05;11.7907;13.0178
653256;2.82437e-05;2.82973e-05;13.5949;13.0056
655016;2.76929e-05;2.77474e-05;15.1626;12.9933
656031;2.71138e-05;2.71686e-05;16.2385;12.9865
656465;2.71514e-05;2.72067e-05;16.7081;12.9835
657751;2.67104e-05;2.67654e-05;17.2579;12.9749
658005;2.62432e-05;2.62981e-05;17.7722;12.9732
658742;2.65773e-05;2.66325e-05;17.9156;12.9683
659433;2.60973e-05;2.61518e-05;18.1851;12.9638
659800;2.62692e-05;2.6324e-05;18.3789;12.9614
661337;2.59177e-05;2.59717e-05;18.557;12.9514
661704;2.52985e-05;2.53516e-05;18.7373;12.9491
661944;2.43004e-05;2.43523e-05;18.6975;12.9476
662319;2.55728e-05;2.56258e-05;18.7429;12.9452
662528;2.47058e-05;2.47577e-05;18.7619;12.9439
663323;2.52205e-05;2.52723e-05;18.5796;12.9389
663325;-7.3772e-05;-7.38595e-05;10.5888;12.9389
663326;2.54161e-05;2.54753e-05;19.2537;12.9389
663340;2.54001e-05;2.54527e-05;19.1424;12.9388
663452;2.5301e-05;2.53534e-05;18.8678;12.9381
663761;2.5041e-05;2.50922e-05;18.4939;12.9362
663768;2.29241e-06;2.31227e-06;16.6339;12.9362
663768;-0.000763308;-0.000764137;-45.0911;12.9362
