Time;TotalMassChange;WaterMassChange;IntEnergyChange;WaterMass
3600;0.000124108;0.00012426;170.657;24.9262
7200;0.000103303;0.000103432;94.4498;24.8331
10800;9.80566e-05;9.81771e-05;74.7778;24.7448
14400;9.52833e-05;9.53994e-05;64.1003;24.6589
18000;9.34803e-05;9.35935e-05;56.7589;24.5747
21600;9.21862e-05;9.22973e-05;51.0439;24.4916
25200;9.1199e-05;9.13085e-05;46.2713;24.4094
28800;9.04146e-05;9.05227e-05;42.1368;24.3279
32400;8.97721e-05;8.98791e-05;38.4849;24.2471
36000;8.92332e-05;8.93393e-05;35.2262;24.1666
39600;8.87735e-05;8.88787e-05;32.3053;24.0867
43200;8.83762e-05;8.84807e-05;29.6789;24.007
46800;8.80294e-05;8.81333e-05;27.322;23.9277
50400;8.77246e-05;8.78279e-05;25.1992;23.8487
54000;8.74551e-05;8.75579e-05;23.2861;23.7699
57600;8.72159e-05;8.73182e-05;21.568;23.6913
