Time;TotalMassChange;WaterMassChange;IntEnergyChange;WaterMass
3600;0.000124395;0.000124547;171.786;24.6981
7200;0.000103468;0.000103597;95.1433;24.6049
10800;9.82035e-05;9.83242e-05;75.3992;24.5164
14400;9.53931e-05;9.55093e-05;64.5538;24.4304
18000;9.35753e-05;9.36886e-05;57.1072;24.3461
21600;9.22704e-05;9.23816e-05;51.2895;24.263
25200;9.1275e-05;9.13845e-05;46.4219;24.1807
28800;9.0484e-05;9.05922e-05;42.2028;24.0992
32400;8.98361e-05;8.99432e-05;38.4775;24.0182
36000;8.92927e-05;8.93988e-05;35.1575;23.9378
39600;8.88293e-05;8.89345e-05;32.1871;23.8577
43200;8.8429e-05;8.85335e-05;29.5229;23.778
46800;8.80799e-05;8.81837e-05;27.1221;23.6987
50400;8.77733e-05;8.78766e-05;24.9918;23.6196
54000;8.75025e-05;8.76052e-05;23.0563;23.5407
57600;8.72623e-05;8.73646e-05;21.3357;23.4621
61200;8.70478e-05;8.71497e-05;19.7712;23.3837
64800;8.68566e-05;8.69581e-05;18.3822;23.3054
68400;8.66856e-05;8.67868e-05;17.13;23.2273
72000;8.65323e-05;8.66331e-05;15.9888;23.1493
75600;8.63944e-05;8.6495e-05;14.9816;23.0715
79200;8.62714e-05;8.63718e-05;14.0694;22.9938
82800;8.6161e-05;8.62611e-05;13.2489;22.9161
86400;8.60614e-05;8.61613e-05;12.5119;22.8386
90000;8.59724e-05;8.60721e-05;11.8703;22.7611
93600;8.58919e-05;8.59914e-05;11.2677;22.6837
97200;8.58191e-05;8.59185e-05;10.7316;22.6064
100800;8.57538e-05;8.58531e-05;10.2472;22.5291
104400;8.56949e-05;8.57941e-05;9.82513;22.4519
108000;8.56418e-05;8.57408e-05;9.43179;22.3748
111600;8.55938e-05;8.56927e-05;9.0775;22.2976
115200;8.55503e-05;8.56491e-05;8.77481;22.2205
118800;8.55111e-05;8.56098e-05;8.49881;22.1435
122400;8.54756e-05;8.55742e-05;8.23335;22.0665
126000;8.54434e-05;8.55419e-05;8.01895;21.9895
129600;8.54142e-05;8.55127e-05;7.80934;21.9125
133200;8.53879e-05;8.54863e-05;7.63316;21.8356
136800;8.5364e-05;8.54623e-05;7.46248;21.7587
140400;8.5342e-05;8.54402e-05;7.31787;21.6818
144000;8.53219e-05;8.54201e-05;7.18831;21.6049
147600;8.53034e-05;8.54016e-05;7.06592;21.528
151200;8.52864e-05;8.53846e-05;6.96678;21.4512
154800;8.52708e-05;8.53688e-05;6.8697;21.3744
158400;8.52563e-05;8.53544e-05;6.77917;21.2975
162000;8.5243e-05;8.5341e-05;6.7026;21.2207
165600;8.52305e-05;8.53285e-05;6.63528;21.1439
169200;8.52189e-05;8.53168e-05;6.57138;21.0672
172800;8.52079e-05;8.53058e-05;6.50805;20.9904
176400;8.51977e-05;8.52955e-05;6.47126;20.9136
180000;8.51879e-05;8.52857e-05;6.42062;20.8369
183600;8.51787e-05;8.52765e-05;6.3753;20.7601
187200;8.51699e-05;8.52676e-05;6.34037;20.6834
190800;8.51615e-05;8.52592e-05;6.30557;20.6066
194400;8.51536e-05;8.52512e-05;6.27093;20.5299
198000;8.5146e-05;8.52437e-05;6.2524;20.4532
201600;8.51387e-05;8.52363e-05;6.22927;20.3765
205200;8.51315e-05;8.52291e-05;6.20696;20.2998
208800;8.51245e-05;8.52221e-05;6.18154;20.2231
212400;8.51176e-05;8.52152e-05;6.17075;20.1464
216000;8.51109e-05;8.52084e-05;6.15341;20.0697
219600;8.51042e-05;8.52017e-05;6.14134;19.993
223200;8.50975e-05;8.5195e-05;6.12893;19.9163
226800;8.50909e-05;8.51884e-05;6.11939;19.8397
230400;8.50844e-05;8.51818e-05;6.10949;19.763
234000;8.50778e-05;8.51752e-05;6.09782;19.6863
237600;8.50712e-05;8.51686e-05;6.09359;19.6097
241200;8.50646e-05;8.51619e-05;6.08494;19.533
244800;8.5058e-05;8.51553e-05;6.07772;19.4564
248400;8.50513e-05;8.51486e-05;6.07221;19.3798
252000;8.50445e-05;8.51418e-05;6.06694;19.3031
255600;8.50377e-05;8.5135e-05;6.06358;19.2265
259200;8.50308e-05;8.51281e-05;6.05723;19.1499
262800;8.50239e-05;8.51211e-05;6.05547;19.0733
266400;8.50169e-05;8.5114e-05;6.04873;18.9967
270000;8.50098e-05;8.51069e-05;6.04554;18.9201
273600;8.50027e-05;8.50998e-05;6.0406;18.8435
277200;8.49957e-05;8.50927e-05;6.04106;18.7669
280800;8.49886e-05;8.50856e-05;6.03921;18.6903
284400;8.49814e-05;8.50784e-05;6.0384;18.6138
288000;8.4974e-05;8.5071e-05;6.03612;18.5372
291600;8.49665e-05;8.50634e-05;6.03244;18.4607
295200;8.49589e-05;8.50558e-05;6.03285;18.3841
298800;8.49511e-05;8.5048e-05;6.03249;18.3076
302400;8.49432e-05;8.50401e-05;6.03195;18.231
306000;8.49352e-05;8.5032e-05;6.03193;18.1545
309600;8.49271e-05;8.50239e-05;6.03154;18.078
313200;8.49188e-05;8.50155e-05;6.03347;18.0015
316800;8.49104e-05;8.50071e-05;6.0291;17.925
320400;8.49018e-05;8.49985e-05;6.02979;17.8485
324000;8.48931e-05;8.49897e-05;6.02946;17.772
327600;8.48842e-05;8.49808e-05;6.02861;17.6955
331200;8.48752e-05;8.49718e-05;6.02917;17.619
334800;8.4866e-05;8.49626e-05;6.02787;17.5425
338400;8.48567e-05;8.49533e-05;6.0278;17.4661
342000;8.48472e-05;8.49437e-05;6.02766;17.3896
345600;8.48376e-05;8.49341e-05;6.0275;17.3132
349200;8.48278e-05;8.49242e-05;6.02732;17.2368
352800;8.48178e-05;8.49142e-05;6.02711;17.1603
356400;8.48077e-05;8.49041e-05;6.02681;17.0839
360000;8.47974e-05;8.48937e-05;6.02661;17.0075
363600;8.47869e-05;8.48832e-05;6.02705;16.9311
367200;8.47763e-05;8.48726e-05;6.02596;16.8547
370800;8.47655e-05;8.48618e-05;6.02734;16.7784
374400;8.47547e-05;8.48509e-05;6.02894;16.702
378000;8.47439e-05;8.484e-05;6.03093;16.6256
381600;8.47329e-05;8.4829e-05;6.02999;16.5493
385200;8.47216e-05;8.48176e-05;6.03084;16.473
388800;8.471e-05;8.48061e-05;6.0309;16.3966
392400;8.46982e-05;8.47942e-05;6.03096;16.3203
396000;8.46862e-05;8.47821e-05;6.03149;16.244
399600;8.46738e-05;8.47697e-05;6.02853;16.1677
403200;8.45626e-05;8.46582e-05;5.91546;16.0915
406800;8.41713e-05;8.4266e-05;5.6197;16.0157
410400;8.38022e-05;8.38963e-05;5.43352;15.9402
414000;8.3571e-05;8.36649e-05;5.37877;15.8649
417600;8.33433e-05;8.34368e-05;5.21106;15.7898
421200;8.31522e-05;8.32454e-05;5.12067;15.7149
424800;8.29936e-05;8.30866e-05;5.07076;15.6401
428400;8.29099e-05;8.30029e-05;5.11375;15.5654
432000;8.29506e-05;8.30439e-05;5.29394;15.4907
435600;8.31199e-05;8.32137e-05;5.54919;15.4158
439200;8.2734e-05;8.28267e-05;5.11432;15.3412
442800;8.22995e-05;8.23912e-05;4.78706;15.2671
446400;8.17291e-05;8.18196e-05;4.40887;15.1934
450000;8.09692e-05;8.10583e-05;3.92685;15.1205
453600;8.01789e-05;8.02667e-05;3.51133;15.0482
457200;7.91529e-05;7.92389e-05;2.91869;14.9769
460800;7.78802e-05;7.7964e-05;2.22166;14.9068
464400;7.63782e-05;7.64596e-05;1.46167;14.8379
468000;7.47008e-05;7.47795e-05;0.706539;14.7706
471600;7.30807e-05;7.31572e-05;0.128854;14.7048
475200;7.07894e-05;7.08623e-05;-0.844706;14.641
478800;6.85273e-05;6.85972e-05;-1.54309;14.5793
482400;6.64438e-05;6.65111e-05;-2.076;14.5194
486000;6.45358e-05;6.46008e-05;-2.45303;14.4613
489600;6.27135e-05;6.27763e-05;-2.79855;14.4048
493200;6.08287e-05;6.08892e-05;-3.13755;14.35
496800;5.89931e-05;5.90516e-05;-3.4131;14.2968
500400;5.7261e-05;5.73176e-05;-3.56611;14.2453
504000;5.55625e-05;5.56172e-05;-3.72569;14.1952
507600;5.4009e-05;5.4062e-05;-3.74761;14.1465
511200;5.24964e-05;5.25478e-05;-3.77903;14.0992
514800;5.11187e-05;5.11688e-05;-3.71769;14.0532
518400;4.98644e-05;4.99133e-05;-3.61169;14.0083
522000;4.86961e-05;4.8744e-05;-3.46852;13.9644
525600;4.76341e-05;4.7681e-05;-3.2906;13.9215
529200;4.66217e-05;4.66677e-05;-3.17232;13.8795
532800;4.5493e-05;4.55378e-05;-3.09803;13.8385
536400;4.44792e-05;4.4523e-05;-2.96548;13.7984
540000;4.34494e-05;4.34922e-05;-2.84801;13.7593
543600;4.25203e-05;4.25623e-05;-2.6938;13.721
547200;4.1621e-05;4.16621e-05;-2.54308;13.6835
550800;4.07942e-05;4.08346e-05;-2.37104;13.6467
554400;4.00252e-05;4.00649e-05;-2.19579;13.6107
558000;3.93046e-05;3.93438e-05;-2.02265;13.5753
561600;3.8573e-05;3.86115e-05;-1.89008;13.5405
565200;3.78728e-05;3.79107e-05;-1.76679;13.5064
568800;3.71539e-05;3.7191e-05;-1.64979;13.4729
572400;3.65115e-05;3.65481e-05;-1.48579;13.44
576000;3.5879e-05;3.5915e-05;-1.35493;13.4077
579600;3.52113e-05;3.52467e-05;-1.26402;13.376
583200;3.46026e-05;3.46374e-05;-1.14731;13.3448
586800;3.40467e-05;3.40811e-05;-1.00157;13.3141
590400;3.35227e-05;3.35566e-05;-0.877601;13.2839
594000;3.30282e-05;3.30617e-05;-0.743906;13.2542
597600;3.25771e-05;3.26103e-05;-0.613618;13.2248
601200;3.2087e-05;3.21197e-05;-0.549474;13.1959
604800;3.1581e-05;3.16132e-05;-0.486182;13.1675
608400;3.10761e-05;3.11077e-05;-0.432462;13.1395
612000;3.05987e-05;3.06299e-05;-0.359146;13.1119
615600;3.01354e-05;3.01662e-05;-0.292621;13.0848
619200;2.9715e-05;2.97454e-05;-0.198072;13.058
622800;2.92827e-05;2.93128e-05;-0.132646;13.0316
626400;2.88715e-05;2.89012e-05;-0.0580452;13.0056
630000;2.84895e-05;2.85189e-05;0.0180772;12.9799
633600;2.81237e-05;2.81527e-05;0.0977201;12.9546
637200;2.78134e-05;2.78422e-05;0.198702;12.9295
640800;2.74907e-05;2.75192e-05;0.258337;12.9048
644400;2.72206e-05;2.72489e-05;0.350919;12.8802
648000;2.69103e-05;2.69384e-05;0.378672;12.856
651600;2.65239e-05;2.65515e-05;0.364528;12.8321
655200;2.61806e-05;2.62078e-05;0.40202;12.8085
658800;2.58381e-05;2.58649e-05;0.41466;12.7852
662400;2.55028e-05;2.55293e-05;0.437545;12.7623
666000;2.51768e-05;2.5203e-05;0.461838;12.7396
669600;2.48635e-05;2.48894e-05;0.4928;12.7172
673200;2.45816e-05;2.46073e-05;0.534582;12.695
676800;2.42901e-05;2.43155e-05;0.565421;12.6732
680400;2.4023e-05;2.40481e-05;0.603708;12.6515
684000;2.37587e-05;2.37836e-05;0.637086;12.6301
687600;2.35056e-05;2.35303e-05;0.668697;12.6089
691200;2.32889e-05;2.33134e-05;0.728394;12.5879
694800;2.3118e-05;2.31425e-05;0.803985;12.5671
698400;2.29612e-05;2.29856e-05;0.866241;12.5464
702000;2.27861e-05;2.28102e-05;0.890985;12.5259
705600;2.25555e-05;2.25794e-05;0.871314;12.5056
709200;2.22649e-05;2.22884e-05;0.829264;12.4855
712800;2.203e-05;2.20532e-05;0.846589;12.4657
716400;2.17997e-05;2.18227e-05;0.847468;12.446
720000;2.15544e-05;2.15771e-05;0.836744;12.4266
723600;2.13145e-05;2.1337e-05;0.838893;12.4074
727200;2.10891e-05;2.11114e-05;0.84217;12.3884
730800;2.08659e-05;2.0888e-05;0.847463;12.3696
734400;2.0666e-05;2.06879e-05;0.863671;12.351
738000;2.04655e-05;2.04871e-05;0.871953;12.3326
741600;2.02671e-05;2.02886e-05;0.88479;12.3143
745200;2.00916e-05;2.01129e-05;0.908203;12.2962
748800;1.99273e-05;1.99485e-05;0.930919;12.2782
752400;1.97583e-05;1.97794e-05;0.94462;12.2604
756000;1.95965e-05;1.96174e-05;0.959129;12.2428
759600;1.94656e-05;1.94864e-05;0.99845;12.2252
763200;1.93725e-05;1.93932e-05;1.05222;12.2078
766800;1.92884e-05;1.93092e-05;1.09662;12.1904
770400;1.92062e-05;1.92269e-05;1.125;12.1731
774000;1.90464e-05;1.90669e-05;1.08659;12.1559
777600;1.8832e-05;1.88522e-05;1.03535;12.139
781200;1.86537e-05;1.86737e-05;1.02793;12.1222
784800;1.84972e-05;1.8517e-05;1.02782;12.1055
788400;1.83177e-05;1.83373e-05;1.00812;12.089
792000;1.81417e-05;1.81611e-05;0.994377;12.0727
795600;1.79786e-05;1.79978e-05;0.991732;12.0565
799200;1.78185e-05;1.78375e-05;0.984674;12.0404
