Time;TotalMassChange;WaterMassChange;IntEnergyChange;WaterMass
3600;0.000124076;0.000124229;170.476;25.1595
7200;0.000102864;0.000102992;92.8017;25.0668
10800;9.77254e-05;9.78454e-05;73.5385;24.9788
14400;9.50156e-05;9.51313e-05;63.1277;24.8931
18000;9.32536e-05;9.33664e-05;55.9939;24.8091
21600;9.1988e-05;9.20988e-05;50.4567;24.7262
25200;9.10214e-05;9.11306e-05;45.8394;24.6442
28800;9.02519e-05;9.03598e-05;41.8356;24.5629
32400;8.96207e-05;8.97275e-05;38.2941;24.4821
36000;8.90912e-05;8.91971e-05;35.1293;24.4018
39600;8.86394e-05;8.87444e-05;32.2864;24.322
43200;8.82486e-05;8.83529e-05;29.7271;24.2425
46800;8.79073e-05;8.8011e-05;27.4188;24.1632
50400;8.76069e-05;8.771e-05;25.3385;24.0843
54000;8.73407e-05;8.74433e-05;23.4599;24.0056
57600;8.71037e-05;8.72059e-05;21.7594;23.9271
61200;8.68919e-05;8.69936e-05;20.2311;23.8488
64800;8.6702e-05;8.68033e-05;18.8481;23.7707
68400;8.65314e-05;8.66325e-05;17.5977;23.6927
72000;8.6378e-05;8.64787e-05;16.4692;23.6149
75600;8.62399e-05;8.63403e-05;15.4515;23.5372
79200;8.61153e-05;8.62155e-05;14.5313;23.4596
82800;8.60029e-05;8.61028e-05;13.6984;23.3821
86400;8.59013e-05;8.6001e-05;12.9484;23.3047
90000;8.58095e-05;8.5909e-05;12.2732;23.2274
93600;8.57265e-05;8.58259e-05;11.6575;23.1501
97200;8.56514e-05;8.57506e-05;11.104;23.073
100800;8.55834e-05;8.56824e-05;10.6077;22.9959
104400;8.55217e-05;8.56206e-05;10.16;22.9188
108000;8.54659e-05;8.55646e-05;9.75246;22.8418
111600;8.54152e-05;8.55138e-05;9.38124;22.7648
115200;8.53691e-05;8.54677e-05;9.05274;22.6879
118800;8.53272e-05;8.54257e-05;8.75246;22.611
122400;8.52891e-05;8.53875e-05;8.48232;22.5342
126000;8.52544e-05;8.53527e-05;8.23888;22.4574
129600;8.52228e-05;8.5321e-05;8.02295;22.3806
133200;8.51939e-05;8.5292e-05;7.81764;22.3038
136800;8.51674e-05;8.52655e-05;7.64141;22.2271
140400;8.51431e-05;8.52412e-05;7.47942;22.1504
144000;8.51209e-05;8.52188e-05;7.32916;22.0737
147600;8.51004e-05;8.51983e-05;7.20022;21.997
151200;8.50816e-05;8.51794e-05;7.08184;21.9203
154800;8.50642e-05;8.5162e-05;6.97574;21.8437
158400;8.50482e-05;8.51459e-05;6.87837;21.767
162000;8.50333e-05;8.5131e-05;6.79318;21.6904
165600;8.50195e-05;8.51171e-05;6.71088;21.6138
169200;8.50065e-05;8.51042e-05;6.64374;21.5372
172800;8.49944e-05;8.5092e-05;6.57804;21.4606
176400;8.49831e-05;8.50807e-05;6.52406;21.3841
180000;8.49725e-05;8.507e-05;6.47323;21.3075
183600;8.49624e-05;8.50598e-05;6.4269;21.2309
187200;8.49528e-05;8.50502e-05;6.3874;21.1544
190800;8.49437e-05;8.50411e-05;6.35078;21.0779
194400;8.49349e-05;8.50323e-05;6.31614;21.0013
198000;8.49266e-05;8.50239e-05;6.28631;20.9248
201600;8.49186e-05;8.50159e-05;6.25728;20.8483
205200;8.49109e-05;8.50082e-05;6.23666;20.7718
208800;8.49034e-05;8.50007e-05;6.21585;20.6953
212400;8.48962e-05;8.49934e-05;6.19709;20.6188
216000;8.48892e-05;8.49864e-05;6.18083;20.5423
219600;8.48823e-05;8.49794e-05;6.1597;20.4658
223200;8.48755e-05;8.49727e-05;6.1556;20.3894
226800;8.48689e-05;8.49661e-05;6.14355;20.3129
230400;8.48624e-05;8.49595e-05;6.1335;20.2364
234000;8.4856e-05;8.49531e-05;6.12523;20.16
237600;8.48496e-05;8.49467e-05;6.11601;20.0835
241200;8.48433e-05;8.49403e-05;6.1125;20.0071
244800;8.4837e-05;8.4934e-05;6.10457;19.9306
248400;8.48307e-05;8.49276e-05;6.09795;19.8542
252000;8.48244e-05;8.49213e-05;6.10045;19.7778
255600;8.48181e-05;8.4915e-05;6.09676;19.7013
259200;8.48118e-05;8.49087e-05;6.09448;19.6249
262800;8.48055e-05;8.49024e-05;6.09553;19.5485
266400;8.47992e-05;8.4896e-05;6.09177;19.4721
270000;8.47928e-05;8.48896e-05;6.09077;19.3957
273600;8.47863e-05;8.48831e-05;6.09331;19.3193
277200;8.47798e-05;8.48766e-05;6.09056;19.2429
280800;8.47732e-05;8.487e-05;6.09208;19.1665
284400;8.47665e-05;8.48633e-05;6.09152;19.0902
288000;8.47598e-05;8.48565e-05;6.09458;19.0138
291600;8.47529e-05;8.48496e-05;6.09312;18.9374
295200;8.47459e-05;8.48426e-05;6.09409;18.8611
298800;8.47388e-05;8.48355e-05;6.09587;18.7847
302400;8.47316e-05;8.48282e-05;6.09607;18.7084
306000;8.47243e-05;8.48209e-05;6.09903;18.632
309600;8.47168e-05;8.48133e-05;6.09796;18.5557
313200;8.47091e-05;8.48057e-05;6.0983;18.4794
316800;8.47014e-05;8.47979e-05;6.09878;18.4031
320400;8.46935e-05;8.479e-05;6.0991;18.3267
324000;8.46854e-05;8.47819e-05;6.10034;18.2504
327600;8.46771e-05;8.47735e-05;6.09918;18.1741
331200;8.46686e-05;8.4765e-05;6.09548;18.0979
334800;8.46598e-05;8.47562e-05;6.09794;18.0216
338400;8.46508e-05;8.47471e-05;6.09614;17.9453
342000;8.46414e-05;8.47377e-05;6.09269;17.869
345600;8.46315e-05;8.47278e-05;6.0891;17.7928
349200;8.46211e-05;8.47174e-05;6.08361;17.7165
352800;8.461e-05;8.47063e-05;6.076;17.6403
356400;8.45979e-05;8.46941e-05;6.06599;17.5641
360000;8.45843e-05;8.46804e-05;6.05129;17.4879
363600;8.43823e-05;8.44777e-05;5.78994;17.4118
367200;8.36181e-05;8.3712e-05;5.21443;17.3365
370800;8.32817e-05;8.33753e-05;5.17767;17.2615
374400;8.30647e-05;8.31583e-05;5.18141;17.1866
378000;8.27488e-05;8.28418e-05;5.05752;17.1121
381600;8.25555e-05;8.26484e-05;5.07265;17.0377
385200;8.23372e-05;8.24299e-05;5.0374;16.9635
388800;8.19056e-05;8.19973e-05;4.67492;16.8897
392400;8.16236e-05;8.1715e-05;4.61478;16.8161
396000;8.1349e-05;8.144e-05;4.52078;16.7428
399600;8.11193e-05;8.12101e-05;4.49665;16.6698
403200;8.09149e-05;8.10054e-05;4.47279;16.5969
406800;8.07191e-05;8.08095e-05;4.45325;16.5241
410400;8.05304e-05;8.06205e-05;4.43721;16.4516
414000;8.03464e-05;8.04363e-05;4.44284;16.3792
417600;8.02246e-05;8.03145e-05;4.51515;16.3069
421200;8.00609e-05;8.01506e-05;4.49179;16.2348
424800;7.98763e-05;7.99656e-05;4.47255;16.1628
428400;7.96606e-05;7.97497e-05;4.4139;16.091
432000;7.92294e-05;7.93176e-05;4.21979;16.0196
435600;7.88827e-05;7.89705e-05;4.16596;15.9485
439200;7.86279e-05;7.87155e-05;4.20847;15.8777
442800;7.82028e-05;7.82897e-05;4.01345;15.8072
446400;7.73703e-05;7.74556e-05;3.53221;15.7375
450000;7.62811e-05;7.63648e-05;3.12387;15.6688
453600;7.57275e-05;7.58108e-05;3.1662;15.6006
457200;7.50062e-05;7.50884e-05;2.96091;15.533
460800;7.38684e-05;7.39487e-05;2.41454;15.4664
464400;7.24794e-05;7.25577e-05;1.90731;15.4011
468000;7.09984e-05;7.10745e-05;1.38748;15.3372
471600;6.97177e-05;6.97923e-05;1.13128;15.2744
475200;6.83841e-05;6.84567e-05;0.73462;15.2128
478800;6.64866e-05;6.65562e-05;-0.00664317;15.1528
482400;6.44576e-05;6.45245e-05;-0.620724;15.0948
486000;6.27685e-05;6.28335e-05;-0.876014;15.0382
489600;6.11168e-05;6.11798e-05;-1.2204;14.9832
493200;5.94038e-05;5.94646e-05;-1.59848;14.9296
496800;5.80679e-05;5.81274e-05;-1.58566;14.8773
500400;5.68803e-05;5.69387e-05;-1.58558;14.8261
504000;5.56758e-05;5.57329e-05;-1.67258;14.7759
507600;5.44509e-05;5.45066e-05;-1.71849;14.7269
511200;5.3378e-05;5.34326e-05;-1.71432;14.6788
514800;5.24537e-05;5.25076e-05;-1.58905;14.6315
518400;5.14723e-05;5.15251e-05;-1.5946;14.5852
522000;5.05235e-05;5.05751e-05;-1.66059;14.5396
525600;4.93968e-05;4.94472e-05;-1.70632;14.4951
529200;4.84587e-05;4.8508e-05;-1.69065;14.4515
532800;4.76429e-05;4.76915e-05;-1.59129;14.4086
536400;4.68048e-05;4.68525e-05;-1.57483;14.3664
540000;4.57203e-05;4.57663e-05;-1.83808;14.3252
543600;4.41727e-05;4.42165e-05;-2.21656;14.2854
547200;4.31356e-05;4.31786e-05;-2.11237;14.2465
550800;4.21744e-05;4.22165e-05;-2.03847;14.2085
554400;4.1368e-05;4.14094e-05;-1.91033;14.1713
558000;4.0555e-05;4.05956e-05;-1.85253;14.1347
561600;3.98071e-05;3.98471e-05;-1.73649;14.0989
565200;3.90889e-05;3.91282e-05;-1.6516;14.0637
568800;3.84379e-05;3.84766e-05;-1.55271;14.029
572400;3.77785e-05;3.78165e-05;-1.48483;13.995
576000;3.70867e-05;3.71239e-05;-1.48319;13.9616
579600;3.61458e-05;3.61817e-05;-1.69198;13.929
583200;3.53777e-05;3.54128e-05;-1.61199;13.8972
586800;3.46539e-05;3.46884e-05;-1.56534;13.8659
590400;3.39473e-05;3.39811e-05;-1.52107;13.8354
594000;3.31854e-05;3.32183e-05;-1.53495;13.8055
597600;3.25309e-05;3.25632e-05;-1.45894;13.7761
601200;3.18988e-05;3.19306e-05;-1.38012;13.7474
604800;3.12652e-05;3.12964e-05;-1.33935;13.7192
608400;3.06285e-05;3.06589e-05;-1.30169;13.6917
612000;3.00872e-05;3.01172e-05;-1.19713;13.6645
615600;2.96545e-05;2.96842e-05;-1.05091;13.6378
619200;2.91191e-05;2.91483e-05;-1.03115;13.6116
622800;2.86155e-05;2.86442e-05;-0.95329;13.5858
626400;2.81838e-05;2.82121e-05;-0.854351;13.5604
630000;2.76903e-05;2.77181e-05;-0.815808;13.5355
633600;2.71815e-05;2.72088e-05;-0.77321;13.511
637200;2.67073e-05;2.67342e-05;-0.723428;13.4869
640800;2.6265e-05;2.62915e-05;-0.657812;13.4633
644400;2.58768e-05;2.5903e-05;-0.573193;13.44
648000;2.55051e-05;2.5531e-05;-0.504649;13.417
651600;2.51296e-05;2.51551e-05;-0.444105;13.3943
655200;2.4839e-05;2.48643e-05;-0.328477;13.372
658800;2.44905e-05;2.45155e-05;-0.287877;13.3499
662400;2.41806e-05;2.42053e-05;-0.214588;13.3281
666000;2.38624e-05;2.38868e-05;-0.156846;13.3066
669600;2.34753e-05;2.34993e-05;-0.170535;13.2855
673200;2.3089e-05;2.31125e-05;-0.151404;13.2647
676800;2.27679e-05;2.27911e-05;-0.0942536;13.2442
680400;2.24726e-05;2.24956e-05;-0.0352442;13.2239
684000;2.22023e-05;2.22251e-05;0.0274355;13.2039
687600;2.19539e-05;2.19765e-05;0.093359;13.1841
691200;2.17191e-05;2.17415e-05;0.153333;13.1646
694800;2.14981e-05;2.15204e-05;0.210271;13.1452
698400;2.12652e-05;2.12872e-05;0.245082;13.126
702000;2.10099e-05;2.10317e-05;0.254558;13.1071
705600;2.07501e-05;2.07716e-05;0.28063;13.0884
709200;2.05402e-05;2.05616e-05;0.335339;13.0699
712800;2.03387e-05;2.03599e-05;0.372255;13.0516
716400;2.00857e-05;2.01067e-05;0.375407;13.0335
720000;1.98586e-05;1.98793e-05;0.400379;13.0156
723600;1.96267e-05;1.96472e-05;0.414148;12.9979
727200;1.93697e-05;1.939e-05;0.418276;12.9805
730800;1.90674e-05;1.90874e-05;0.450218;12.9633
734400;1.9008e-05;1.90279e-05;0.51278;12.9462
738000;1.87252e-05;1.87448e-05;0.452181;12.9293
741600;1.85235e-05;1.85429e-05;0.488625;12.9126
745200;1.83266e-05;1.83458e-05;0.50989;12.8961
748800;1.81477e-05;1.81668e-05;0.537473;12.8797
752400;1.79816e-05;1.80005e-05;0.566395;12.8635
756000;1.78378e-05;1.78566e-05;0.60475;12.8475
759600;1.77161e-05;1.77348e-05;0.642449;12.8315
763200;1.75191e-05;1.75376e-05;0.627481;12.8157
766800;1.73361e-05;1.73545e-05;0.638805;12.8001
770400;1.717e-05;1.71881e-05;0.651969;12.7846
774000;1.70036e-05;1.70216e-05;0.657848;12.7693
777600;1.68193e-05;1.68371e-05;0.651405;12.7542
781200;1.6654e-05;1.66716e-05;0.659552;12.7391
784800;1.64794e-05;1.64969e-05;0.660458;12.7243
788400;1.63225e-05;1.63398e-05;0.673641;12.7096
792000;1.61754e-05;1.61926e-05;0.687335;12.695
795600;1.60376e-05;1.60547e-05;0.702208;12.6806
799200;1.591e-05;1.59269e-05;0.720165;12.6662
