Time;TotalMassChange;WaterMassChange;IntEnergyChange;WaterMass
3600;0.000124271;0.000124424;171.231;24.9261
7200;0.000103228;0.000103357;94.1676;24.833
10800;9.80223e-05;9.81427e-05;74.6455;24.7447
14400;9.52486e-05;9.53646e-05;63.9655;24.6589
18000;9.34463e-05;9.35594e-05;56.6259;24.5747
21600;9.21536e-05;9.22646e-05;50.916;24.4916
25200;9.11673e-05;9.12767e-05;46.1485;24.4095
28800;9.03827e-05;9.04907e-05;42.0139;24.328
32400;8.97393e-05;8.98462e-05;38.3606;24.2472
36000;8.91996e-05;8.93056e-05;35.1003;24.1668
39600;8.87392e-05;8.88443e-05;32.1779;24.0868
43200;8.83413e-05;8.84457e-05;29.5561;24.0072
46800;8.79941e-05;8.80978e-05;27.1999;23.928
50400;8.76885e-05;8.77917e-05;25.0776;23.8489
54000;8.7418e-05;8.75207e-05;23.1666;23.7702
57600;8.71781e-05;8.72803e-05;21.4566;23.6916
61200;8.69637e-05;8.70655e-05;19.9092;23.6133
64800;8.67713e-05;8.68727e-05;18.5066;23.5351
