Time;TotalMassChange;WaterMassChange;IntEnergyChange;WaterMass
3600;0.000124074;0.000124227;170.608;24.9262
7200;0.000103218;0.000103346;94.2159;24.8332
10800;9.80173e-05;9.81377e-05;74.7146;24.7449
14400;9.52355e-05;9.53515e-05;64.0064;24.6591
18000;9.3431e-05;9.35441e-05;56.6587;24.5749
21600;9.2138e-05;9.2249e-05;50.9503;24.4919
25200;9.11512e-05;9.12605e-05;46.1817;24.4097
28800;9.03661e-05;9.04741e-05;42.0466;24.3283
32400;8.97224e-05;8.98293e-05;38.393;24.2475
36000;8.91825e-05;8.92884e-05;35.1331;24.1671
39600;8.8722e-05;8.88271e-05;32.2127;24.0872
43200;8.8324e-05;8.84284e-05;29.5893;24.0076
46800;8.79766e-05;8.80803e-05;27.2331;23.9283
50400;8.76718e-05;8.7775e-05;25.1131;23.8493
