Time;TotalMassChange;WaterMassChange;IntEnergyChange;WaterMass
3600;0.000124146;0.000124298;170.667;24.9262
7200;0.00010332;0.000103449;94.3743;24.8331
10800;9.81054e-05;9.82259e-05;74.8221;24.7447
14400;9.53258e-05;9.5442e-05;64.1202;24.6588
18000;9.35206e-05;9.36338e-05;56.7706;24.5745
21600;9.22254e-05;9.23366e-05;51.0518;24.4914
25200;9.12377e-05;9.13472e-05;46.2784;24.4092
28800;9.04529e-05;9.05611e-05;42.1417;24.3277
32400;8.98102e-05;8.99173e-05;38.4899;24.2467
36000;8.92711e-05;8.93772e-05;35.2308;24.1663
39600;8.88111e-05;8.89164e-05;32.3093;24.0863
43200;8.84137e-05;8.85182e-05;29.6864;24.0066
46800;8.80667e-05;8.81706e-05;27.323;23.9273
50400;8.77618e-05;8.78651e-05;25.201;23.8482
54000;8.74922e-05;8.7595e-05;23.2931;23.7693
57600;8.72525e-05;8.73548e-05;21.5723;23.6907
61200;8.70386e-05;8.71405e-05;20.0224;23.6123
64800;8.68476e-05;8.69491e-05;18.631;23.534
68400;8.66764e-05;8.67776e-05;17.3753;23.4559
72000;8.65224e-05;8.66233e-05;16.2386;23.378
75600;8.63843e-05;8.6485e-05;15.2253;23.3002
79200;8.62599e-05;8.63602e-05;14.3058;23.2224
82800;8.61483e-05;8.62484e-05;13.4802;23.1448
86400;8.60482e-05;8.61482e-05;12.7422;23.0673
