Time;TotalMassChange;WaterMassChange;IntEnergyChange;WaterMass
0.000958869;0.000464446;0.000406935;2137.35;25.038
0.00737512;0.000319247;0.000403285;1368.33;25.038
0.056997;0.00041647;0.000403697;661.896;25.038
0.381394;0.000402588;0.000399356;426.723;25.038
2.62681;0.00039076;0.000389538;385.487;25.0378
20.8954;0.00036438;0.00036412;354.456;25.0361
169.528;0.000310277;0.000310538;286.171;25.0246
1216.14;0.000239327;0.000239617;190.473;24.9619
3016.14;0.000199907;0.000200151;134.63;24.8718
4816.14;0.00018141;0.000181629;107.591;24.7901
6616.14;0.000171584;0.00017179;92.991;24.7128
8416.14;0.000165215;0.000165413;83.4278;24.6383
10216.1;0.000160647;0.000160839;76.4941;24.566
12016.1;0.00015716;0.000157348;71.121;24.4952
13816.1;0.000154384;0.000154567;66.7499;24.4256
15616.1;0.000152104;0.000152285;63.0584;24.3571
17416.1;0.00015019;0.000150368;59.8483;24.2894
19216.1;0.000148551;0.000148727;56.9867;24.2225
21016.1;0.000147127;0.000147302;54.3951;24.1562
22816.1;0.000145875;0.000146048;52.0134;24.0905
24616.1;0.000144762;0.000144933;49.803;24.0253
26416.1;0.000143765;0.000143935;47.7381;23.9605
28216.1;0.000142864;0.000143033;45.7989;23.8961
30016.1;0.000142046;0.000142214;43.9721;23.8321
31816.1;0.000141299;0.000141465;42.246;23.7685
33616.1;0.000140612;0.000140778;40.6118;23.7051
35416.1;0.000139979;0.000140143;39.0618;23.642
37216.1;0.000139392;0.000139555;37.5911;23.5792
39016.1;0.000138846;0.000139009;36.1942;23.5167
40816.1;0.000138338;0.0001385;34.8671;23.4544
42616.1;0.000137863;0.000138024;33.6065;23.3923
43200;0.00013757;0.000137731;32.8203;23.3722
44280;0.000137363;0.000137524;32.2606;23.335
46080;0.000137031;0.000137191;31.3532;23.2733
47880;0.000136637;0.000136796;30.2658;23.2117
49680;0.000136266;0.000136425;29.2324;23.1503
51480;0.000135917;0.000136075;28.2506;23.0891
53280;0.000135588;0.000135746;27.3176;23.028
55080;0.000135276;0.000135434;26.4322;22.9671
56880;0.000134982;0.000135139;25.592;22.9063
58680;0.000134703;0.00013486;24.7827;22.8456
60480;0.000134439;0.000134596;24.019;22.785
62280;0.000134189;0.000134345;23.2933;22.7245
64080;0.000133952;0.000134108;22.6028;22.6642
65880;0.000133727;0.000133882;21.9458;22.604
67680;0.000133513;0.000133668;21.3217;22.5438
69480;0.00013331;0.000133464;20.7247;22.4837
71280;0.000133117;0.000133271;20.1626;22.4238
73080;0.000132933;0.000133087;19.6262;22.3639
74880;0.000132759;0.000132913;19.1143;22.3041
76680;0.000132593;0.000132747;18.6279;22.2443
78480;0.000132435;0.000132589;18.1627;22.1847
80240;0.000132287;0.000132441;17.7318;22.1264
82040;0.000132146;0.000132299;17.3167;22.0669
83840;0.000132011;0.000132164;16.9207;22.0074
85541.8;0.000131886;0.000132038;16.5548;21.9512
86400;0.000131798;0.000131951;16.2966;21.9229
87120;0.000131744;0.000131896;16.1462;21.8992
88920;0.000131662;0.000131814;15.9002;21.8398
90680;0.000131551;0.000131703;15.5717;21.7819
92480;0.000131444;0.000131596;15.2699;21.7227
94280;0.000131342;0.000131494;14.9739;21.6635
96040;0.000131245;0.000131397;14.6994;21.6057
97840;0.000131153;0.000131304;14.4267;21.5466
99640;0.000131064;0.000131215;14.1839;21.4876
101440;0.000130979;0.00013113;13.9284;21.4285
103240;0.000130898;0.000131048;13.6855;21.3696
105040;0.00013082;0.000130971;13.4855;21.3106
106840;0.000130746;0.000130896;13.2678;21.2517
108640;0.000130675;0.000130825;13.0685;21.1929
110440;0.000130607;0.000130757;12.8831;21.134
112240;0.000130542;0.000130692;12.7007;21.0752
114040;0.00013048;0.00013063;12.5245;21.0164
115840;0.000130421;0.000130571;12.3683;20.9577
117640;0.000130364;0.000130514;12.21;20.8989
119440;0.000130309;0.000130459;12.0674;20.8402
121240;0.000130257;0.000130407;11.9158;20.7815
123040;0.000130207;0.000130357;11.7917;20.7229
124840;0.000130159;0.000130309;11.6707;20.6642
126640;0.000130113;0.000130263;11.5512;20.6056
128440;0.000130069;0.000130219;11.4364;20.547
129600;0.000130035;0.000130184;11.3466;20.5093
129960;0.000130017;0.000130166;11.2933;20.4976
131760;0.000129992;0.000130142;11.2408;20.439
133560;0.000129953;0.000130102;11.1444;20.3805
135360;0.000129915;0.000130064;11.0496;20.3219
137160;0.000129878;0.000130027;10.9542;20.2634
138960;0.000129843;0.000129992;10.8771;20.2049
140760;0.000129808;0.000129957;10.7959;20.1464
142560;0.000129775;0.000129924;10.7191;20.088
144360;0.000129743;0.000129892;10.6407;20.0295
146160;0.000129712;0.000129861;10.5775;19.9711
147960;0.000129682;0.00012983;10.5112;19.9127
149760;0.000129652;0.000129801;10.4434;19.8542
151560;0.000129624;0.000129772;10.39;19.7959
153360;0.000129596;0.000129744;10.333;19.7375
155160;0.000129569;0.000129717;10.2788;19.6791
156960;0.000129543;0.000129691;10.2269;19.6207
158760;0.000129517;0.000129665;10.1787;19.5624
160560;0.000129492;0.00012964;10.1322;19.504
162360;0.000129467;0.000129615;10.0881;19.4457
164160;0.000129443;0.000129591;10.0485;19.3874
165960;0.00012942;0.000129568;10.0074;19.3291
167760;0.000129397;0.000129545;9.96811;19.2708
169560;0.000129374;0.000129522;9.93153;19.2125
171360;0.000129352;0.000129499;9.90334;19.1542
172800;0.000129332;0.00012948;9.86719;19.1076
173160;0.000129321;0.000129469;9.84849;19.096
174960;0.000129308;0.000129456;9.83782;19.0377
176760;0.000129287;0.000129435;9.80237;18.9795
178560;0.000129267;0.000129415;9.77547;18.9212
180360;0.000129247;0.000129394;9.74982;18.863
182160;0.000129227;0.000129374;9.72535;18.8048
183960;0.000129207;0.000129354;9.70204;18.7466
185760;0.000129187;0.000129335;9.67987;18.6884
187560;0.000129168;0.000129315;9.65873;18.6302
189360;0.000129148;0.000129296;9.63866;18.572
191160;0.000129129;0.000129277;9.61954;18.5138
192960;0.00012911;0.000129257;9.60146;18.4557
194760;0.000129091;0.000129238;9.58377;18.3975
196560;0.000129072;0.000129219;9.5673;18.3394
198360;0.000129053;0.0001292;9.55206;18.2812
200160;0.000129034;0.000129181;9.53767;18.2231
201960;0.000129015;0.000129162;9.52296;18.165
203760;0.000128996;0.000129143;9.50895;18.1069
205560;0.000128977;0.000129124;9.49586;18.0487
207360;0.000128958;0.000129105;9.48254;17.9907
209160;0.000128939;0.000129086;9.47181;17.9326
210960;0.00012892;0.000129067;9.45992;17.8745
212760;0.000128901;0.000129048;9.4494;17.8164
214560;0.000128882;0.000129029;9.43896;17.7583
216000;0.000128865;0.000129011;9.42878;17.7119
216360;0.000128855;0.000129001;9.42391;17.7003
218160;0.000128843;0.00012899;9.41835;17.6422
219960;0.000128824;0.00012897;9.40975;17.5842
221760;0.000128804;0.000128951;9.40187;17.5262
223560;0.000128784;0.000128931;9.39279;17.4682
225360;0.000128764;0.000128911;9.38601;17.4102
227160;0.000128744;0.000128891;9.37437;17.3522
228960;0.000128724;0.00012887;9.36999;17.2942
230760;0.000128704;0.00012885;9.36011;17.2362
232560;0.000128683;0.000128829;9.35809;17.1782
234360;0.000128662;0.000128808;9.34405;17.1202
236160;0.000128641;0.000128787;9.34047;17.0623
237960;0.00012862;0.000128766;9.33452;17.0043
239760;0.000128598;0.000128744;9.31849;16.9464
241560;0.000128577;0.000128723;9.31801;16.8885
243360;0.000128555;0.000128701;9.31187;16.8306
245160;0.000128534;0.000128679;9.30711;16.7727
246960;0.000128512;0.000128657;9.30019;16.7148
248760;0.000128489;0.000128635;9.29589;16.6569
250560;0.000128467;0.000128612;9.2891;16.599
252360;0.000128443;0.000128589;9.28423;16.5411
254160;0.00012842;0.000128565;9.27674;16.4833
255960;0.000128396;0.000128541;9.27114;16.4254
257760;0.000128371;0.000128516;9.26687;16.3676
259200;0.000128348;0.000128493;9.25728;16.3214
259560;0.000128335;0.000128481;9.25394;16.3098
261360;0.00012832;0.000128465;9.24776;16.252
263160;0.000128293;0.000128438;9.24004;16.1942
264960;0.000128265;0.000128411;9.23021;16.1364
266760;0.000128237;0.000128382;9.21999;16.0786
268560;0.000128208;0.000128353;9.20862;16.0209
270360;0.000128177;0.000128322;9.19622;15.9631
272160;0.000128146;0.00012829;9.1823;15.9054
273960;0.000128112;0.000128257;9.16637;15.8477
275760;0.000128077;0.000128222;9.14807;15.79
277560;0.00012804;0.000128184;9.12668;15.7323
279360;0.000127999;0.000128143;9.10117;15.6746
281160;0.000127954;0.000128099;9.06956;15.617
282960;0.0001279;0.000128044;9.02395;15.5594
283637;0.000127841;0.000127985;8.96245;15.5377
283740;0.000127559;0.000127702;8.70957;15.5344
283834;0.000127211;0.000127354;8.44745;15.5314
284009;0.000126698;0.000126839;8.09244;15.5259
284509;0.000125629;0.000125768;7.48616;15.5102
286070;0.000122977;0.000123112;6.29929;15.4621
287870;0.000119166;0.000119295;4.77751;15.4084
289670;0.000115367;0.00011549;3.47913;15.3565
291470;0.000111899;0.000112018;2.43071;15.3061
293270;0.000108688;0.000108802;1.54811;15.2571
295070;0.000105701;0.000105811;0.79303;15.2095
296870;0.000102892;0.000102999;0.128008;15.1631
298670;9.99658e-05;0.000100069;-0.640568;15.1181
300470;9.71167e-05;9.7216e-05;-1.34266;15.0744
302270;9.44647e-05;9.45607e-05;-1.91439;15.0318
302400;9.32616e-05;9.33562e-05;-2.15718;15.0288
303840;9.20359e-05;9.21291e-05;-2.39004;14.9956
305640;8.99184e-05;9.00091e-05;-2.76542;14.9551
307440;8.77007e-05;8.77889e-05;-3.1187;14.9156
309240;8.56352e-05;8.57211e-05;-3.40175;14.877
311040;8.37937e-05;8.38777e-05;-3.57517;14.8393
312840;8.28404e-05;8.29242e-05;-3.28347;14.8019
314640;8.09511e-05;8.10324e-05;-3.70048;14.7655
316440;7.90782e-05;7.91573e-05;-3.92487;14.7299
318240;7.72826e-05;7.73597e-05;-4.14342;14.6951
320040;7.55847e-05;7.56599e-05;-4.29382;14.661
321840;7.39755e-05;7.4049e-05;-4.40402;14.6277
323640;7.24392e-05;7.2511e-05;-4.4849;14.5951
325440;7.09716e-05;7.10418e-05;-4.53967;14.5631
327240;6.95694e-05;6.96382e-05;-4.57081;14.5317
329040;6.82307e-05;6.82981e-05;-4.58003;14.501
330840;6.6955e-05;6.70211e-05;-4.56772;14.4709
332640;6.57466e-05;6.58115e-05;-4.531;14.4412
334440;6.46289e-05;6.46928e-05;-4.45271;14.4121
336240;6.36183e-05;6.36813e-05;-4.33659;14.3835
338040;6.26538e-05;6.27159e-05;-4.23607;14.3552
339840;6.17113e-05;6.17725e-05;-4.13688;14.3274
341640;6.10841e-05;6.1145e-05;-3.85953;14.2999
343440;6.05306e-05;6.05912e-05;-3.65181;14.2727
345240;5.9587e-05;5.96465e-05;-3.64113;14.2458
345600;5.89227e-05;5.89814e-05;-3.67531;14.2405
347040;5.83536e-05;5.84116e-05;-3.69731;14.2195
348840;5.75489e-05;5.76061e-05;-3.60188;14.1936
350640;5.66022e-05;5.66584e-05;-3.57395;14.1681
352440;5.57031e-05;5.57584e-05;-3.50654;14.143
354240;5.48396e-05;5.48941e-05;-3.4316;14.1183
356040;5.40058e-05;5.40594e-05;-3.35151;14.094
357840;5.32004e-05;5.32532e-05;-3.26684;14.07
359640;5.24226e-05;5.24747e-05;-3.17819;14.0464
361440;5.16718e-05;5.17232e-05;-3.08589;14.0231
363240;5.09479e-05;5.09985e-05;-2.9901;14.0001
365040;5.0251e-05;5.0301e-05;-2.89063;13.9775
366840;4.95825e-05;4.96319e-05;-2.78686;13.9552
368640;4.89456e-05;4.89944e-05;-2.67688;13.9331
370440;4.83492e-05;4.83975e-05;-2.55535;13.9114
372240;4.78229e-05;4.78708e-05;-2.40434;13.8898
374040;4.74304e-05;4.74781e-05;-2.19581;13.8684
375840;4.7144e-05;4.71916e-05;-1.97985;13.8472
377640;4.67665e-05;4.68138e-05;-1.85011;13.8261
379440;4.62704e-05;4.63173e-05;-1.76691;13.8053
381240;4.56994e-05;4.57456e-05;-1.71572;13.7847
383040;4.51311e-05;4.51768e-05;-1.66085;13.7644
384840;4.45308e-05;4.45758e-05;-1.61744;13.7443
386640;4.40122e-05;4.40567e-05;-1.52847;13.7245
388440;4.34492e-05;4.34931e-05;-1.49166;13.7049
388800;4.31287e-05;4.31723e-05;-1.45225;13.701
390240;4.28689e-05;4.29122e-05;-1.41886;13.6856
392040;4.24103e-05;4.24532e-05;-1.35867;13.6665
393840;4.19142e-05;4.19566e-05;-1.29159;13.6476
395640;4.14321e-05;4.1474e-05;-1.22426;13.6289
397440;4.09638e-05;4.10053e-05;-1.15667;13.6105
399240;4.05093e-05;4.05503e-05;-1.08877;13.5922
401040;4.00688e-05;4.01095e-05;-1.02038;13.5742
402840;3.96429e-05;3.96832e-05;-0.951205;13.5563
404640;3.92327e-05;3.92726e-05;-0.880603;13.5387
406440;3.88404e-05;3.88799e-05;-0.807394;13.5212
408240;3.84714e-05;3.85106e-05;-0.728593;13.5038
410040;3.81419e-05;3.81808e-05;-0.635027;13.4867
411840;3.78764e-05;3.79152e-05;-0.516058;13.4696
413640;3.76737e-05;3.77124e-05;-0.382764;13.4526
415440;3.74525e-05;3.74911e-05;-0.28516;13.4358
417240;3.72436e-05;3.72821e-05;-0.184867;13.419
419040;3.69318e-05;3.697e-05;-0.146345;13.4023
420840;3.65681e-05;3.66059e-05;-0.120803;13.3859
422640;3.62267e-05;3.62641e-05;-0.0815247;13.3696
424440;3.58756e-05;3.59127e-05;-0.0501341;13.3534
426240;3.5545e-05;3.55818e-05;-0.00668328;13.3374
428040;3.51794e-05;3.52158e-05;0.0119604;13.3215
429840;3.48674e-05;3.49035e-05;0.06424;13.3058
431640;3.45627e-05;3.45985e-05;0.109355;13.2903
432000;3.43527e-05;3.43882e-05;0.109538;13.2872
433440;3.41834e-05;3.42188e-05;0.122145;13.2748
435240;3.38829e-05;3.3918e-05;0.144758;13.2596
437040;3.35671e-05;3.36019e-05;0.175773;13.2445
438840;3.32597e-05;3.32942e-05;0.20696;13.2295
440640;3.296e-05;3.29941e-05;0.238202;13.2146
442440;3.26679e-05;3.27018e-05;0.269616;13.1999
444240;3.23837e-05;3.24173e-05;0.301326;13.1853
446040;3.21076e-05;3.21409e-05;0.333523;13.1709
447840;3.18403e-05;3.18734e-05;0.366546;13.1565
449640;3.15829e-05;3.16158e-05;0.400982;13.1423
451440;3.13377e-05;3.13703e-05;0.438003;13.1282
453240;3.11097e-05;3.11421e-05;0.480259;13.1142
455040;3.09077e-05;3.09399e-05;0.531828;13.1002
456840;3.07351e-05;3.07673e-05;0.592323;13.0864
458640;3.05963e-05;3.06284e-05;0.66262;13.0726
460440;3.04471e-05;3.04791e-05;0.710768;13.0589
462240;3.03117e-05;3.03436e-05;0.766919;13.0452
464040;3.01774e-05;3.02092e-05;0.817117;13.0316
465840;2.999e-05;3.00217e-05;0.835343;13.0181
467640;2.97516e-05;2.9783e-05;0.833662;13.0047
469440;2.95398e-05;2.9571e-05;0.853137;12.9914
471240;2.93139e-05;2.93448e-05;0.861029;12.9782
473040;2.91034e-05;2.91341e-05;0.877517;12.9651
474840;2.88759e-05;2.89064e-05;0.884109;12.9521
475200;2.87387e-05;2.8769e-05;0.88695;12.9495
476640;2.86384e-05;2.86687e-05;0.89815;12.9392
478440;2.84373e-05;2.84673e-05;0.903214;12.9264
480240;2.82064e-05;2.82361e-05;0.905742;12.9137
482040;2.80078e-05;2.80374e-05;0.926231;12.9011
483840;2.78156e-05;2.7845e-05;0.945164;12.8885
485640;2.7617e-05;2.76461e-05;0.953622;12.8761
487440;2.74011e-05;2.74301e-05;0.951208;12.8637
489240;2.7203e-05;2.72317e-05;0.961232;12.8515
491040;2.70004e-05;2.7029e-05;0.966065;12.8393
492840;2.68007e-05;2.6829e-05;0.971788;12.8273
494640;2.661e-05;2.66382e-05;0.980638;12.8153
496440;2.64243e-05;2.64522e-05;0.990039;12.8034
498240;2.62434e-05;2.62712e-05;1.00005;12.7915
500040;2.60678e-05;2.60954e-05;1.01086;12.7798
501840;2.58982e-05;2.59256e-05;1.0228;12.7681
503640;2.57356e-05;2.57629e-05;1.0364;12.7565
505440;2.55821e-05;2.56092e-05;1.05266;12.745
507240;2.54411e-05;2.54681e-05;1.07313;12.7336
509040;2.53148e-05;2.53418e-05;1.09824;12.7222
510840;2.52038e-05;2.52307e-05;1.12747;12.7108
512640;2.51097e-05;2.51365e-05;1.16107;12.6995
514440;2.50231e-05;2.50498e-05;1.19103;12.6882
516240;2.49236e-05;2.49502e-05;1.20991;12.677
518040;2.4836e-05;2.48626e-05;1.23647;12.6658
518400;2.47831e-05;2.48097e-05;1.24908;12.6636
519840;2.47339e-05;2.47604e-05;1.25743;12.6547
521640;2.46345e-05;2.46609e-05;1.26418;12.6436
523440;2.44935e-05;2.45197e-05;1.26129;12.6325
525240;2.43449e-05;2.4371e-05;1.25874;12.6216
527040;2.42008e-05;2.42267e-05;1.25883;12.6107
528840;2.40706e-05;2.40964e-05;1.26507;12.5998
530640;2.39218e-05;2.39474e-05;1.26189;12.589
532440;2.37851e-05;2.38106e-05;1.26354;12.5783
534240;2.36349e-05;2.36602e-05;1.25947;12.5677
536040;2.34863e-05;2.35114e-05;1.25421;12.5571
537840;2.33489e-05;2.33739e-05;1.25676;12.5466
539640;2.31973e-05;2.32221e-05;1.25017;12.5361
541440;2.3044e-05;2.30687e-05;1.24191;12.5257
543240;2.29105e-05;2.2935e-05;1.24664;12.5154
545040;2.27824e-05;2.28069e-05;1.25134;12.5052
546840;2.26572e-05;2.26815e-05;1.25554;12.495
548640;2.2534e-05;2.25582e-05;1.25939;12.4848
550440;2.23917e-05;2.24157e-05;1.24605;12.4747
552240;2.22584e-05;2.22823e-05;1.24407;12.4647
554040;2.21313e-05;2.21551e-05;1.24403;12.4547
555840;2.2005e-05;2.20286e-05;1.243;12.4448
557640;2.18722e-05;2.18957e-05;1.23794;12.4349
559440;2.17486e-05;2.17719e-05;1.23759;12.4252
561240;2.16288e-05;2.1652e-05;1.23812;12.4154
561600;2.15583e-05;2.15814e-05;1.23874;12.4135
563040;2.15007e-05;2.15238e-05;1.2395;12.4057
564840;2.13993e-05;2.14223e-05;1.2414;12.3961
566640;2.12905e-05;2.13134e-05;1.24453;12.3865
568440;2.11867e-05;2.12095e-05;1.24911;12.3769
570240;2.10892e-05;2.11119e-05;1.25571;12.3674
572040;2.09995e-05;2.10221e-05;1.26495;12.358
573840;2.09183e-05;2.09408e-05;1.27661;12.3486
575640;2.08445e-05;2.0867e-05;1.28969;12.3392
577440;2.0778e-05;2.08004e-05;1.30412;12.3298
579240;2.07202e-05;2.07426e-05;1.32051;12.3205
581040;2.06701e-05;2.06924e-05;1.33758;12.3112
582840;2.0608e-05;2.06303e-05;1.3446;12.3019
584640;2.05414e-05;2.05636e-05;1.35034;12.2926
586440;2.04807e-05;2.05029e-05;1.35829;12.2834
588240;2.04104e-05;2.04325e-05;1.36184;12.2742
590040;2.03441e-05;2.03662e-05;1.36844;12.265
591840;2.02581e-05;2.02801e-05;1.36481;12.2559
593640;2.01643e-05;2.01862e-05;1.35922;12.2468
595440;2.00719e-05;2.00936e-05;1.35568;12.2378
597240;1.99763e-05;1.9998e-05;1.35077;12.2288
599040;1.98967e-05;1.99183e-05;1.35394;12.2198
600840;1.97909e-05;1.98124e-05;1.34236;12.2109
602640;1.97058e-05;1.97272e-05;1.34338;12.202
604440;1.96052e-05;1.96264e-05;1.33436;12.1932
604800;1.9543e-05;1.95642e-05;1.32973;12.1914
606240;1.9499e-05;1.95201e-05;1.32968;12.1844
608040;1.94054e-05;1.94264e-05;1.31971;12.1757
609840;1.93132e-05;1.93341e-05;1.31754;12.167
611640;1.92101e-05;1.92309e-05;1.30899;12.1583
613440;1.91086e-05;1.91293e-05;1.29966;12.1497
615240;1.90112e-05;1.90318e-05;1.29494;12.1411
617040;1.89232e-05;1.89437e-05;1.29451;12.1326
618840;1.88373e-05;1.88577e-05;1.29367;12.1241
620640;1.87526e-05;1.8773e-05;1.29257;12.1157
622440;1.86693e-05;1.86895e-05;1.29141;12.1073
624240;1.85872e-05;1.86073e-05;1.29032;12.0989
626040;1.8496e-05;1.85161e-05;1.28033;12.0906
627840;1.84027e-05;1.84226e-05;1.27221;12.0823
629640;1.83173e-05;1.83372e-05;1.26916;12.074
631440;1.82332e-05;1.82529e-05;1.2658;12.0658
633240;1.81427e-05;1.81623e-05;1.25856;12.0576
635040;1.8059e-05;1.80786e-05;1.25527;12.0495
636840;1.79782e-05;1.79977e-05;1.25286;12.0414
638640;1.78996e-05;1.7919e-05;1.25095;12.0333
640440;1.78231e-05;1.78424e-05;1.24959;12.0253
642240;1.7749e-05;1.77682e-05;1.24888;12.0173
644040;1.76776e-05;1.76968e-05;1.24895;12.0094
645840;1.76093e-05;1.76284e-05;1.24993;12.0014
647640;1.75445e-05;1.75635e-05;1.25188;11.9935
648000;1.75071e-05;1.75261e-05;1.25343;11.9919
649440;1.74772e-05;1.74961e-05;1.25504;11.9856
651240;1.74257e-05;1.74447e-05;1.25858;11.9778
653040;1.73725e-05;1.73914e-05;1.26343;11.97
654840;1.73232e-05;1.73421e-05;1.26909;11.9622
656640;1.7278e-05;1.72968e-05;1.27557;11.9544
658440;1.72374e-05;1.72562e-05;1.28311;11.9466
660240;1.72017e-05;1.72204e-05;1.29169;11.9389
662040;1.71686e-05;1.71873e-05;1.29941;11.9311
663840;1.71323e-05;1.7151e-05;1.30432;11.9234
665640;1.70889e-05;1.71076e-05;1.30499;11.9157
667440;1.70423e-05;1.70609e-05;1.30562;11.908
669240;1.70074e-05;1.7026e-05;1.31287;11.9004
671040;1.69644e-05;1.69829e-05;1.31358;11.8927
672840;1.69227e-05;1.69412e-05;1.31627;11.8851
674640;1.687e-05;1.68885e-05;1.31323;11.8775
676440;1.68171e-05;1.68355e-05;1.31102;11.8699
678240;1.6763e-05;1.67813e-05;1.30879;11.8624
680040;1.6701e-05;1.67193e-05;1.30287;11.8549
681840;1.66377e-05;1.66559e-05;1.29735;11.8474
683640;1.65835e-05;1.66016e-05;1.29706;11.8399
685440;1.65203e-05;1.65383e-05;1.29008;11.8324
687240;1.64544e-05;1.64724e-05;1.28442;11.825
689040;1.63949e-05;1.64128e-05;1.28072;11.8177
690840;1.63224e-05;1.63402e-05;1.27069;11.8103
691200;1.6282e-05;1.62998e-05;1.2675;11.8088
692640;1.62511e-05;1.62689e-05;1.26567;11.803
694440;1.61862e-05;1.62039e-05;1.25667;11.7957
696240;1.61228e-05;1.61404e-05;1.25302;11.7884
698040;1.60513e-05;1.60688e-05;1.24494;11.7812
699840;1.59842e-05;1.60017e-05;1.23832;11.774
701640;1.59138e-05;1.59312e-05;1.2306;11.7668
703440;1.58522e-05;1.58695e-05;1.22832;11.7597
705240;1.57924e-05;1.58096e-05;1.22595;11.7526
707040;1.57334e-05;1.57506e-05;1.22338;11.7455
708840;1.56752e-05;1.56923e-05;1.22076;11.7384
710640;1.56178e-05;1.56348e-05;1.2182;11.7314
712440;1.55611e-05;1.55781e-05;1.21572;11.7244
714240;1.55053e-05;1.55222e-05;1.2134;11.7174
716040;1.54472e-05;1.54641e-05;1.20827;11.7104
717840;1.53798e-05;1.53966e-05;1.19729;11.7035
719640;1.53189e-05;1.53357e-05;1.19276;11.6966
721440;1.52548e-05;1.52714e-05;1.18593;11.6897
723240;1.51961e-05;1.52127e-05;1.1822;11.6829
725040;1.51393e-05;1.51558e-05;1.17897;11.6761
726840;1.50837e-05;1.51001e-05;1.17608;11.6693
728640;1.50294e-05;1.50458e-05;1.17341;11.6625
730440;1.49763e-05;1.49926e-05;1.17121;11.6557
732240;1.49246e-05;1.49409e-05;1.16921;11.649
734040;1.48743e-05;1.48905e-05;1.16765;11.6423
734400;1.48446e-05;1.48609e-05;1.16691;11.641
735840;1.48204e-05;1.48366e-05;1.16621;11.6356
737640;1.47774e-05;1.47935e-05;1.16522;11.629
739440;1.47308e-05;1.47469e-05;1.16437;11.6223
741240;1.46857e-05;1.47017e-05;1.16386;11.6157
743040;1.46421e-05;1.46581e-05;1.16375;11.6091
744840;1.46004e-05;1.46164e-05;1.16413;11.6026
746640;1.45608e-05;1.45767e-05;1.1651;11.596
748440;1.45236e-05;1.45395e-05;1.16673;11.5895
750240;1.44889e-05;1.45048e-05;1.16901;11.5829
752040;1.44567e-05;1.44725e-05;1.17183;11.5764
753840;1.44251e-05;1.44409e-05;1.17367;11.5699
755640;1.4391e-05;1.44068e-05;1.17411;11.5634
757440;1.43634e-05;1.43791e-05;1.1782;11.557
759240;1.43392e-05;1.43549e-05;1.18306;11.5505
761040;1.43179e-05;1.43336e-05;1.18839;11.5441
762840;1.4299e-05;1.43147e-05;1.19406;11.5376
764640;1.42823e-05;1.4298e-05;1.19992;11.5312
766440;1.42666e-05;1.42823e-05;1.20522;11.5248
768240;1.42367e-05;1.42523e-05;1.20161;11.5183
770040;1.42082e-05;1.42238e-05;1.20192;11.5119
771840;1.41871e-05;1.42032e-05;1.20638;11.5055
773640;1.41571e-05;1.41722e-05;1.20298;11.4992
775440;1.41309e-05;1.41464e-05;1.20461;11.4928
777240;1.40988e-05;1.41143e-05;1.2029;11.4865
777600;1.40763e-05;1.40918e-05;1.19986;11.4852
779040;1.40623e-05;1.40778e-05;1.20063;11.4801
780840;1.40306e-05;1.40461e-05;1.19808;11.4738
782640;1.40023e-05;1.40177e-05;1.19905;11.4675
784440;1.39666e-05;1.39819e-05;1.1954;11.4612
786240;1.39204e-05;1.39357e-05;1.18807;11.4549
788040;1.38868e-05;1.39021e-05;1.18802;11.4487
789840;1.38388e-05;1.3854e-05;1.17905;11.4424
791640;1.37962e-05;1.38114e-05;1.17539;11.4362
793440;1.37538e-05;1.37689e-05;1.17038;11.43
795240;1.3702e-05;1.37171e-05;1.16173;11.4238
797040;1.36578e-05;1.36728e-05;1.15753;11.4177
798840;1.36087e-05;1.36236e-05;1.15019;11.4116
