Time;TotalMassChange;WaterMassChange;IntEnergyChange;WaterMass
0.000958869;0.0006564;0.000599152;2151.01;25.038
0.00701842;0.00049886;0.00059496;1398.35;25.038
0.0532416;0.00060906;0.000595031;687.473;25.038
0.35542;0.000592205;0.000589026;441.426;25.038
2.31424;0.000577031;0.000575927;397.46;25.0377
18.166;0.000541646;0.000541531;368.218;25.0356
147.135;0.00046653;0.000466942;302.355;25.0205
1146.72;0.000359937;0.000360362;202.814;24.9304
2946.72;0.000299528;0.000299885;143.63;24.7955
4746.72;0.000271154;0.000271475;114.958;24.6733
6546.72;0.000256242;0.000256545;99.6435;24.5579
8346.72;0.00024662;0.000246911;89.6595;24.4468
10146.7;0.000239736;0.000240019;82.4441;24.3388
11946.7;0.000234496;0.000234772;76.8716;24.2331
13746.7;0.000230328;0.000230599;72.3502;24.1294
15546.7;0.00022691;0.000227176;68.5401;24.0271
17346.7;0.000224039;0.000224302;65.232;23.9262
19146.7;0.000221584;0.000221844;62.2924;23.8264
20946.7;0.000219454;0.000219711;59.6336;23.7275
22746.7;0.00021758;0.000217835;57.1949;23.6295
24546.7;0.000215915;0.000216168;54.9351;23.5322
26346.7;0.000214422;0.000214673;52.8263;23.4356
28146.7;0.000213074;0.000213323;50.8476;23.3396
29946.7;0.000211848;0.000212096;48.9836;23.2441
31746.7;0.000210728;0.000210974;47.2236;23.1492
33546.7;0.0002097;0.000209945;45.5604;23.0547
35346.7;0.000208752;0.000208995;43.9849;22.9607
37146.7;0.000207873;0.000208116;42.4905;22.867
38946.7;0.000207057;0.000207298;41.0702;22.7737
40746.7;0.000206296;0.000206536;39.726;22.6808
42546.7;0.000205584;0.000205823;38.446;22.5882
43200;0.000205129;0.000205368;37.6173;22.5546
44280;0.000204811;0.00020505;37.0367;22.4993
46080;0.000204313;0.000204551;36.1165;22.4072
47880;0.000203723;0.00020396;35.0148;22.3155
49680;0.000203167;0.000203403;33.968;22.2239
51480;0.000202642;0.000202877;32.9689;22.1326
53280;0.000202148;0.000202382;32.029;22.0416
55080;0.000201681;0.000201915;31.1314;21.9507
56880;0.000201239;0.000201472;30.2744;21.86
58680;0.00020082;0.000201052;29.4651;21.7696
60480;0.000200422;0.000200654;28.6928;21.6793
62280;0.000200045;0.000200276;27.9582;21.5891
64080;0.000199687;0.000199918;27.2521;21.4992
65880;0.000199346;0.000199577;26.5815;21.4094
67680;0.000199023;0.000199253;25.9645;21.3197
69480;0.000198715;0.000198944;25.3675;21.2302
71280;0.000198422;0.000198651;24.7917;21.1408
73080;0.000198143;0.000198371;24.2476;21.0515
74880;0.000197877;0.000198105;23.7321;20.9624
76680;0.000197624;0.000197852;23.2393;20.8733
78480;0.000197382;0.00019761;22.7706;20.7844
80280;0.000197153;0.00019738;22.331;20.6956
82080;0.000196935;0.000197162;21.9084;20.6069
83880;0.000196727;0.000196953;21.5101;20.5182
85680;0.000196527;0.000196754;21.1171;20.4297
86400;0.000196393;0.000196619;20.8735;20.3943
87480;0.0001963;0.000196526;20.6952;20.3412
89280;0.000196155;0.000196381;20.421;20.2529
91080;0.000195982;0.000196207;20.0931;20.1646
92880;0.000195815;0.00019604;19.7815;20.0764
94680;0.000195656;0.000195881;19.4853;19.9882
96480;0.000195503;0.000195727;19.204;19.9001
98280;0.000195356;0.000195581;18.9363;19.8121
100080;0.000195215;0.00019544;18.6816;19.7242
101880;0.00019508;0.000195304;18.4394;19.6363
103680;0.00019495;0.000195174;18.209;19.5485
105480;0.000194825;0.000195049;17.9898;19.4607
107280;0.000194705;0.000194928;17.7813;19.373
109080;0.000194589;0.000194812;17.5829;19.2853
110880;0.000194477;0.0001947;17.3943;19.1977
112680;0.000194369;0.000194591;17.2392;19.1101
114480;0.000194265;0.000194487;17.0432;19.0226
116280;0.000194165;0.000194387;16.8845;18.9351
118080;0.000194068;0.00019429;16.7295;18.8477
119880;0.000193975;0.000194197;16.5826;18.7603
121680;0.000193884;0.000194106;16.4441;18.673
123480;0.000193796;0.000194018;16.3127;18.5857
125280;0.00019371;0.000193932;16.1876;18.4984
127080;0.000193627;0.000193848;16.0735;18.4112
128880;0.000193545;0.000193766;15.954;18.324
129600;0.000193489;0.00019371;15.8777;18.2891
130680;0.000193449;0.00019367;15.83;18.2368
132480;0.000193387;0.000193608;15.7465;18.1497
134280;0.00019331;0.000193531;15.6481;18.0626
136080;0.000193235;0.000193455;15.5526;17.9755
137880;0.000193161;0.000193381;15.4578;17.8885
139680;0.000193088;0.000193308;15.3719;17.8015
141480;0.000193016;0.000193236;15.2925;17.7146
143280;0.000192944;0.000193164;15.2134;17.6277
145080;0.000192873;0.000193093;15.1385;17.5408
146880;0.000192803;0.000193022;15.0727;17.4539
148640;0.000192734;0.000192953;14.9959;17.369
150440;0.000192664;0.000192883;14.9247;17.2822
152240;0.000192594;0.000192813;14.8633;17.1954
154040;0.000192523;0.000192742;14.7996;17.1087
155840;0.000192452;0.000192671;14.7426;17.022
157640;0.00019238;0.000192599;14.6701;16.9353
159440;0.000192308;0.000192526;14.6124;16.8487
161240;0.000192235;0.000192453;14.5549;16.7621
163040;0.00019216;0.000192378;14.4978;16.6755
164840;0.000192083;0.000192301;14.4399;16.589
166640;0.000192002;0.00019222;14.3804;16.5025
168440;0.000191917;0.000192135;14.3188;16.416
170240;0.000191826;0.000192044;14.2514;16.3296
172040;0.000191727;0.000191944;14.1777;16.2432
172800;0.00019165;0.000191867;14.1195;16.2068
173520;0.0001916;0.000191817;14.081;16.1723
175320;0.000191501;0.000191718;14.0021;16.086
176764;0.000188681;0.000188893;12.6744;16.0178
178564;0.00017936;0.000179557;9.29625;15.937
180364;0.000170624;0.000170808;6.80223;15.8601
182164;0.000162988;0.000163162;4.94049;15.7867
183964;0.000156153;0.000156318;3.44757;15.7163
185764;0.000149574;0.000149731;2.06891;15.649
187564;0.000143208;0.000143358;0.717432;15.5845
189364;0.000137297;0.000137439;-0.42009;15.5226
191164;0.000131899;0.000132035;-1.35353;15.4632
192964;0.000126936;0.000127066;-2.13552;15.406
194764;0.000122359;0.000122483;-2.79198;15.3509
196564;0.000118128;0.000118248;-3.34007;15.2977
198364;0.000114218;0.000114334;-3.79136;15.2462
200164;0.000110618;0.00011073;-4.15013;15.1964
201964;0.000107389;0.000107497;-4.39164;15.148
203764;0.000105525;0.000105632;-4.12084;15.1005
205564;0.000102278;0.000102382;-4.57631;15.0544
207364;9.927e-05;9.937e-05;-4.7997;15.0097
209164;9.64006e-05;9.64974e-05;-5.00881;14.9663
210964;9.37345e-05;9.38284e-05;-5.1384;14.9241
212764;9.12213e-05;9.13125e-05;-5.22591;14.883
214564;8.88492e-05;8.89379e-05;-5.27658;14.8429
216000;8.68286e-05;8.69153e-05;-5.2946;14.8117
216360;8.57484e-05;8.58339e-05;-5.29455;14.804
218160;8.44994e-05;8.45837e-05;-5.28319;14.766
219960;8.25146e-05;8.25968e-05;-5.23971;14.7288
221760;8.07131e-05;8.07937e-05;-5.13952;14.6924
223560;7.90741e-05;7.91531e-05;-5.00136;14.6568
225360;7.7349e-05;7.74262e-05;-4.94264;14.622
227160;7.56967e-05;7.57722e-05;-4.8596;14.5879
228960;7.41985e-05;7.42726e-05;-4.72874;14.5545
230760;7.30802e-05;7.31535e-05;-4.46024;14.5215
232560;7.2427e-05;7.25001e-05;-4.09243;14.4889
234360;7.08038e-05;7.08749e-05;-4.13256;14.457
236160;6.92835e-05;6.9353e-05;-4.07834;14.4258
237960;6.79174e-05;6.79855e-05;-3.98618;14.3952
239760;6.65747e-05;6.66414e-05;-3.89341;14.3652
241560;6.53086e-05;6.5374e-05;-3.78113;14.3358
243360;6.40982e-05;6.41624e-05;-3.66175;14.3069
245160;6.29382e-05;6.30013e-05;-3.53749;14.2786
246960;6.18245e-05;6.18865e-05;-3.41007;14.2507
248760;6.07553e-05;6.08162e-05;-3.27986;14.2234
250560;5.97293e-05;5.97893e-05;-3.14731;14.1965
252360;5.87463e-05;5.88053e-05;-3.01217;14.17
254160;5.78071e-05;5.78653e-05;-2.8738;14.144
255960;5.69166e-05;5.69739e-05;-2.72989;14.1183
257760;5.60904e-05;5.61469e-05;-2.57268;14.0931
259200;5.54083e-05;5.54643e-05;-2.42099;14.0731
259560;5.50582e-05;5.51139e-05;-2.3316;14.0681
261360;5.47119e-05;5.47674e-05;-2.20266;14.0435
263160;5.43165e-05;5.43718e-05;-1.94237;14.019
264960;5.3881e-05;5.3936e-05;-1.74622;13.9947
266760;5.31066e-05;5.31608e-05;-1.67049;13.9708
268560;5.23009e-05;5.23542e-05;-1.59701;13.9473
270360;5.14832e-05;5.15357e-05;-1.52716;13.9241
272160;5.0763e-05;5.08148e-05;-1.41813;13.9012
273960;5.00045e-05;5.00555e-05;-1.35086;13.8787
275760;4.92913e-05;4.93416e-05;-1.2614;13.8565
277560;4.86035e-05;4.86531e-05;-1.17224;13.8346
279360;4.79373e-05;4.79863e-05;-1.08378;13.813
281160;4.7292e-05;4.73404e-05;-0.996152;13.7917
282960;4.66671e-05;4.67149e-05;-0.909393;13.7707
284760;4.60623e-05;4.61094e-05;-0.82348;13.7499
286560;4.54774e-05;4.5524e-05;-0.738318;13.7294
288360;4.49127e-05;4.49588e-05;-0.653672;13.7092
290160;4.4369e-05;4.44146e-05;-0.569128;13.6892
291960;4.38481e-05;4.38932e-05;-0.483864;13.6695
293760;4.33541e-05;4.33987e-05;-0.39614;13.6499
295560;4.28981e-05;4.29423e-05;-0.301233;13.6306
297360;4.25125e-05;4.25565e-05;-0.185961;13.6115
299160;4.22253e-05;4.22692e-05;-0.0467826;13.5924
300960;4.19832e-05;4.20269e-05;0.0816333;13.5735
302400;4.17389e-05;4.17824e-05;0.17422;13.5585
302760;4.15598e-05;4.16031e-05;0.208572;13.5547
304560;4.1282e-05;4.13251e-05;0.230408;13.5361
306360;4.08416e-05;4.08842e-05;0.2805;13.5177
308160;4.04199e-05;4.04621e-05;0.33496;13.4995
309960;3.99835e-05;4.00253e-05;0.380276;13.4815
311760;3.95311e-05;3.95723e-05;0.417101;13.4637
313560;3.91008e-05;3.91417e-05;0.462656;13.4461
315360;3.86765e-05;3.87169e-05;0.502032;13.4287
317160;3.82324e-05;3.82724e-05;0.526294;13.4115
318960;3.78196e-05;3.78592e-05;0.56422;13.3944
320760;3.74185e-05;3.74576e-05;0.601404;13.3776
322560;3.70277e-05;3.70665e-05;0.637949;13.3609
324360;3.66472e-05;3.66856e-05;0.673956;13.3444
326160;3.62769e-05;3.63149e-05;0.709508;13.328
327960;3.59169e-05;3.59545e-05;0.744704;13.3119
329760;3.55673e-05;3.56046e-05;0.779696;13.2958
331560;3.52287e-05;3.52657e-05;0.81471;13.28
333360;3.49018e-05;3.49385e-05;0.850101;13.2642
335160;3.45883e-05;3.46247e-05;0.886496;13.2487
336960;3.42914e-05;3.43275e-05;0.925145;13.2332
338760;3.40185e-05;3.40544e-05;0.969034;13.2179
340560;3.3783e-05;3.38187e-05;1.02264;13.2027
342360;3.35906e-05;3.36262e-05;1.08575;13.1875
344160;3.3432e-05;3.34675e-05;1.15001;13.1725
345600;3.32728e-05;3.33081e-05;1.19236;13.1605
345960;3.31959e-05;3.32312e-05;1.2213;13.1575
347760;3.30989e-05;3.31341e-05;1.25026;13.1426
349560;3.2859e-05;3.2894e-05;1.26659;13.1278
351360;3.25781e-05;3.26128e-05;1.27741;13.1131
353160;3.23196e-05;3.23541e-05;1.29708;13.0985
354960;3.20534e-05;3.20875e-05;1.3118;13.0841
356760;3.17852e-05;3.18191e-05;1.32383;13.0698
358560;3.15177e-05;3.15513e-05;1.33572;13.0556
360360;3.12557e-05;3.1289e-05;1.34919;13.0415
362160;3.09785e-05;3.10115e-05;1.3534;13.0276
363960;3.07283e-05;3.07611e-05;1.36956;13.0137
365760;3.049e-05;3.05226e-05;1.38665;13
367560;3.02315e-05;3.02638e-05;1.38701;12.9864
369360;2.99582e-05;2.99902e-05;1.38461;12.9729
371160;2.97075e-05;2.97392e-05;1.39115;12.9595
372960;2.94642e-05;2.94957e-05;1.39819;12.9462
374760;2.92266e-05;2.92578e-05;1.40529;12.933
376560;2.89946e-05;2.90256e-05;1.41251;12.92
378360;2.87682e-05;2.8799e-05;1.41993;12.907
380160;2.85477e-05;2.85782e-05;1.42765;12.8942
381960;2.83333e-05;2.83636e-05;1.43578;12.8814
383760;2.81254e-05;2.81555e-05;1.4445;12.8687
385560;2.7925e-05;2.79549e-05;1.4541;12.8561
387360;2.77334e-05;2.77631e-05;1.4651;12.8437
388800;2.75704e-05;2.76e-05;1.47692;12.8337
389160;2.74847e-05;2.75142e-05;1.48463;12.8312
390960;2.73893e-05;2.74187e-05;1.49576;12.8189
392760;2.72448e-05;2.72741e-05;1.51762;12.8066
394560;2.712e-05;2.71492e-05;1.54305;12.7944
396360;2.70163e-05;2.70454e-05;1.57185;12.7822
398160;2.69113e-05;2.69403e-05;1.59323;12.7701
399960;2.67958e-05;2.68247e-05;1.60919;12.758
401760;2.66963e-05;2.67252e-05;1.63029;12.746
403560;2.65664e-05;2.65951e-05;1.63781;12.7341
405360;2.63992e-05;2.64277e-05;1.63453;12.7222
407160;2.623e-05;2.62583e-05;1.63445;12.7103
408960;2.60617e-05;2.60899e-05;1.63397;12.6986
410760;2.59043e-05;2.59323e-05;1.6368;12.6869
412560;2.5737e-05;2.57648e-05;1.63628;12.6753
414360;2.55651e-05;2.55927e-05;1.63176;12.6638
416160;2.53954e-05;2.54229e-05;1.62994;12.6524
417960;2.52245e-05;2.52518e-05;1.62565;12.641
419760;2.50515e-05;2.50786e-05;1.62162;12.6297
421560;2.48781e-05;2.4905e-05;1.6152;12.6185
423360;2.47152e-05;2.4742e-05;1.6145;12.6074
425160;2.45626e-05;2.45891e-05;1.61612;12.5963
426960;2.4413e-05;2.44394e-05;1.61721;12.5853
428760;2.42603e-05;2.42865e-05;1.6139;12.5744
430560;2.40904e-05;2.41165e-05;1.60161;12.5636
432000;2.39472e-05;2.39732e-05;1.59714;12.5549
432360;2.3863e-05;2.38889e-05;1.59251;12.5528
434160;2.37696e-05;2.37954e-05;1.58994;12.5421
435960;2.36177e-05;2.36433e-05;1.58622;12.5314
437760;2.34695e-05;2.34949e-05;1.58296;12.5208
439560;2.33245e-05;2.33498e-05;1.58015;12.5103
441360;2.31829e-05;2.3208e-05;1.57762;12.4999
443160;2.30448e-05;2.30698e-05;1.57561;12.4895
444960;2.29107e-05;2.29355e-05;1.57418;12.4792
446760;2.27808e-05;2.28055e-05;1.57349;12.4689
448560;2.26558e-05;2.26804e-05;1.57372;12.4587
450360;2.25369e-05;2.25614e-05;1.57525;12.4486
452160;2.24256e-05;2.245e-05;1.57855;12.4385
453960;2.23238e-05;2.23481e-05;1.58422;12.4284
455760;2.22316e-05;2.22558e-05;1.59162;12.4184
457560;2.21481e-05;2.21722e-05;1.60028;12.4084
459360;2.20741e-05;2.20981e-05;1.61049;12.3985
461160;2.20113e-05;2.20352e-05;1.62274;12.3886
462960;2.19504e-05;2.19744e-05;1.63217;12.3787
464760;2.18783e-05;2.19025e-05;1.63673;12.3688
466560;2.17976e-05;2.18211e-05;1.63682;12.359
468360;2.17287e-05;2.17524e-05;1.64361;12.3492
470160;2.16493e-05;2.1673e-05;1.64582;12.3395
471960;2.15582e-05;2.15817e-05;1.64391;12.3297
473760;2.14433e-05;2.14668e-05;1.63529;12.3201
475200;2.1353e-05;2.13763e-05;1.63324;12.3124
475560;2.1301e-05;2.13242e-05;1.63128;12.3105
477360;2.12334e-05;2.12566e-05;1.627;12.3009
479160;2.11392e-05;2.11623e-05;1.62664;12.2914
480960;2.10217e-05;2.10447e-05;1.61714;12.2819
482760;2.09238e-05;2.09467e-05;1.61546;12.2725
484560;2.0803e-05;2.08257e-05;1.60448;12.2631
486360;2.06958e-05;2.07184e-05;1.59974;12.2538
488160;2.0582e-05;2.06045e-05;1.59132;12.2445
489960;2.04668e-05;2.04892e-05;1.5834;12.2353
491760;2.0357e-05;2.03792e-05;1.5772;12.2261
493560;2.02411e-05;2.02632e-05;1.56756;12.217
495360;2.01387e-05;2.01607e-05;1.56459;12.2079
497160;2.0039e-05;2.00609e-05;1.56139;12.1989
498960;1.99409e-05;1.99627e-05;1.55803;12.1899
500760;1.98445e-05;1.98661e-05;1.5547;12.181
502560;1.97493e-05;1.97708e-05;1.55114;12.1721
504360;1.96364e-05;1.96579e-05;1.53636;12.1632
506160;1.95325e-05;1.95538e-05;1.52964;12.1544
507960;1.94252e-05;1.94464e-05;1.52104;12.1457
509760;1.93256e-05;1.93467e-05;1.51524;12.137
511560;1.92286e-05;1.92497e-05;1.50991;12.1283
513360;1.91337e-05;1.91546e-05;1.50491;12.1197
515160;1.90408e-05;1.90617e-05;1.50022;12.1111
516960;1.89501e-05;1.89708e-05;1.49593;12.1026
518400;1.88703e-05;1.88909e-05;1.49243;12.0958
518760;1.88268e-05;1.88474e-05;1.49065;12.0941
520560;1.87756e-05;1.87962e-05;1.48869;12.0856
522360;1.86925e-05;1.87129e-05;1.48591;12.0772
524160;1.86125e-05;1.86328e-05;1.48378;12.0688
525960;1.8536e-05;1.85563e-05;1.48243;12.0605
527760;1.84632e-05;1.84834e-05;1.48178;12.0522
529560;1.83944e-05;1.84145e-05;1.48188;12.0439
531360;1.83302e-05;1.83503e-05;1.48293;12.0356
533160;1.82709e-05;1.82909e-05;1.48489;12.0274
534960;1.82163e-05;1.82362e-05;1.48766;12.0192
536760;1.81667e-05;1.81866e-05;1.4912;12.011
538560;1.81227e-05;1.81425e-05;1.4958;12.0028
540360;1.80836e-05;1.81035e-05;1.5008;11.9947
542160;1.80417e-05;1.80615e-05;1.50354;11.9866
543960;1.80012e-05;1.80209e-05;1.5066;11.9785
545760;1.79516e-05;1.79713e-05;1.50552;11.9704
547560;1.79052e-05;1.79249e-05;1.5071;11.9623
549360;1.78649e-05;1.78845e-05;1.50988;11.9542
551160;1.78149e-05;1.78345e-05;1.50888;11.9462
552960;1.77598e-05;1.77794e-05;1.50696;11.9382
554760;1.77003e-05;1.77198e-05;1.50312;11.9302
556560;1.76347e-05;1.76541e-05;1.49835;11.9223
558360;1.75683e-05;1.75876e-05;1.49407;11.9144
560160;1.74981e-05;1.75173e-05;1.48837;11.9065
561600;1.74433e-05;1.74624e-05;1.48681;11.9002
561960;1.74168e-05;1.74359e-05;1.48705;11.8987
563760;1.73638e-05;1.73829e-05;1.4788;11.8908
565560;1.72943e-05;1.73134e-05;1.47437;11.883
567360;1.72243e-05;1.72432e-05;1.46827;11.8753
569160;1.71422e-05;1.71611e-05;1.45902;11.8676
570960;1.70715e-05;1.70903e-05;1.45416;11.8599
572760;1.69952e-05;1.70139e-05;1.44618;11.8522
574560;1.69155e-05;1.69341e-05;1.43817;11.8446
576360;1.68443e-05;1.68632e-05;1.43447;11.837
578160;1.67637e-05;1.67817e-05;1.42297;11.8294
579960;1.66922e-05;1.67105e-05;1.41901;11.8219
581760;1.66243e-05;1.66426e-05;1.41527;11.8144
583560;1.65576e-05;1.65758e-05;1.41138;11.807
585360;1.64919e-05;1.651e-05;1.40746;11.7996
587160;1.6427e-05;1.64451e-05;1.40359;11.7922
588960;1.63631e-05;1.63811e-05;1.39983;11.7848
590760;1.63001e-05;1.6318e-05;1.39618;11.7774
592560;1.6228e-05;1.62459e-05;1.38652;11.7701
594360;1.61476e-05;1.61654e-05;1.37524;11.7629
596160;1.60789e-05;1.60965e-05;1.36982;11.7556
597960;1.60124e-05;1.603e-05;1.36482;11.7484
599760;1.59474e-05;1.59649e-05;1.36003;11.7412
601560;1.58836e-05;1.59011e-05;1.35543;11.7341
603360;1.5821e-05;1.58384e-05;1.35106;11.7269
604800;1.57658e-05;1.57831e-05;1.34734;11.7212
605160;1.57355e-05;1.57528e-05;1.34536;11.7198
606960;1.56998e-05;1.5717e-05;1.3431;11.7128
608760;1.56413e-05;1.56585e-05;1.33955;11.7057
610560;1.55843e-05;1.56014e-05;1.33632;11.6987
612360;1.55288e-05;1.55459e-05;1.33338;11.6917
614160;1.54747e-05;1.54917e-05;1.33065;11.6847
615960;1.5422e-05;1.54389e-05;1.32812;11.6778
617760;1.53707e-05;1.53876e-05;1.32583;11.6708
619560;1.5321e-05;1.53379e-05;1.32385;11.6639
621360;1.52732e-05;1.529e-05;1.32224;11.6571
623160;1.52275e-05;1.52442e-05;1.32105;11.6502
624960;1.51842e-05;1.52009e-05;1.32038;11.6434
626760;1.51436e-05;1.51603e-05;1.32029;11.6365
628560;1.5106e-05;1.51226e-05;1.32078;11.6297
630360;1.5071e-05;1.5088e-05;1.32234;11.623
632160;1.50322e-05;1.50483e-05;1.31967;11.6162
633960;1.49989e-05;1.50154e-05;1.32143;11.6094
635760;1.49704e-05;1.49869e-05;1.32386;11.6027
637560;1.49454e-05;1.49619e-05;1.32678;11.5959
639360;1.49233e-05;1.49398e-05;1.33009;11.5892
641160;1.49039e-05;1.49203e-05;1.33366;11.5825
642960;1.48866e-05;1.4903e-05;1.33739;11.5758
644760;1.48624e-05;1.48788e-05;1.33717;11.5691
646560;1.48269e-05;1.48432e-05;1.3339;11.5624
648000;1.48048e-05;1.48211e-05;1.33553;11.5571
648360;1.47938e-05;1.48101e-05;1.33656;11.5558
650160;1.47742e-05;1.47905e-05;1.33493;11.5491
651960;1.47426e-05;1.47589e-05;1.33373;11.5425
653760;1.47089e-05;1.47251e-05;1.33229;11.5358
655560;1.46722e-05;1.46884e-05;1.32924;11.5292
657360;1.46338e-05;1.465e-05;1.32642;11.5226
659160;1.46027e-05;1.46189e-05;1.32626;11.5161
660960;1.45575e-05;1.45736e-05;1.32073;11.5095
662760;1.45102e-05;1.45262e-05;1.31588;11.503
664560;1.44732e-05;1.44892e-05;1.31457;11.4964
666360;1.44178e-05;1.44337e-05;1.30604;11.4899
668160;1.43755e-05;1.43914e-05;1.30372;11.4835
669960;1.43221e-05;1.4338e-05;1.29591;11.477
671760;1.42692e-05;1.4285e-05;1.2902;11.4706
673560;1.42196e-05;1.42353e-05;1.2847;11.4642
675360;1.41678e-05;1.41834e-05;1.27895;11.4578
677160;1.41118e-05;1.41274e-05;1.2721;11.4514
678960;1.4064e-05;1.40795e-05;1.26854;11.4451
680760;1.40079e-05;1.40234e-05;1.26001;11.4388
682560;1.3958e-05;1.39734e-05;1.25587;11.4325
684360;1.39113e-05;1.39266e-05;1.2525;11.4262
686160;1.38655e-05;1.38808e-05;1.24908;11.42
687960;1.38203e-05;1.38355e-05;1.24566;11.4138
689760;1.37756e-05;1.37909e-05;1.24224;11.4076
691200;1.37359e-05;1.37511e-05;1.23926;11.4026
691560;1.3714e-05;1.37292e-05;1.2376;11.4014
693360;1.36874e-05;1.37025e-05;1.23537;11.3952
695160;1.3638e-05;1.36531e-05;1.22968;11.3891
696960;1.35929e-05;1.36079e-05;1.22594;11.3829
698760;1.35478e-05;1.35628e-05;1.22193;11.3768
700560;1.34937e-05;1.35085e-05;1.21184;11.3708
702360;1.3447e-05;1.34619e-05;1.20794;11.3647
704160;1.34021e-05;1.34169e-05;1.20417;11.3587
705960;1.33581e-05;1.33728e-05;1.2005;11.3526
707760;1.33149e-05;1.33296e-05;1.19695;11.3466
709560;1.32724e-05;1.32871e-05;1.19353;11.3407
711360;1.32307e-05;1.32453e-05;1.19026;11.3347
713160;1.31898e-05;1.32044e-05;1.18715;11.3288
714960;1.31496e-05;1.31642e-05;1.18419;11.3228
716760;1.31102e-05;1.31247e-05;1.18134;11.3169
718560;1.30713e-05;1.30858e-05;1.17859;11.311
720360;1.30331e-05;1.30475e-05;1.17589;11.3052
722160;1.29954e-05;1.30098e-05;1.17331;11.2993
723960;1.29584e-05;1.29727e-05;1.17083;11.2935
725760;1.2922e-05;1.29363e-05;1.16848;11.2877
727560;1.28864e-05;1.29006e-05;1.16624;11.2819
729360;1.28514e-05;1.28656e-05;1.16413;11.2761
731160;1.28173e-05;1.28315e-05;1.16216;11.2703
732960;1.2784e-05;1.27981e-05;1.16035;11.2645
734400;1.27548e-05;1.27689e-05;1.15885;11.2599
734760;1.27389e-05;1.27529e-05;1.15806;11.2588
736560;1.27202e-05;1.27342e-05;1.15724;11.2531
738360;1.26898e-05;1.27038e-05;1.15595;11.2473
740160;1.26594e-05;1.26734e-05;1.15426;11.2416
741960;1.26259e-05;1.26399e-05;1.15153;11.236
743760;1.25967e-05;1.26106e-05;1.15075;11.2303
745560;1.257e-05;1.25838e-05;1.1505;11.2246
747360;1.25452e-05;1.2559e-05;1.15063;11.219
749160;1.25223e-05;1.25361e-05;1.15109;11.2133
750960;1.25011e-05;1.25149e-05;1.15182;11.2077
752760;1.24816e-05;1.24954e-05;1.15279;11.2021
754560;1.24638e-05;1.24776e-05;1.15403;11.1965
756360;1.24476e-05;1.24614e-05;1.15552;11.1908
758160;1.2433e-05;1.24468e-05;1.15722;11.1852
759960;1.24199e-05;1.24336e-05;1.1591;11.1796
761760;1.24081e-05;1.24218e-05;1.16113;11.1741
763560;1.23975e-05;1.24113e-05;1.16325;11.1685
765360;1.2388e-05;1.24017e-05;1.16547;11.1629
767160;1.23794e-05;1.23931e-05;1.16764;11.1573
768960;1.23715e-05;1.23852e-05;1.16981;11.1517
770760;1.2357e-05;1.23707e-05;1.16913;11.1462
772560;1.23349e-05;1.23486e-05;1.16587;11.1406
774360;1.23216e-05;1.23352e-05;1.16692;11.1351
776160;1.23015e-05;1.23151e-05;1.16491;11.1295
777600;1.22855e-05;1.22991e-05;1.16532;11.1251
777960;1.22735e-05;1.22871e-05;1.1631;11.124
779760;1.22644e-05;1.2278e-05;1.16364;11.1185
781560;1.22429e-05;1.22565e-05;1.16163;11.113
783360;1.222e-05;1.22336e-05;1.15967;11.1074
785160;1.22011e-05;1.22146e-05;1.15933;11.102
786960;1.218e-05;1.21935e-05;1.15758;11.0965
788760;1.21544e-05;1.21679e-05;1.15455;11.091
790560;1.21301e-05;1.21435e-05;1.15242;11.0855
792360;1.20934e-05;1.21069e-05;1.146;11.0801
794160;1.2059e-05;1.20723e-05;1.14155;11.0746
795960;1.20262e-05;1.20395e-05;1.13707;11.0692
797760;1.19857e-05;1.1999e-05;1.13057;11.0638
799560;1.1952e-05;1.19653e-05;1.12661;11.0584
