Time;TotalMassChange;WaterMassChange;IntEnergyChange;WaterMass
0.000897248;0.000990808;0.000913134;2308.79;25.038
0.00692404;0.000525906;0.000613939;1536.29;25.038
0.0465806;0.000383647;0.000369507;926.124;25.038
0.265283;0.000289892;0.000286161;715.02;25.038
2.03113;0.000267203;0.000265684;655.018;25.0379
16.5694;0.000240366;0.000239913;568.065;25.037
134.852;0.000193675;0.000193794;409.22;25.0313
1081.44;0.000142775;0.000142963;228.811;24.9975
2881.44;0.000119733;0.000119888;144.677;24.9435
4461.44;0.000110674;0.000110814;111.083;24.8997
5929.5;0.000106489;0.000106622;95.4647;24.8606
7689.5;0.000103612;0.000103741;84.6884;24.815
9223.25;0.000101567;0.000101692;76.9776;24.776
11023.2;9.99914e-05;0.000100114;70.9799;24.7309
12823.2;9.86777e-05;9.87978e-05;65.8929;24.6865
14623.2;9.76246e-05;9.77431e-05;61.7096;24.6425
16423.2;9.67556e-05;9.68727e-05;58.1417;24.5989
18223.2;9.60225e-05;9.61384e-05;55.0075;24.5556
20023.2;9.53931e-05;9.5508e-05;52.1987;24.5126
21823.2;9.48452e-05;9.49592e-05;49.6376;24.4699
23623.2;9.43626e-05;9.44758e-05;47.2822;24.4274
25423.2;9.39335e-05;9.40459e-05;45.0899;24.3851
27223.2;9.35488e-05;9.36607e-05;43.04;24.3429
29023.2;9.32014e-05;9.33126e-05;41.118;24.3009
30823.2;9.28853e-05;9.29959e-05;39.3056;24.2591
32623.2;9.25962e-05;9.27063e-05;37.5959;24.2174
34423.2;9.23306e-05;9.24403e-05;35.975;24.1758
36223.2;9.20855e-05;9.21948e-05;34.4442;24.1343
38023.2;9.18586e-05;9.19675e-05;32.9934;24.0929
39823.2;9.16479e-05;9.17564e-05;31.617;24.0516
41623.2;9.14517e-05;9.15598e-05;30.3151;24.0104
43200;9.12803e-05;9.13881e-05;29.1593;23.9744
45000;9.11178e-05;9.12252e-05;28.0356;23.9333
46800;9.0956e-05;9.10631e-05;26.9365;23.8924
48600;9.08043e-05;9.09111e-05;25.8726;23.8514
50400;9.06616e-05;9.07682e-05;24.8688;23.8106
52200;9.05273e-05;9.06337e-05;23.8996;23.7698
54000;9.04007e-05;9.05068e-05;23.011;23.7291
55800;9.02813e-05;9.03872e-05;22.1487;23.6884
57600;9.01686e-05;9.02742e-05;21.3293;23.6478
59400;9.0062e-05;9.01675e-05;20.5583;23.6072
61128;8.99636e-05;9.00688e-05;19.8344;23.5683
62928;8.98697e-05;8.99748e-05;19.1525;23.5278
64728;8.97794e-05;8.98843e-05;18.4947;23.4874
66488;8.96949e-05;8.97997e-05;17.8736;23.4479
68288;8.96146e-05;8.97192e-05;17.2806;23.4075
69821;8.95441e-05;8.96485e-05;16.7636;23.3731
71621;8.94755e-05;8.95798e-05;16.255;23.3328
73421;8.9406e-05;8.95102e-05;15.7406;23.2925
75221;8.93402e-05;8.94442e-05;15.2567;23.2523
77021;8.92777e-05;8.93816e-05;14.7907;23.2121
78821;8.92185e-05;8.93223e-05;14.3545;23.1719
80621;8.91625e-05;8.92661e-05;13.9427;23.1317
82421;8.91093e-05;8.92128e-05;13.5557;23.0916
84221;8.90588e-05;8.91622e-05;13.1633;23.0514
85620;8.9017e-05;8.91204e-05;12.8651;23.0203
86400;8.89892e-05;8.90925e-05;12.6421;23.0029
87043.4;8.89706e-05;8.90738e-05;12.5091;22.9886
88689.4;8.89427e-05;8.90458e-05;12.3083;22.9519
90082.8;8.89075e-05;8.90106e-05;12.0563;22.9209
91709.1;8.88731e-05;8.89761e-05;11.8024;22.8847
93096.5;8.8841e-05;8.89439e-05;11.5514;22.8539
94640.4;8.88104e-05;8.89133e-05;11.3336;22.8196
96087.9;8.87809e-05;8.88838e-05;11.1149;22.7874
97512.1;8.87538e-05;8.88566e-05;10.911;22.7558
99270.8;8.87243e-05;8.8827e-05;10.6884;22.7167
101071;8.86934e-05;8.87961e-05;10.4721;22.6768
102871;8.86638e-05;8.87664e-05;10.2552;22.6368
104671;8.86356e-05;8.87381e-05;10.0451;22.5969
106471;8.86088e-05;8.87113e-05;9.84841;22.557
108271;8.85833e-05;8.86857e-05;9.67011;22.517
110071;8.85591e-05;8.86614e-05;9.48135;22.4771
111871;8.85361e-05;8.86383e-05;9.31751;22.4373
113671;8.85141e-05;8.86163e-05;9.1677;22.3974
115471;8.84932e-05;8.85954e-05;9.01943;22.3575
117271;8.84734e-05;8.85755e-05;8.86967;22.3177
119071;8.84545e-05;8.85565e-05;8.73456;22.2778
120871;8.84364e-05;8.85385e-05;8.60387;22.238
122491;8.84202e-05;8.85222e-05;8.49216;22.2021
124205;8.8405e-05;8.8507e-05;8.38555;22.1642
126005;8.83897e-05;8.84916e-05;8.28995;22.1244
127805;8.83748e-05;8.84767e-05;8.16856;22.0846
129533;8.8361e-05;8.84628e-05;8.07934;22.0463
129600;8.83552e-05;8.8457e-05;8.03523;22.0448
130968;8.83488e-05;8.84506e-05;7.99535;22.0146
132768;8.83373e-05;8.84391e-05;7.91368;21.9748
134568;8.83248e-05;8.84266e-05;7.82693;21.935
136368;8.83129e-05;8.84146e-05;7.73715;21.8952
137816;8.83027e-05;8.84044e-05;7.67437;21.8632
139616;8.82926e-05;8.83942e-05;7.60945;21.8234
141416;8.8282e-05;8.83836e-05;7.52972;21.7837
143216;8.82719e-05;8.83735e-05;7.48095;21.7439
145016;8.82622e-05;8.83638e-05;7.40294;21.7041
146816;8.82529e-05;8.83544e-05;7.34712;21.6644
148616;8.82439e-05;8.83455e-05;7.27399;21.6246
150416;8.82354e-05;8.83369e-05;7.23791;21.5849
152216;8.82271e-05;8.83286e-05;7.1777;21.5451
154016;8.82192e-05;8.83207e-05;7.13935;21.5054
155816;8.82116e-05;8.8313e-05;7.09155;21.4656
157349;8.82049e-05;8.83063e-05;7.04842;21.4318
159149;8.81982e-05;8.82996e-05;7.00247;21.3921
160949;8.81914e-05;8.82927e-05;6.97081;21.3523
162749;8.81847e-05;8.82861e-05;6.93897;21.3126
164549;8.81784e-05;8.82797e-05;6.90586;21.2729
166349;8.81722e-05;8.82735e-05;6.87062;21.2331
168149;8.81662e-05;8.82675e-05;6.83592;21.1934
169949;8.81604e-05;8.82617e-05;6.79971;21.1537
171749;8.81548e-05;8.82561e-05;6.76632;21.114
172800;8.81505e-05;8.82518e-05;6.74952;21.0908
173520;8.81479e-05;8.82491e-05;6.74064;21.0749
175320;8.81442e-05;8.82455e-05;6.71296;21.0352
177120;8.81391e-05;8.82403e-05;6.69097;20.9955
178920;8.81341e-05;8.82353e-05;6.66627;20.9558
180720;8.81293e-05;8.82304e-05;6.64325;20.9161
182520;8.81246e-05;8.82257e-05;6.62214;20.8764
184248;8.81201e-05;8.82212e-05;6.60442;20.8383
186048;8.81157e-05;8.82168e-05;6.56918;20.7986
187848;8.81113e-05;8.82124e-05;6.56863;20.7589
189648;8.81071e-05;8.82082e-05;6.55331;20.7192
191448;8.81031e-05;8.82041e-05;6.53525;20.6795
193248;8.80991e-05;8.82001e-05;6.51677;20.6398
195048;8.80951e-05;8.81962e-05;6.50049;20.6001
196848;8.80912e-05;8.81923e-05;6.49088;20.5604
198648;8.80874e-05;8.81884e-05;6.47458;20.5208
200448;8.80836e-05;8.81846e-05;6.46414;20.4811
202248;8.80799e-05;8.81808e-05;6.46051;20.4414
204048;8.80762e-05;8.81771e-05;6.44145;20.4017
205848;8.80725e-05;8.81735e-05;6.42815;20.362
207648;8.8069e-05;8.81699e-05;6.41977;20.3224
209448;8.80654e-05;8.81663e-05;6.40552;20.2827
211248;8.80619e-05;8.81628e-05;6.39611;20.243
213048;8.80584e-05;8.81593e-05;6.39515;20.2033
214848;8.80549e-05;8.81558e-05;6.38714;20.1637
216000;8.80521e-05;8.81529e-05;6.3831;20.1383
216360;8.80506e-05;8.81515e-05;6.33266;20.1303
218160;8.80486e-05;8.81494e-05;6.37627;20.0907
219960;8.80451e-05;8.8146e-05;6.36885;20.051
221760;8.80417e-05;8.81425e-05;6.36128;20.0113
223560;8.80383e-05;8.81391e-05;6.3545;19.9717
225360;8.80349e-05;8.81357e-05;6.34864;19.932
227160;8.80316e-05;8.81323e-05;6.34277;19.8924
228960;8.80282e-05;8.81289e-05;6.33662;19.8527
230760;8.80248e-05;8.81256e-05;6.33024;19.813
232560;8.80214e-05;8.81222e-05;6.32803;19.7734
234360;8.80181e-05;8.81188e-05;6.32153;19.7337
236160;8.80147e-05;8.81154e-05;6.31871;19.6941
237960;8.80113e-05;8.8112e-05;6.31452;19.6544
239760;8.80079e-05;8.81086e-05;6.31108;19.6148
241560;8.80045e-05;8.81052e-05;6.30694;19.5751
243360;8.80011e-05;8.81018e-05;6.30484;19.5355
245160;8.79977e-05;8.80983e-05;6.30289;19.4959
246960;8.79943e-05;8.80949e-05;6.29397;19.4562
248760;8.79908e-05;8.80914e-05;6.29277;19.4166
250560;8.79874e-05;8.8088e-05;6.29235;19.3769
252360;8.79839e-05;8.80845e-05;6.28907;19.3373
254160;8.79805e-05;8.8081e-05;6.28679;19.2977
255960;8.7977e-05;8.80775e-05;6.2793;19.258
257760;8.79735e-05;8.8074e-05;6.27891;19.2184
259200;8.79703e-05;8.80708e-05;6.27576;19.1867
259560;8.79685e-05;8.80691e-05;6.2752;19.1788
261360;8.79664e-05;8.80669e-05;6.27372;19.1391
263160;8.79629e-05;8.80634e-05;6.2727;19.0995
264960;8.79593e-05;8.80598e-05;6.27422;19.0599
266760;8.79558e-05;8.80563e-05;6.26791;19.0202
268560;8.79524e-05;8.80528e-05;6.26714;18.9806
270360;8.79489e-05;8.80493e-05;6.26887;18.941
272160;8.79454e-05;8.80458e-05;6.27109;18.9014
273960;8.79419e-05;8.80423e-05;6.26285;18.8618
275760;8.79383e-05;8.80387e-05;6.26607;18.8221
277560;8.79347e-05;8.80351e-05;6.26141;18.7825
279360;8.79311e-05;8.80314e-05;6.26129;18.7429
281160;8.79274e-05;8.80278e-05;6.26237;18.7033
282960;8.79237e-05;8.80241e-05;6.2626;18.6637
284760;8.792e-05;8.80203e-05;6.26196;18.6241
286560;8.79162e-05;8.80165e-05;6.263;18.5845
288360;8.79125e-05;8.80127e-05;6.26019;18.5449
290160;8.79086e-05;8.80089e-05;6.25724;18.5053
291960;8.79048e-05;8.8005e-05;6.25825;18.4657
293760;8.79009e-05;8.80011e-05;6.25712;18.4261
295560;8.7897e-05;8.79972e-05;6.25655;18.3865
297360;8.7893e-05;8.79932e-05;6.25958;18.3469
299160;8.7889e-05;8.79892e-05;6.26003;18.3073
300960;8.7885e-05;8.79852e-05;6.25692;18.2677
302400;8.78814e-05;8.79815e-05;6.25505;18.236
302760;8.78794e-05;8.79795e-05;6.25505;18.2281
304560;8.78769e-05;8.7977e-05;6.25293;18.1885
306360;8.78728e-05;8.79729e-05;6.25585;18.1489
308160;8.78686e-05;8.79687e-05;6.25625;18.1093
309960;8.78645e-05;8.79645e-05;6.25787;18.0697
311760;8.78602e-05;8.79603e-05;6.25955;18.0302
313560;8.7856e-05;8.7956e-05;6.25701;17.9906
315360;8.78517e-05;8.79517e-05;6.25466;17.951
317160;8.78474e-05;8.79474e-05;6.25492;17.9114
318960;8.7843e-05;8.7943e-05;6.25772;17.8718
320760;8.78386e-05;8.79386e-05;6.25782;17.8323
322560;8.78341e-05;8.79341e-05;6.25504;17.7927
324360;8.78297e-05;8.79296e-05;6.25538;17.7531
326160;8.78252e-05;8.79251e-05;6.25467;17.7136
327960;8.78206e-05;8.79205e-05;6.25496;17.674
329760;8.7816e-05;8.79159e-05;6.25432;17.6344
331560;8.78114e-05;8.79113e-05;6.25486;17.5949
333360;8.78067e-05;8.79066e-05;6.2566;17.5553
335160;8.7802e-05;8.79019e-05;6.25669;17.5158
336960;8.77972e-05;8.78971e-05;6.25891;17.4762
338760;8.77924e-05;8.78923e-05;6.25382;17.4367
340560;8.77876e-05;8.78874e-05;6.25579;17.3971
342360;8.77827e-05;8.78825e-05;6.25844;17.3576
344160;8.77778e-05;8.78776e-05;6.25385;17.318
345600;8.77734e-05;8.78731e-05;6.25416;17.2864
345960;8.77709e-05;8.78706e-05;6.25424;17.2785
347760;8.77679e-05;8.78676e-05;6.25469;17.2389
349560;8.77628e-05;8.78626e-05;6.25496;17.1994
351360;8.77578e-05;8.78575e-05;6.25509;17.1599
353160;8.77526e-05;8.78523e-05;6.25478;17.1203
354960;8.77475e-05;8.78471e-05;6.25484;17.0808
356760;8.77423e-05;8.78419e-05;6.25507;17.0413
358560;8.7737e-05;8.78367e-05;6.25571;17.0017
360360;8.77318e-05;8.78314e-05;6.25561;16.9622
362160;8.77265e-05;8.78261e-05;6.25733;16.9227
363960;8.77212e-05;8.78208e-05;6.25649;16.8832
365760;8.7716e-05;8.78155e-05;6.25771;16.8437
367560;8.77107e-05;8.78102e-05;6.259;16.8041
369360;8.77054e-05;8.78049e-05;6.25993;16.7646
371160;8.77e-05;8.77995e-05;6.26072;16.7251
372960;8.76945e-05;8.7794e-05;6.26144;16.6856
374760;8.7689e-05;8.77885e-05;6.26221;16.6461
376560;8.76835e-05;8.77829e-05;6.26348;16.6066
378360;8.76778e-05;8.77772e-05;6.26353;16.5671
380160;8.76721e-05;8.77715e-05;6.26702;16.5276
381960;8.76664e-05;8.77658e-05;6.26615;16.4881
383760;8.76606e-05;8.77599e-05;6.2671;16.4486
385560;8.76547e-05;8.7754e-05;6.26617;16.4091
387360;8.76487e-05;8.7748e-05;6.26528;16.3697
388800;8.76433e-05;8.77426e-05;6.267;16.3381
389160;8.76403e-05;8.77396e-05;6.26777;16.3302
390960;8.76366e-05;8.77359e-05;6.26448;16.2907
392760;8.76304e-05;8.77297e-05;6.26629;16.2512
394560;8.76242e-05;8.77234e-05;6.26292;16.2117
396360;8.76179e-05;8.77171e-05;6.26302;16.1723
398160;8.76115e-05;8.77107e-05;6.26274;16.1328
399960;8.7605e-05;8.77042e-05;6.26224;16.0933
401760;8.75984e-05;8.76976e-05;6.26151;16.0539
403560;8.75918e-05;8.76909e-05;6.26055;16.0144
405360;8.7585e-05;8.76841e-05;6.25938;15.9749
407160;8.75781e-05;8.76772e-05;6.25797;15.9355
408960;8.75712e-05;8.76702e-05;6.25632;15.896
410760;8.75641e-05;8.76631e-05;6.25438;15.8566
412560;8.75569e-05;8.76559e-05;6.25215;15.8171
414360;8.75495e-05;8.76485e-05;6.2496;15.7777
416160;8.7542e-05;8.7641e-05;6.2467;15.7383
417960;8.75344e-05;8.76333e-05;6.24339;15.6988
419760;8.75266e-05;8.76255e-05;6.23962;15.6594
421560;8.75185e-05;8.76174e-05;6.23525;15.62
423360;8.75103e-05;8.76091e-05;6.23014;15.5805
425160;8.75017e-05;8.76005e-05;6.22389;15.5411
426960;8.74924e-05;8.75912e-05;6.21546;15.5017
428760;8.74087e-05;8.75071e-05;6.10134;15.4623
430560;8.71427e-05;8.72404e-05;5.81347;15.4231
432000;8.694e-05;8.70373e-05;5.65489;15.3917
432360;8.68365e-05;8.69336e-05;5.58322;15.3839
434160;8.67099e-05;8.68068e-05;5.49171;15.3448
435960;8.63899e-05;8.64861e-05;5.2364;15.3059
437760;8.61054e-05;8.62011e-05;5.06997;15.2671
439560;8.5715e-05;8.58099e-05;4.78328;15.2285
441360;8.53441e-05;8.54383e-05;4.57553;15.1901
443160;8.48774e-05;8.49708e-05;4.27553;15.1518
444960;8.4382e-05;8.44745e-05;3.98075;15.1138
446760;8.38228e-05;8.39143e-05;3.65912;15.0761
448560;8.31871e-05;8.32775e-05;3.2943;15.0386
450360;8.24729e-05;8.2562e-05;2.89164;15.0014
452160;8.16724e-05;8.17602e-05;2.45191;14.9646
453960;8.07752e-05;8.08614e-05;1.97107;14.9283
455760;7.97481e-05;7.98325e-05;1.41688;14.8923
457560;7.86207e-05;7.87032e-05;0.851219;14.8569
459360;7.74301e-05;7.75108e-05;0.329635;14.822
461160;7.6054e-05;7.61324e-05;-0.343592;14.7878
462960;7.47169e-05;7.47935e-05;-0.836045;14.7541
464760;7.33606e-05;7.34352e-05;-1.31597;14.7211
466560;7.20454e-05;7.21183e-05;-1.72295;14.6886
468360;7.08044e-05;7.08757e-05;-2.04629;14.6567
470160;6.9583e-05;6.96528e-05;-2.3516;14.6254
471960;6.85083e-05;6.8577e-05;-2.52193;14.5945
473760;6.74759e-05;6.75435e-05;-2.68009;14.5641
475200;6.65581e-05;6.66247e-05;-2.83487;14.5401
475560;6.60027e-05;6.60685e-05;-3.00628;14.5342
477360;6.54166e-05;6.54818e-05;-3.07307;14.5047
479160;6.43128e-05;6.43766e-05;-3.30616;14.4758
480960;6.3279e-05;6.33417e-05;-3.44745;14.4473
482760;6.22797e-05;6.23413e-05;-3.57461;14.4192
484560;6.13149e-05;6.13753e-05;-3.68432;14.3916
486360;6.03732e-05;6.04327e-05;-3.78497;14.3644
488160;5.94532e-05;5.95116e-05;-3.86369;14.3376
489960;5.85425e-05;5.86e-05;-3.89963;14.3112
491760;5.76707e-05;5.77273e-05;-3.96616;14.2853
493560;5.67531e-05;5.68086e-05;-4.04666;14.2597
495360;5.59209e-05;5.59756e-05;-4.04221;14.2345
497160;5.51827e-05;5.52367e-05;-3.96819;14.2097
498960;5.43712e-05;5.44243e-05;-4.02299;14.1852
500760;5.35974e-05;5.36497e-05;-4.00551;14.161
502560;5.2924e-05;5.29757e-05;-3.91253;14.1372
504360;5.22105e-05;5.22615e-05;-3.90303;14.1137
506160;5.15509e-05;5.16014e-05;-3.82251;14.0904
507960;5.09154e-05;5.09653e-05;-3.76096;14.0675
509760;5.03002e-05;5.03495e-05;-3.68594;14.0449
511560;4.97315e-05;4.97803e-05;-3.58299;14.0224
513360;4.91811e-05;4.92294e-05;-3.48748;14.0003
515160;4.8685e-05;4.8733e-05;-3.37135;13.9784
516960;4.81773e-05;4.82248e-05;-3.28069;13.9567
518400;4.75968e-05;4.76436e-05;-3.31559;13.9395
518760;4.73008e-05;4.73473e-05;-3.28696;13.9353
520560;4.69414e-05;4.69875e-05;-3.26854;13.9141
522360;4.63791e-05;4.64247e-05;-3.1878;13.8932
524160;4.5909e-05;4.59543e-05;-3.0525;13.8725
525960;4.53016e-05;4.53461e-05;-3.07826;13.8521
527760;4.47553e-05;4.47993e-05;-3.01069;13.832
529560;4.42465e-05;4.429e-05;-2.92407;13.812
531360;4.37841e-05;4.38273e-05;-2.80838;13.7923
533160;4.3314e-05;4.33567e-05;-2.73212;13.7728
534960;4.28348e-05;4.28771e-05;-2.66715;13.7535
536760;4.23938e-05;4.24357e-05;-2.56434;13.7344
538560;4.19942e-05;4.20358e-05;-2.45009;13.7155
540360;4.1538e-05;4.15791e-05;-2.40573;13.6968
542160;4.117e-05;4.12109e-05;-2.26987;13.6782
543960;4.07769e-05;4.08174e-05;-2.19406;13.6599
545760;4.04173e-05;4.04575e-05;-2.08536;13.6417
547560;4.00715e-05;4.01114e-05;-1.98849;13.6236
549360;3.9708e-05;3.97476e-05;-1.91657;13.6057
551160;3.93162e-05;3.93554e-05;-1.88063;13.588
552960;3.89118e-05;3.89506e-05;-1.83512;13.5705
554760;3.85393e-05;3.85777e-05;-1.77219;13.5531
556560;3.81853e-05;3.82234e-05;-1.69468;13.5359
558360;3.77937e-05;3.78314e-05;-1.66144;13.5189
560160;3.7442e-05;3.74794e-05;-1.57566;13.502
561600;3.71725e-05;3.72098e-05;-1.4739;13.4887
561960;3.70306e-05;3.70678e-05;-1.41799;13.4853
563760;3.68122e-05;3.68491e-05;-1.39884;13.4687
565560;3.64468e-05;3.64833e-05;-1.36967;13.4523
567360;3.61123e-05;3.61485e-05;-1.30366;13.4361
569160;3.57931e-05;3.58291e-05;-1.23797;13.4199
570960;3.54843e-05;3.55199e-05;-1.17084;13.4039
572760;3.51736e-05;3.5209e-05;-1.11977;13.3881
574560;3.48683e-05;3.49034e-05;-1.05787;13.3724
576360;3.46074e-05;3.46423e-05;-0.963871;13.3568
578160;3.43519e-05;3.43866e-05;-0.887212;13.3413
579960;3.40729e-05;3.41074e-05;-0.841018;13.326
581760;3.38267e-05;3.3861e-05;-0.762984;13.3107
583560;3.36065e-05;3.36406e-05;-0.670966;13.2956
585360;3.33699e-05;3.34039e-05;-0.619156;13.2806
587160;3.3165e-05;3.31988e-05;-0.536325;13.2656
588960;3.29248e-05;3.29584e-05;-0.508782;13.2508
590760;3.26254e-05;3.26586e-05;-0.517824;13.2361
592560;3.23421e-05;3.2375e-05;-0.491148;13.2215
594360;3.20693e-05;3.2102e-05;-0.46379;13.2071
596160;3.18304e-05;3.18628e-05;-0.409804;13.1928
597960;3.15704e-05;3.16025e-05;-0.390211;13.1785
599760;3.13329e-05;3.13648e-05;-0.34456;13.1644
601560;3.10795e-05;3.11112e-05;-0.322957;13.1504
603360;3.08191e-05;3.08505e-05;-0.296274;13.1365
604800;3.06188e-05;3.06501e-05;-0.248367;13.1255
605160;3.05131e-05;3.05443e-05;-0.220866;13.1228
606960;3.03913e-05;3.04224e-05;-0.187403;13.1091
608760;3.0161e-05;3.01918e-05;-0.161733;13.0955
610560;2.99386e-05;2.99693e-05;-0.121505;13.082
612360;2.97095e-05;2.97399e-05;-0.101299;13.0686
614160;2.94893e-05;2.95195e-05;-0.0669162;13.0553
615960;2.92903e-05;2.93204e-05;-0.0191276;13.0421
617760;2.91018e-05;2.91318e-05;0.0302989;13.029
619560;2.89088e-05;2.89386e-05;0.0640459;13.016
621360;2.87103e-05;2.87399e-05;0.095659;13.0031
623160;2.8542e-05;2.85715e-05;0.151556;12.9902
624960;2.83871e-05;2.84165e-05;0.207852;12.9774
626760;2.82301e-05;2.82594e-05;0.24929;12.9647
628560;2.8072e-05;2.81011e-05;0.287713;12.9521
630360;2.79426e-05;2.79717e-05;0.350929;12.9395
632160;2.78237e-05;2.78527e-05;0.404751;12.9269
633960;2.76802e-05;2.7709e-05;0.425195;12.9145
635760;2.75256e-05;2.75542e-05;0.438696;12.9021
637560;2.73025e-05;2.73309e-05;0.397484;12.8898
639360;2.70805e-05;2.71086e-05;0.386534;12.8776
641160;2.69046e-05;2.69326e-05;0.414468;12.8655
642960;2.67301e-05;2.67578e-05;0.428251;12.8534
644760;2.655e-05;2.65776e-05;0.438697;12.8415
646560;2.63868e-05;2.64142e-05;0.460774;12.8296
648000;2.62228e-05;2.625e-05;0.457292;12.8201
648360;2.61364e-05;2.61635e-05;0.464958;12.8178
650160;2.60324e-05;2.60594e-05;0.471973;12.806
651960;2.5861e-05;2.58879e-05;0.48621;12.7944
653760;2.56805e-05;2.57072e-05;0.485616;12.7828
655560;2.55126e-05;2.55391e-05;0.502218;12.7713
657360;2.53596e-05;2.5386e-05;0.524768;12.7599
659160;2.52135e-05;2.52397e-05;0.547951;12.7485
660960;2.50727e-05;2.50989e-05;0.571157;12.7372
662760;2.49082e-05;2.49341e-05;0.572414;12.726
664560;2.47614e-05;2.47872e-05;0.593278;12.7149
666360;2.46224e-05;2.46482e-05;0.615446;12.7038
668160;2.44848e-05;2.45104e-05;0.632865;12.6927
669960;2.43367e-05;2.43622e-05;0.639727;12.6818
671760;2.42036e-05;2.4229e-05;0.660876;12.6709
673560;2.40776e-05;2.41029e-05;0.684159;12.66
675360;2.39535e-05;2.39786e-05;0.702938;12.6492
677160;2.38208e-05;2.38458e-05;0.714191;12.6385
678960;2.37105e-05;2.37355e-05;0.745918;12.6278
680760;2.36134e-05;2.36383e-05;0.782866;12.6172
682560;2.35316e-05;2.35564e-05;0.826753;12.6066
684360;2.34467e-05;2.34715e-05;0.856658;12.596
686160;2.33854e-05;2.34102e-05;0.908335;12.5855
687960;2.33304e-05;2.33552e-05;0.950509;12.575
689760;2.3259e-05;2.32837e-05;0.970165;12.5645
691200;2.31576e-05;2.31822e-05;0.949984;12.5562
691560;2.31055e-05;2.31301e-05;0.950843;12.5541
693360;2.2983e-05;2.30073e-05;0.892204;12.5437
695160;2.2819e-05;2.28431e-05;0.8754;12.5335
696960;2.26864e-05;2.27103e-05;0.874549;12.5232
698760;2.25603e-05;2.25841e-05;0.879224;12.5131
700560;2.24452e-05;2.24689e-05;0.888554;12.503
702360;2.23174e-05;2.2341e-05;0.879862;12.4929
704160;2.21942e-05;2.22177e-05;0.881415;12.4829
705960;2.2079e-05;2.21023e-05;0.886435;12.473
707760;2.19427e-05;2.19658e-05;0.872327;12.4631
709560;2.18164e-05;2.18394e-05;0.873269;12.4533
711360;2.16999e-05;2.17228e-05;0.878536;12.4435
713160;2.15858e-05;2.16086e-05;0.882338;12.4338
714960;2.14554e-05;2.1478e-05;0.870481;12.4241
716760;2.13407e-05;2.13633e-05;0.876932;12.4145
718560;2.12327e-05;2.12552e-05;0.884374;12.4049
720360;2.1128e-05;2.11504e-05;0.891715;12.3954
722160;2.10264e-05;2.10487e-05;0.899605;12.3859
723960;2.09285e-05;2.09506e-05;0.90861;12.3765
725760;2.08185e-05;2.08405e-05;0.904831;12.3671
727560;2.07115e-05;2.07334e-05;0.9093;12.3578
729360;2.0614e-05;2.06358e-05;0.91849;12.3485
731160;2.05205e-05;2.05423e-05;0.928503;12.3393
732960;2.04312e-05;2.04529e-05;0.939999;12.33
734400;2.03545e-05;2.03761e-05;0.951574;12.3227
734760;2.03131e-05;2.03347e-05;0.958174;12.3209
736560;2.02631e-05;2.02847e-05;0.964075;12.3118
738360;2.01683e-05;2.01898e-05;0.962671;12.3027
740160;2.00853e-05;2.01067e-05;0.974821;12.2936
741960;2.00091e-05;2.00304e-05;0.98973;12.2846
743760;1.9925e-05;1.99463e-05;0.991965;12.2756
745560;1.98481e-05;1.98693e-05;1.00521;12.2667
747360;1.97852e-05;1.98063e-05;1.027;12.2578
749160;1.97343e-05;1.97555e-05;1.05485;12.2489
750960;1.96963e-05;1.97174e-05;1.08814;12.24
752760;1.965e-05;1.96711e-05;1.10496;12.2312
754560;1.96134e-05;1.96345e-05;1.13275;12.2223
756360;1.95828e-05;1.96039e-05;1.16007;12.2135
758160;1.95529e-05;1.9574e-05;1.1823;12.2047
759960;1.94948e-05;1.95158e-05;1.17199;12.1959
761760;1.93593e-05;1.93801e-05;1.10147;12.1872
763560;1.92378e-05;1.92587e-05;1.08101;12.1785
765360;1.9147e-05;1.91671e-05;1.07645;12.1699
767160;1.90495e-05;1.90699e-05;1.06377;12.1613
768960;1.89639e-05;1.89842e-05;1.06453;12.1528
770760;1.88834e-05;1.89036e-05;1.06543;12.1443
772560;1.87864e-05;1.88065e-05;1.04964;12.1358
774360;1.86917e-05;1.87116e-05;1.04327;12.1274
776160;1.86085e-05;1.86284e-05;1.04395;12.119
777600;1.85341e-05;1.85539e-05;1.04154;12.1123
777960;1.84824e-05;1.85022e-05;1.02873;12.1107
779760;1.84291e-05;1.84488e-05;1.02755;12.1024
781560;1.83452e-05;1.83648e-05;1.0268;12.0941
783360;1.82639e-05;1.82834e-05;1.02594;12.0859
785160;1.81831e-05;1.82025e-05;1.02342;12.0777
786960;1.80893e-05;1.81087e-05;1.01002;12.0695
788760;1.80073e-05;1.80265e-05;1.01015;12.0614
790560;1.79296e-05;1.79487e-05;1.01104;12.0533
792360;1.78542e-05;1.78733e-05;1.01205;12.0453
794160;1.77803e-05;1.77993e-05;1.01308;12.0373
795960;1.7708e-05;1.77269e-05;1.01442;12.0293
797760;1.76374e-05;1.76563e-05;1.01621;12.0214
799560;1.75687e-05;1.75875e-05;1.01858;12.0134
