Time;TotalMassChange;WaterMassChange;IntEnergyChange;WaterMass
0.000897248;0.000994936;0.00091725;2319.17;25.038
0.00692404;0.000528549;0.000616588;1542.97;25.038
0.0465806;0.000383567;0.000369427;925.929;25.038
0.265283;0.000289856;0.000286125;714.93;25.038
2.03113;0.000267203;0.000265684;655.017;25.0379
16.5694;0.000240367;0.000239914;568.066;25.037
134.852;0.000193675;0.000193794;409.22;25.0313
1081.44;0.000142775;0.000142963;228.811;24.9975
2881.44;0.000119733;0.000119888;144.677;24.9435
4681.44;0.000110297;0.000110436;109.678;24.8938
6481.44;0.000105697;0.000105829;92.5063;24.8462
8281.44;0.000102837;0.000102964;81.7701;24.7999
10081.4;0.000100836;0.000100959;74.2021;24.7544
11881.4;9.93346e-05;9.94558e-05;68.4472;24.7097
13681.4;9.81546e-05;9.82739e-05;63.8277;24.6655
15481.4;9.71951e-05;9.73129e-05;59.9579;24.6217
17281.4;9.63946e-05;9.65111e-05;56.609;24.5782
19081.4;9.57135e-05;9.58289e-05;53.6407;24.5351
20881.4;9.51248e-05;9.52393e-05;50.9574;24.4922
22681.4;9.46094e-05;9.4723e-05;48.4977;24.4496
24481.4;9.41533e-05;9.42661e-05;46.2213;24.4072
26281.4;9.37461e-05;9.38582e-05;44.0996;24.365
28081.4;9.33799e-05;9.34914e-05;42.1109;24.3229
29881.4;9.30478e-05;9.31588e-05;40.243;24.281
31681.4;9.2745e-05;9.28554e-05;38.4792;24.2392
33481.4;9.24674e-05;9.25774e-05;36.8123;24.1975
35281.4;9.22119e-05;9.23213e-05;35.2368;24.156
37081.4;9.19757e-05;9.20847e-05;33.7443;24.1145
38881.4;9.17567e-05;9.18653e-05;32.3312;24.0732
40681.4;9.1553e-05;9.16613e-05;30.9917;24.032
42481.4;9.13632e-05;9.14711e-05;29.7191;23.9908
43200;9.12374e-05;9.13451e-05;28.8636;23.9744
44280;9.11515e-05;9.1259e-05;28.2817;23.9497
46080;9.10198e-05;9.11271e-05;27.3748;23.9087
47880;9.08641e-05;9.09711e-05;26.2908;23.8678
49680;9.0718e-05;9.08247e-05;25.2667;23.8269
51480;9.05804e-05;9.06868e-05;24.2879;23.7861
53280;9.04507e-05;9.05569e-05;23.3635;23.7454
55080;9.03285e-05;9.04344e-05;22.4859;23.7047
56880;9.02131e-05;9.03188e-05;21.649;23.664
58608;9.01066e-05;9.02121e-05;20.8814;23.6251
60408;9.00051e-05;9.01104e-05;20.1475;23.5845
62208;8.99075e-05;9.00126e-05;19.4283;23.544
63928;8.98174e-05;8.99224e-05;18.7618;23.5053
65728;8.97314e-05;8.98362e-05;18.1367;23.4649
67352;8.9653e-05;8.97576e-05;17.5666;23.4285
69080;8.95791e-05;8.96835e-05;17.0193;23.3897
70766;8.9508e-05;8.96124e-05;16.494;23.352
72566;8.94386e-05;8.95428e-05;15.9842;23.3117
74081;8.93769e-05;8.9481e-05;15.5307;23.2778
75834.3;8.93178e-05;8.94218e-05;15.0878;23.2386
77634.3;8.92572e-05;8.9361e-05;14.6399;23.1984
79434.3;8.91991e-05;8.93028e-05;14.2079;23.1582
81234.3;8.9144e-05;8.92476e-05;13.7978;23.118
82936.2;8.90934e-05;8.91969e-05;13.4239;23.0801
84520.6;8.90483e-05;8.91517e-05;13.0867;23.0448
86003.9;8.90077e-05;8.9111e-05;12.7927;23.0117
86400;8.89846e-05;8.90879e-05;12.627;23.0029
87271.2;8.89682e-05;8.90714e-05;12.4945;22.9835
88956.6;8.89366e-05;8.90398e-05;12.2648;22.946
90560.3;8.88984e-05;8.90015e-05;11.986;22.9103
91965.1;8.88654e-05;8.89684e-05;11.7253;22.879
93498.8;8.88338e-05;8.89367e-05;11.5087;22.8449
94818.5;8.88051e-05;8.89079e-05;11.2969;22.8156
96129.3;8.87791e-05;8.88819e-05;11.1025;22.7865
97737.9;8.8751e-05;8.88538e-05;10.8877;22.7508
99483.3;8.87205e-05;8.88232e-05;10.6946;22.712
101283;8.86899e-05;8.87925e-05;10.437;22.672
103083;8.86605e-05;8.8763e-05;10.223;22.6321
104883;8.86325e-05;8.8735e-05;10.0259;22.5922
106643;8.86062e-05;8.87086e-05;9.80858;22.5531
108443;8.85811e-05;8.86834e-05;9.64889;22.5132
110243;8.85569e-05;8.86593e-05;9.46977;22.4733
112043;8.8534e-05;8.86363e-05;9.31432;22.4334
113803;8.85124e-05;8.86147e-05;9.15411;22.3944
115603;8.84918e-05;8.8594e-05;9.00474;22.3546
117363;8.84723e-05;8.85744e-05;8.86805;22.3156
119123;8.84538e-05;8.85559e-05;8.73582;22.2766
120851;8.84364e-05;8.85385e-05;8.60184;22.2384
122651;8.84195e-05;8.85215e-05;8.50136;22.1986
124451;8.84032e-05;8.85052e-05;8.36233;22.1587
126211;8.83879e-05;8.84898e-05;8.26663;22.1198
128011;8.83732e-05;8.84751e-05;8.1603;22.08
129600;8.836e-05;8.84619e-05;8.05361;22.0448
131134;8.83484e-05;8.84502e-05;7.98733;22.0109
132894;8.83364e-05;8.84381e-05;7.90433;21.972
134694;8.8324e-05;8.84258e-05;7.82191;21.9322
136374;8.83125e-05;8.84143e-05;7.74453;21.8951
138174;8.83014e-05;8.84031e-05;7.66806;21.8553
139974;8.82905e-05;8.83922e-05;7.59231;21.8155
141774;8.828e-05;8.83817e-05;7.5303;21.7758
143502;8.82702e-05;8.83718e-05;7.45702;21.7376
145302;8.82607e-05;8.83623e-05;7.39788;21.6978
147102;8.82515e-05;8.83531e-05;7.33501;21.6581
148902;8.82426e-05;8.83442e-05;7.28858;21.6183
150702;8.82341e-05;8.83356e-05;7.22562;21.5786
152430;8.82261e-05;8.83276e-05;7.18824;21.5404
154230;8.82184e-05;8.83198e-05;7.1241;21.5007
156030;8.82108e-05;8.83122e-05;7.08012;21.4609
157830;8.82035e-05;8.83049e-05;7.0401;21.4212
159630;8.81964e-05;8.82978e-05;6.99592;21.3814
161430;8.81896e-05;8.8291e-05;6.95659;21.3417
163230;8.81831e-05;8.82844e-05;6.93172;21.302
165030;8.81768e-05;8.82781e-05;6.88511;21.2623
166830;8.81706e-05;8.82719e-05;6.85289;21.2225
168450;8.8165e-05;8.82663e-05;6.82127;21.1868
170164;8.81597e-05;8.8261e-05;6.79904;21.149
171865;8.81544e-05;8.82557e-05;6.76017;21.1114
172800;8.81505e-05;8.82517e-05;6.73709;21.0908
173520;8.8148e-05;8.82492e-05;6.74063;21.0749
175320;8.81443e-05;8.82455e-05;6.71667;21.0352
177120;8.81392e-05;8.82404e-05;6.68499;20.9955
178920;8.81342e-05;8.82354e-05;6.65523;20.9558
180720;8.81294e-05;8.82305e-05;6.63334;20.9161
182520;8.81246e-05;8.82258e-05;6.62288;20.8764
184320;8.81201e-05;8.82212e-05;6.60674;20.8367
186120;8.81156e-05;8.82167e-05;6.59061;20.797
187920;8.81113e-05;8.82124e-05;6.56708;20.7573
189680;8.81071e-05;8.82082e-05;6.55177;20.7185
191480;8.81031e-05;8.82042e-05;6.53404;20.6788
193280;8.80991e-05;8.82002e-05;6.52342;20.6391
195080;8.80952e-05;8.81962e-05;6.50498;20.5994
196880;8.80913e-05;8.81923e-05;6.49081;20.5597
198680;8.80874e-05;8.81884e-05;6.48344;20.52
200480;8.80836e-05;8.81846e-05;6.46272;20.4804
202280;8.80799e-05;8.81809e-05;6.45477;20.4407
204080;8.80762e-05;8.81772e-05;6.44064;20.401
205880;8.80726e-05;8.81735e-05;6.43311;20.3613
207680;8.8069e-05;8.81699e-05;6.41945;20.3216
209480;8.80654e-05;8.81663e-05;6.41157;20.282
211280;8.80619e-05;8.81628e-05;6.39993;20.2423
213080;8.80584e-05;8.81593e-05;6.38854;20.2026
214880;8.80549e-05;8.81558e-05;6.38825;20.163
216000;8.80521e-05;8.8153e-05;6.37125;20.1383
216360;8.80507e-05;8.81515e-05;6.38019;20.1303
218160;8.80486e-05;8.81494e-05;6.37561;20.0907
219960;8.80452e-05;8.8146e-05;6.36289;20.051
221760;8.80418e-05;8.81426e-05;6.36223;20.0113
223560;8.80384e-05;8.81392e-05;6.34963;19.9717
225360;8.8035e-05;8.81358e-05;6.34575;19.932
227160;8.80316e-05;8.81324e-05;6.34502;19.8924
228960;8.80282e-05;8.8129e-05;6.3371;19.8527
230760;8.80249e-05;8.81256e-05;6.334;19.813
232560;8.80215e-05;8.81222e-05;6.32844;19.7734
234360;8.80181e-05;8.81188e-05;6.324;19.7337
236160;8.80147e-05;8.81154e-05;6.31902;19.6941
237960;8.80113e-05;8.8112e-05;6.31863;19.6544
239760;8.8008e-05;8.81086e-05;6.31251;19.6148
241560;8.80046e-05;8.81052e-05;6.3067;19.5751
243360;8.80011e-05;8.81018e-05;6.30425;19.5355
245160;8.79977e-05;8.80984e-05;6.3009;19.4959
246960;8.79943e-05;8.80949e-05;6.29574;19.4562
248760;8.79909e-05;8.80915e-05;6.29075;19.4166
250560;8.79874e-05;8.8088e-05;6.29282;19.3769
252360;8.7984e-05;8.80845e-05;6.2902;19.3373
254160;8.79805e-05;8.8081e-05;6.28391;19.2977
255960;8.7977e-05;8.80775e-05;6.28048;19.258
257760;8.79735e-05;8.8074e-05;6.2815;19.2184
259200;8.79703e-05;8.80708e-05;6.28236;19.1867
259560;8.79685e-05;8.80691e-05;6.27523;19.1788
261360;8.79664e-05;8.80669e-05;6.274;19.1391
263160;8.79629e-05;8.80634e-05;6.27194;19.0995
264960;8.79593e-05;8.80598e-05;6.27532;19.0599
266760;8.79558e-05;8.80563e-05;6.26819;19.0202
268560;8.79524e-05;8.80528e-05;6.26705;18.9806
270360;8.79489e-05;8.80493e-05;6.26583;18.941
272160;8.79454e-05;8.80458e-05;6.26695;18.9014
273960;8.79419e-05;8.80423e-05;6.2634;18.8618
275760;8.79383e-05;8.80387e-05;6.2644;18.8221
277560;8.79347e-05;8.80351e-05;6.26563;18.7825
279360;8.79311e-05;8.80314e-05;6.26297;18.7429
281160;8.79274e-05;8.80278e-05;6.26593;18.7033
282960;8.79237e-05;8.8024e-05;6.26038;18.6637
284760;8.792e-05;8.80203e-05;6.26369;18.6241
286560;8.79162e-05;8.80165e-05;6.26289;18.5845
288360;8.79125e-05;8.80127e-05;6.26276;18.5449
290160;8.79086e-05;8.80089e-05;6.26579;18.5053
291960;8.79048e-05;8.8005e-05;6.25783;18.4657
293760;8.79009e-05;8.80011e-05;6.25775;18.4261
295560;8.7897e-05;8.79972e-05;6.25581;18.3865
297360;8.7893e-05;8.79932e-05;6.25615;18.3469
299160;8.7889e-05;8.79892e-05;6.25683;18.3073
300960;8.7885e-05;8.79852e-05;6.2571;18.2677
302400;8.78814e-05;8.79815e-05;6.25647;18.236
302760;8.78793e-05;8.79795e-05;6.25677;18.2281
304560;8.78769e-05;8.7977e-05;6.25505;18.1885
306360;8.78728e-05;8.79729e-05;6.25783;18.1489
308160;8.78686e-05;8.79687e-05;6.25833;18.1093
309960;8.78644e-05;8.79645e-05;6.25733;18.0697
311760;8.78602e-05;8.79603e-05;6.25469;18.0302
313560;8.78559e-05;8.7956e-05;6.25415;17.9906
315360;8.78516e-05;8.79517e-05;6.25458;17.951
317160;8.78473e-05;8.79473e-05;6.25471;17.9114
318960;8.7843e-05;8.7943e-05;6.25664;17.8718
320760;8.78385e-05;8.79385e-05;6.2591;17.8323
322560;8.78341e-05;8.79341e-05;6.2573;17.7927
324360;8.78296e-05;8.79296e-05;6.24761;17.7531
326160;8.78251e-05;8.79251e-05;6.25436;17.7136
327960;8.78206e-05;8.79205e-05;6.25549;17.674
329760;8.7816e-05;8.79159e-05;6.25959;17.6344
331560;8.78113e-05;8.79112e-05;6.25405;17.5949
333360;8.78067e-05;8.79066e-05;6.25739;17.5553
335160;8.7802e-05;8.79018e-05;6.25446;17.5158
336960;8.77972e-05;8.78971e-05;6.25501;17.4762
338760;8.77924e-05;8.78923e-05;6.25968;17.4367
340560;8.77876e-05;8.78874e-05;6.25489;17.3971
342360;8.77827e-05;8.78825e-05;6.25711;17.3576
344160;8.77778e-05;8.78776e-05;6.25303;17.318
345600;8.77733e-05;8.78731e-05;6.25456;17.2864
345960;8.77709e-05;8.78706e-05;6.25402;17.2785
347760;8.77679e-05;8.78676e-05;6.25528;17.2389
349560;8.77628e-05;8.78625e-05;6.25434;17.1994
351360;8.77577e-05;8.78574e-05;6.25449;17.1599
353160;8.77526e-05;8.78523e-05;6.2546;17.1203
354960;8.77474e-05;8.78471e-05;6.25508;17.0808
356760;8.77423e-05;8.78419e-05;6.25508;17.0413
358560;8.7737e-05;8.78366e-05;6.25622;17.0017
360360;8.77318e-05;8.78314e-05;6.25608;16.9622
362160;8.77265e-05;8.78261e-05;6.25667;16.9227
363960;8.77212e-05;8.78208e-05;6.25651;16.8832
365760;8.7716e-05;8.78155e-05;6.25775;16.8437
367560;8.77107e-05;8.78102e-05;6.25909;16.8041
369360;8.77054e-05;8.78049e-05;6.26;16.7646
371160;8.77e-05;8.77995e-05;6.26065;16.7251
372960;8.76945e-05;8.7794e-05;6.2613;16.6856
374760;8.7689e-05;8.77885e-05;6.26207;16.6461
376560;8.76834e-05;8.77829e-05;6.26242;16.6066
378360;8.76778e-05;8.77772e-05;6.26521;16.5671
380160;8.76721e-05;8.77715e-05;6.26423;16.5276
381960;8.76664e-05;8.77657e-05;6.26581;16.4881
383760;8.76605e-05;8.77599e-05;6.26464;16.4486
385560;8.76547e-05;8.7754e-05;6.26779;16.4091
387360;8.76487e-05;8.7748e-05;6.26615;16.3696
388800;8.76433e-05;8.77426e-05;6.26665;16.3381
389160;8.76403e-05;8.77395e-05;6.26293;16.3302
390960;8.76366e-05;8.77359e-05;6.26607;16.2907
392760;8.76304e-05;8.77297e-05;6.26489;16.2512
394560;8.76242e-05;8.77234e-05;6.26304;16.2117
396360;8.76179e-05;8.77171e-05;6.26303;16.1723
398160;8.76115e-05;8.77107e-05;6.26275;16.1328
399960;8.7605e-05;8.77042e-05;6.26224;16.0933
401760;8.75984e-05;8.76976e-05;6.26151;16.0539
403560;8.75918e-05;8.76909e-05;6.26054;16.0144
405360;8.7585e-05;8.76841e-05;6.25936;15.9749
407160;8.75781e-05;8.76772e-05;6.25795;15.9355
408960;8.75712e-05;8.76702e-05;6.25629;15.896
410760;8.75641e-05;8.76631e-05;6.25437;15.8566
412560;8.75568e-05;8.76558e-05;6.25214;15.8171
414360;8.75495e-05;8.76485e-05;6.24959;15.7777
416160;8.7542e-05;8.7641e-05;6.24668;15.7383
417960;8.75344e-05;8.76333e-05;6.24338;15.6988
419760;8.75266e-05;8.76255e-05;6.2396;15.6594
421560;8.75185e-05;8.76174e-05;6.23524;15.62
423360;8.75103e-05;8.76091e-05;6.23012;15.5805
425160;8.75017e-05;8.76005e-05;6.22388;15.5411
426960;8.74924e-05;8.75912e-05;6.21545;15.5017
428760;8.74086e-05;8.75071e-05;6.10132;15.4623
430560;8.71427e-05;8.72404e-05;5.81346;15.4231
432000;8.694e-05;8.70373e-05;5.65489;15.3917
432360;8.68365e-05;8.69336e-05;5.58318;15.3839
434160;8.67099e-05;8.68068e-05;5.49169;15.3448
435960;8.63899e-05;8.64861e-05;5.23639;15.3059
437760;8.61054e-05;8.62011e-05;5.06996;15.2671
439560;8.5715e-05;8.58098e-05;4.78326;15.2285
441360;8.53441e-05;8.54383e-05;4.57553;15.1901
443160;8.48774e-05;8.49708e-05;4.27552;15.1518
444960;8.4382e-05;8.44745e-05;3.98073;15.1138
446760;8.38228e-05;8.39142e-05;3.6591;15.0761
448560;8.31871e-05;8.32775e-05;3.29429;15.0386
450360;8.24729e-05;8.2562e-05;2.89162;15.0014
452160;8.16724e-05;8.17602e-05;2.45189;14.9646
453960;8.07751e-05;8.08613e-05;1.97105;14.9283
455760;7.97481e-05;7.98325e-05;1.41687;14.8923
457560;7.86206e-05;7.87032e-05;0.851203;14.8569
459360;7.743e-05;7.75107e-05;0.329629;14.822
461160;7.6054e-05;7.61324e-05;-0.343625;14.7878
462960;7.47169e-05;7.47934e-05;-0.836057;14.7541
464760;7.33606e-05;7.34352e-05;-1.316;14.7211
466560;7.20454e-05;7.21183e-05;-1.72297;14.6886
468360;7.08044e-05;7.08757e-05;-2.04631;14.6567
470160;6.95829e-05;6.96528e-05;-2.3516;14.6254
471960;6.85083e-05;6.8577e-05;-2.52193;14.5945
473760;6.74759e-05;6.75435e-05;-2.68011;14.5641
475200;6.65581e-05;6.66247e-05;-2.83488;14.5401
475560;6.60027e-05;6.60685e-05;-3.00629;14.5342
477360;6.54166e-05;6.54818e-05;-3.07308;14.5047
479160;6.43128e-05;6.43766e-05;-3.30616;14.4758
480960;6.3279e-05;6.33417e-05;-3.44745;14.4473
482760;6.22797e-05;6.23412e-05;-3.57462;14.4192
484560;6.13148e-05;6.13753e-05;-3.68432;14.3916
486360;6.03732e-05;6.04327e-05;-3.78498;14.3644
488160;5.94532e-05;5.95116e-05;-3.8637;14.3376
489960;5.85425e-05;5.85999e-05;-3.89963;14.3112
491760;5.76707e-05;5.77272e-05;-3.96616;14.2853
493560;5.67531e-05;5.68086e-05;-4.04666;14.2597
495360;5.59209e-05;5.59755e-05;-4.04221;14.2345
497160;5.51827e-05;5.52367e-05;-3.9682;14.2097
498960;5.43711e-05;5.44242e-05;-4.02299;14.1852
500760;5.35974e-05;5.36497e-05;-4.00551;14.161
502560;5.29239e-05;5.29757e-05;-3.91253;14.1372
504360;5.22104e-05;5.22615e-05;-3.90303;14.1137
506160;5.15509e-05;5.16014e-05;-3.82251;14.0904
507960;5.09154e-05;5.09653e-05;-3.76096;14.0675
509760;5.03002e-05;5.03495e-05;-3.68594;14.0449
511560;4.97315e-05;4.97803e-05;-3.58299;14.0224
513360;4.91811e-05;4.92294e-05;-3.48748;14.0003
515160;4.8685e-05;4.87329e-05;-3.37135;13.9784
516960;4.81773e-05;4.82248e-05;-3.28069;13.9567
518400;4.75968e-05;4.76436e-05;-3.31559;13.9395
518760;4.73008e-05;4.73473e-05;-3.28696;13.9353
520560;4.69414e-05;4.69875e-05;-3.26854;13.9141
522360;4.63791e-05;4.64247e-05;-3.1878;13.8932
524160;4.5909e-05;4.59542e-05;-3.0525;13.8725
525960;4.53016e-05;4.53461e-05;-3.07826;13.8521
527760;4.47553e-05;4.47992e-05;-3.01069;13.832
529560;4.42465e-05;4.429e-05;-2.92407;13.812
531360;4.37841e-05;4.38273e-05;-2.80838;13.7923
533160;4.3314e-05;4.33567e-05;-2.73212;13.7728
534960;4.28348e-05;4.28771e-05;-2.66715;13.7535
536760;4.23938e-05;4.24357e-05;-2.56434;13.7344
538560;4.19942e-05;4.20358e-05;-2.45009;13.7155
540360;4.1538e-05;4.1579e-05;-2.40573;13.6968
542160;4.117e-05;4.12109e-05;-2.26987;13.6782
543960;4.07769e-05;4.08174e-05;-2.19405;13.6599
545760;4.04173e-05;4.04575e-05;-2.08536;13.6417
547560;4.00714e-05;4.01114e-05;-1.98849;13.6236
549360;3.9708e-05;3.97476e-05;-1.91657;13.6057
551160;3.93162e-05;3.93554e-05;-1.88063;13.588
552960;3.89118e-05;3.89506e-05;-1.83512;13.5705
554760;3.85393e-05;3.85777e-05;-1.77219;13.5531
556560;3.81853e-05;3.82234e-05;-1.69468;13.5359
558360;3.77937e-05;3.78314e-05;-1.66144;13.5189
560160;3.7442e-05;3.74794e-05;-1.57566;13.502
561600;3.71725e-05;3.72098e-05;-1.4739;13.4887
561960;3.70306e-05;3.70678e-05;-1.41799;13.4853
563760;3.68122e-05;3.68491e-05;-1.39884;13.4687
565560;3.64468e-05;3.64833e-05;-1.36967;13.4523
567360;3.61123e-05;3.61485e-05;-1.30365;13.4361
569160;3.57931e-05;3.5829e-05;-1.23797;13.4199
570960;3.54843e-05;3.55199e-05;-1.17084;13.4039
572760;3.51736e-05;3.5209e-05;-1.11977;13.3881
574560;3.48683e-05;3.49034e-05;-1.05786;13.3724
576360;3.46074e-05;3.46423e-05;-0.963663;13.3568
578160;3.43519e-05;3.43866e-05;-0.887354;13.3413
579960;3.40729e-05;3.41074e-05;-0.841012;13.326
581760;3.38267e-05;3.3861e-05;-0.762978;13.3107
583560;3.36064e-05;3.36406e-05;-0.670971;13.2956
585360;3.33699e-05;3.34039e-05;-0.619159;13.2806
587160;3.3165e-05;3.31988e-05;-0.536323;13.2656
588960;3.29248e-05;3.29584e-05;-0.50879;13.2508
590760;3.26254e-05;3.26586e-05;-0.517826;13.2361
592560;3.23421e-05;3.2375e-05;-0.491151;13.2215
594360;3.20693e-05;3.2102e-05;-0.463792;13.2071
596160;3.18304e-05;3.18628e-05;-0.409805;13.1928
597960;3.15704e-05;3.16025e-05;-0.390214;13.1785
599760;3.13329e-05;3.13648e-05;-0.344563;13.1644
601560;3.10795e-05;3.11112e-05;-0.322959;13.1504
603360;3.08191e-05;3.08505e-05;-0.296277;13.1365
604800;3.06188e-05;3.06501e-05;-0.248377;13.1255
605160;3.05131e-05;3.05443e-05;-0.220868;13.1228
606960;3.03913e-05;3.04224e-05;-0.187407;13.1091
608760;3.0161e-05;3.01918e-05;-0.161733;13.0955
610560;2.99386e-05;2.99693e-05;-0.121506;13.082
612360;2.97095e-05;2.97399e-05;-0.101296;13.0686
614160;2.94893e-05;2.95195e-05;-0.0669189;13.0553
615960;2.92903e-05;2.93204e-05;-0.0191282;13.0421
617760;2.91018e-05;2.91317e-05;0.0302972;13.029
619560;2.89088e-05;2.89385e-05;0.0640457;13.016
621360;2.87103e-05;2.87399e-05;0.0956558;13.0031
623160;2.8542e-05;2.85715e-05;0.151551;12.9902
624960;2.83871e-05;2.84165e-05;0.207849;12.9774
626760;2.82301e-05;2.82594e-05;0.24929;12.9647
628560;2.8072e-05;2.81011e-05;0.287713;12.9521
630360;2.79426e-05;2.79717e-05;0.350931;12.9395
632160;2.78237e-05;2.78527e-05;0.404751;12.9269
633960;2.76802e-05;2.7709e-05;0.425196;12.9145
635760;2.75256e-05;2.75542e-05;0.438695;12.9021
637560;2.73025e-05;2.73308e-05;0.397483;12.8898
639360;2.70805e-05;2.71086e-05;0.386535;12.8776
641160;2.69046e-05;2.69326e-05;0.414469;12.8655
642960;2.67301e-05;2.67578e-05;0.428251;12.8534
644760;2.655e-05;2.65776e-05;0.438697;12.8414
646560;2.63868e-05;2.64142e-05;0.460774;12.8296
648000;2.62228e-05;2.625e-05;0.457292;12.8201
648360;2.61364e-05;2.61635e-05;0.464961;12.8178
650160;2.60324e-05;2.60594e-05;0.471807;12.806
651960;2.5861e-05;2.58879e-05;0.486223;12.7944
653760;2.56805e-05;2.57072e-05;0.485626;12.7828
655560;2.55126e-05;2.55391e-05;0.502228;12.7713
657360;2.53596e-05;2.5386e-05;0.524777;12.7599
659160;2.52135e-05;2.52397e-05;0.547959;12.7485
660960;2.50727e-05;2.50989e-05;0.571164;12.7372
662760;2.49081e-05;2.49341e-05;0.572421;12.726
664560;2.47614e-05;2.47872e-05;0.593285;12.7149
666360;2.46224e-05;2.46482e-05;0.615453;12.7038
668160;2.44848e-05;2.45104e-05;0.632861;12.6927
669960;2.43367e-05;2.43622e-05;0.639743;12.6818
671760;2.42036e-05;2.42289e-05;0.660887;12.6709
673560;2.40776e-05;2.41029e-05;0.684167;12.66
675360;2.39535e-05;2.39786e-05;0.702944;12.6492
677160;2.38208e-05;2.38458e-05;0.714197;12.6385
678960;2.37105e-05;2.37355e-05;0.745923;12.6278
680760;2.36134e-05;2.36383e-05;0.78287;12.6172
682560;2.35316e-05;2.35564e-05;0.826757;12.6066
684360;2.34467e-05;2.34715e-05;0.856661;12.596
686160;2.33854e-05;2.34102e-05;0.908339;12.5855
687960;2.33304e-05;2.33552e-05;0.950512;12.575
689760;2.3259e-05;2.32837e-05;0.970167;12.5645
691200;2.31576e-05;2.31822e-05;0.949986;12.5562
691560;2.31055e-05;2.31301e-05;0.950845;12.5541
693360;2.29829e-05;2.30073e-05;0.892203;12.5437
695160;2.2819e-05;2.28431e-05;0.875401;12.5335
696960;2.26864e-05;2.27103e-05;0.87455;12.5232
698760;2.25603e-05;2.25841e-05;0.879226;12.5131
700560;2.24452e-05;2.24689e-05;0.888555;12.503
702360;2.23174e-05;2.2341e-05;0.879863;12.4929
704160;2.21942e-05;2.22177e-05;0.881414;12.4829
705960;2.2079e-05;2.21023e-05;0.886435;12.473
707760;2.19427e-05;2.19658e-05;0.872328;12.4631
709560;2.18164e-05;2.18394e-05;0.873271;12.4533
711360;2.16999e-05;2.17228e-05;0.878537;12.4435
713160;2.15858e-05;2.16086e-05;0.882339;12.4338
714960;2.14554e-05;2.1478e-05;0.870483;12.4241
716760;2.13407e-05;2.13633e-05;0.876933;12.4145
718560;2.12327e-05;2.12552e-05;0.884375;12.4049
720360;2.1128e-05;2.11504e-05;0.891716;12.3954
722160;2.10264e-05;2.10487e-05;0.899607;12.3859
723960;2.09285e-05;2.09506e-05;0.908626;12.3765
725760;2.08185e-05;2.08405e-05;0.904835;12.3671
727560;2.07115e-05;2.07334e-05;0.909303;12.3578
729360;2.0614e-05;2.06358e-05;0.91849;12.3485
731160;2.05205e-05;2.05422e-05;0.928501;12.3393
732960;2.04312e-05;2.04529e-05;0.939998;12.33
734400;2.03545e-05;2.03761e-05;0.951572;12.3227
734760;2.03131e-05;2.03347e-05;0.958167;12.3209
736560;2.02631e-05;2.02847e-05;0.964074;12.3118
738360;2.01683e-05;2.01897e-05;0.962673;12.3027
740160;2.00853e-05;2.01067e-05;0.974816;12.2936
741960;2.00091e-05;2.00304e-05;0.989723;12.2846
743760;1.9925e-05;1.99463e-05;0.991968;12.2756
745560;1.98481e-05;1.98693e-05;1.00523;12.2667
747360;1.97852e-05;1.98063e-05;1.02701;12.2578
749160;1.97343e-05;1.97555e-05;1.05485;12.2489
750960;1.96963e-05;1.97174e-05;1.08814;12.24
752760;1.965e-05;1.96711e-05;1.10496;12.2312
754560;1.96134e-05;1.96345e-05;1.13275;12.2223
756360;1.95828e-05;1.96039e-05;1.16007;12.2135
758160;1.95529e-05;1.9574e-05;1.1823;12.2047
759960;1.94948e-05;1.95158e-05;1.17199;12.1959
761760;1.93593e-05;1.93801e-05;1.10146;12.1872
763560;1.92378e-05;1.92587e-05;1.08101;12.1785
765360;1.91469e-05;1.91671e-05;1.07645;12.1699
767160;1.90495e-05;1.90699e-05;1.06377;12.1613
768960;1.89639e-05;1.89842e-05;1.06453;12.1528
770760;1.88834e-05;1.89036e-05;1.06542;12.1443
772560;1.87864e-05;1.88065e-05;1.04964;12.1358
774360;1.86917e-05;1.87116e-05;1.04326;12.1274
776160;1.86085e-05;1.86284e-05;1.04396;12.119
777600;1.85341e-05;1.85539e-05;1.04154;12.1123
777960;1.84824e-05;1.85022e-05;1.02873;12.1107
779760;1.84291e-05;1.84488e-05;1.02755;12.1024
781560;1.83452e-05;1.83648e-05;1.0268;12.0941
783360;1.82639e-05;1.82834e-05;1.02593;12.0859
785160;1.81831e-05;1.82025e-05;1.02342;12.0777
786960;1.80893e-05;1.81087e-05;1.01002;12.0695
788760;1.80073e-05;1.80265e-05;1.01015;12.0614
790560;1.79296e-05;1.79487e-05;1.01104;12.0533
792360;1.78542e-05;1.78732e-05;1.01205;12.0453
794160;1.77803e-05;1.77993e-05;1.01308;12.0373
795960;1.7708e-05;1.77269e-05;1.01442;12.0293
797760;1.76374e-05;1.76563e-05;1.01621;12.0214
799560;1.75687e-05;1.75875e-05;1.01858;12.0134
